<svg width="417" height="281" viewBox="0 0 417 281" fill="none" xmlns="http://www.w3.org/2000/svg">
<path d="M98.859 72.0022C57.5268 72.1875 36.0008 84.7695 0 111.069V281H417V173.003C312.953 203.548 269.765 131.093 239.678 113.669C195.337 87.9925 147.337 71.785 98.859 72.0022Z" fill="white"/>
<path d="M226.234 223.679C173.801 223.679 131.296 221.353 131.296 218.485C131.296 215.617 173.801 213.29 226.234 213.29C278.669 213.29 321.174 215.617 321.174 218.485C321.174 221.353 278.669 223.679 226.234 223.679Z" fill="#C9D0DA"/>
<path d="M247.605 200.339L245.78 174.827H196.805L194.968 200.517C194.763 203.38 193.958 206.137 192.644 208.611H250.023C248.653 206.092 247.815 203.273 247.605 200.339Z" fill="#C1C0BF"/>
<path d="M260.319 208.611H182.349C181.327 208.611 180.498 209.471 180.498 210.532V216.141C180.498 217.202 181.327 218.062 182.349 218.062H260.319C261.341 218.062 262.171 217.202 262.171 216.141V210.532C262.171 209.471 261.341 208.611 260.319 208.611Z" fill="#DFDCDB"/>
<path d="M246.225 181.057L246.223 181.002L246.225 181.057Z" fill="#C1C0BF"/>
<path d="M195.386 194.701L196.365 181.002H246.224L246.226 181.058L247.082 194.342L195.386 194.701Z" fill="#929393"/>
<path d="M94.3984 156.621V172.922C94.3984 177.488 97.9728 181.192 102.384 181.192H340.107C344.516 181.192 348.093 177.488 348.093 172.922V156.621H94.3984Z" fill="#DFDCDB"/>
<path d="M340.253 0H102.528C98.1186 0 94.542 3.70147 94.542 8.26758V156.398H348.237V8.26758C348.237 3.70147 344.662 0 340.253 0Z" fill="#5F5F5F"/>
<path fill-rule="evenodd" clip-rule="evenodd" d="M105.037 146.004H336.829V10.396H105.037V146.004Z" fill="#101011"/>
<path d="M160.975 140.462H200.708V76.875H160.975V140.462Z" fill="#002C6B"/>
<path d="M115.747 16.3984V140.461H158.227V16.3984H115.747Z" fill="#002C6B"/>
<path d="M243.19 16.2202H160.975V73.2688H243.19V16.2202Z" fill="url(#paint0_linear)"/>
<path d="M245.937 73.2688H285.67V16.2202H245.937V73.2688Z" fill="#002C6B"/>
<path d="M288.417 73.2688H330.296V16.2202H288.417V73.2688Z" fill="#002C6B"/>
<path d="M298.027 76.875H245.937V140.462H330.296V76.875H298.027Z" fill="url(#paint1_linear)"/>
<path d="M203.456 140.462H243.192V76.875H203.456V140.462Z" fill="#002C6B"/>
<path d="M118.321 26.3514H124.758V19.686H118.321V26.3514Z" fill="#FEFEFE"/>
<path d="M127.204 22.2644H155.524V19.686H127.204V22.2644Z" fill="#15F7F7"/>
<path d="M127.204 26.3515H145.012V23.7754H127.204V26.3515Z" fill="#15F7F7"/>
<path d="M118.321 56.1678H124.758V49.5024H118.321V56.1678Z" fill="#FEFEFE"/>
<path d="M127.204 52.0808H155.524V49.5024H127.204V52.0808Z" fill="#15F7F7"/>
<path d="M127.204 56.1684H145.012V53.5923H127.204V56.1684Z" fill="#15F7F7"/>
<path d="M118.321 85.9852H124.758V79.3198H118.321V85.9852Z" fill="#FEFEFE"/>
<path d="M127.204 81.8982H155.524V79.3198H127.204V81.8982Z" fill="#15F7F7"/>
<path d="M127.204 85.9848H145.012V83.4087H127.204V85.9848Z" fill="#15F7F7"/>
<path d="M118.321 115.8H124.758V109.137H118.321V115.8Z" fill="#FEFEFE"/>
<path d="M127.204 111.713H155.524V109.137H127.204V111.713Z" fill="#15F7F7"/>
<path d="M127.204 115.8H145.012V113.224H127.204V115.8Z" fill="#15F7F7"/>
<path d="M118.492 32.3949H155.566V30.9731H118.492V32.3949Z" fill="#8187C1"/>
<path d="M118.492 35.4169H155.566V33.9951H118.492V35.4169Z" fill="#8187C1"/>
<path d="M118.492 38.4393H155.566V37.0176H118.492V38.4393Z" fill="#8187C1"/>
<path d="M118.492 41.4598H155.566V40.0381H118.492V41.4598Z" fill="#8187C1"/>
<path d="M118.492 61.9887H155.566V60.5669H118.492V61.9887Z" fill="#8187C1"/>
<path d="M118.492 65.0106H155.566V63.5889H118.492V65.0106Z" fill="#8187C1"/>
<path d="M118.492 68.0321H155.566V66.6104H118.492V68.0321Z" fill="#8187C1"/>
<path d="M118.492 71.0539H155.566V69.6299H118.492V71.0539Z" fill="#8187C1"/>
<path d="M118.492 91.8495H155.566V90.4277H118.492V91.8495Z" fill="#8187C1"/>
<path d="M118.492 94.8717H155.566V93.4478H118.492V94.8717Z" fill="#8187C1"/>
<path d="M118.492 97.8942H155.566V96.4702H118.492V97.8942Z" fill="#8187C1"/>
<path d="M118.492 100.916H155.566V99.4922H118.492V100.916Z" fill="#8187C1"/>
<path d="M118.492 122.066H155.566V120.645H118.492V122.066Z" fill="#8187C1"/>
<path d="M118.492 125.088H155.566V123.667H118.492V125.088Z" fill="#8187C1"/>
<path d="M118.492 128.11H155.566V126.686H118.492V128.11Z" fill="#8187C1"/>
<path d="M118.492 131.131H155.566V129.708H118.492V131.131Z" fill="#8187C1"/>
<path d="M163.293 116.867H169.727V110.202H163.293V116.867Z" fill="#FEFEFE"/>
<path d="M171.67 112.78H198.352V110.202H171.67V112.78Z" fill="#15F7F7"/>
<path d="M171.67 116.867H188.447V114.289H171.67V116.867Z" fill="#15F7F7"/>
<path d="M163.461 122.599H198.389V121.177H163.461V122.599Z" fill="#8187C1"/>
<path d="M163.461 125.62H198.389V124.199H163.461V125.62Z" fill="#8187C1"/>
<path d="M163.461 128.641H198.389V127.22H163.461V128.641Z" fill="#8187C1"/>
<path d="M163.461 131.664H198.389V130.243H163.461V131.664Z" fill="#8187C1"/>
<path d="M247.996 25.9524H254.43V19.2871H247.996V25.9524Z" fill="#FEFEFE"/>
<path d="M256.373 21.8632H283.055V19.2871H256.373V21.8632Z" fill="#15F7F7"/>
<path d="M256.373 25.9528H273.15V23.3745H256.373V25.9528Z" fill="#15F7F7"/>
<path d="M248.164 31.6845H283.095V30.2627H248.164V31.6845Z" fill="#8187C1"/>
<path d="M248.164 34.7059H283.095V33.2842H248.164V34.7059Z" fill="#8187C1"/>
<path d="M248.164 37.7279H283.095V36.3062H248.164V37.7279Z" fill="#8187C1"/>
<path d="M248.164 40.7499H283.095V39.3281H248.164V40.7499Z" fill="#8187C1"/>
<path d="M164.063 25.597H170.5V18.9316H164.063V25.597Z" fill="#FEFEFE"/>
<path d="M172.441 21.51H199.121V18.9316H172.441V21.51Z" fill="#F08FB4"/>
<path d="M172.441 25.5956H189.218V23.0195H172.441V25.5956Z" fill="#F08FB4"/>
<path d="M247.996 52.0813H254.43V45.416H247.996V52.0813Z" fill="#FEFEFE"/>
<path d="M256.373 47.9921H283.055V45.416H256.373V47.9921Z" fill="#15F7F7"/>
<path d="M256.373 52.0808H273.15V49.5024H256.373V52.0808Z" fill="#15F7F7"/>
<path d="M248.164 57.8129H283.095V56.3911H248.164V57.8129Z" fill="#8187C1"/>
<path d="M248.164 60.8348H283.095V59.4131H248.164V60.8348Z" fill="#8187C1"/>
<path d="M248.164 63.8573H283.095V62.4355H248.164V63.8573Z" fill="#8187C1"/>
<path d="M248.164 66.8788H283.095V65.457H248.164V66.8788Z" fill="#8187C1"/>
<path d="M166.496 67.7028H169.268V37.4292H166.496V67.7028Z" fill="#F08FB4"/>
<path d="M171.35 67.7029H174.123V43.8027H171.35V67.7029Z" fill="#FEFEFE"/>
<path d="M176.202 67.7028H178.976V37.4292H176.202V67.7028Z" fill="#F08FB4"/>
<path d="M181.055 67.7029H183.829V43.8027H181.055V67.7029Z" fill="#FEFEFE"/>
<path d="M185.908 67.7028H188.684V37.4292H185.908V67.7028Z" fill="#F08FB4"/>
<path d="M190.762 67.7028H193.536V37.4292H190.762V67.7028Z" fill="#FEFEFE"/>
<path d="M195.615 67.7029H198.389V43.8027H195.615V67.7029Z" fill="#F08FB4"/>
<path d="M200.471 67.7028H203.242V37.4292H200.471V67.7028Z" fill="#FEFEFE"/>
<path d="M205.323 67.7028H208.097V33.8057H205.323V67.7028Z" fill="#F08FB4"/>
<path d="M210.176 67.7028H212.95V37.4292H210.176V67.7028Z" fill="#FEFEFE"/>
<path d="M215.027 67.7028H217.801V33.8057H215.027V67.7028Z" fill="#F08FB4"/>
<path d="M219.883 67.7028H222.655V37.4292H219.883V67.7028Z" fill="#FEFEFE"/>
<path d="M224.735 67.7028H227.509V28.9365H224.735V67.7028Z" fill="#F08FB4"/>
<path d="M229.59 67.7028H232.362V37.4292H229.59V67.7028Z" fill="#FEFEFE"/>
<path d="M235.845 63.3994H240.101V60.4668H235.845V63.3994Z" fill="#F08FB4"/>
<path d="M235.845 67.6656H240.101V64.7329H235.845V67.6656Z" fill="#FEFEFE"/>
<path d="M248.765 86.9168H255.203V80.2515H248.765V86.9168Z" fill="#FEFEFE"/>
<path d="M257.146 82.8298H283.828V80.2515H257.146V82.8298Z" fill="#F08FB4"/>
<path d="M257.146 86.9159H273.922V84.3398H257.146V86.9159Z" fill="#F08FB4"/>
<path d="M291.248 25.8631H297.685V19.1978H291.248V25.8631Z" fill="#FEFEFE"/>
<path d="M299.629 21.7761H326.309V19.1978H299.629V21.7761Z" fill="#15F7F7"/>
<path d="M299.629 25.8637H316.406V23.2876H299.629V25.8637Z" fill="#15F7F7"/>
<path d="M321.07 130.131H327.122V127.198H321.07V130.131Z" fill="#F08FB4"/>
<path d="M321.07 134.397H327.122V131.464H321.07V134.397Z" fill="#FEFEFE"/>
<path d="M211.209 131.738H214.34V125.853H211.209V131.738Z" fill="#15F7F7"/>
<path d="M216.697 131.738H219.828V122.886H216.697V131.738Z" fill="#15F7F7"/>
<path d="M222.188 131.737H225.319V118.933H222.188V131.737Z" fill="#15F7F7"/>
<path d="M227.677 131.738H230.808V116.789H227.677V131.738Z" fill="#15F7F7"/>
<path d="M233.166 131.512H236.297V110.043H233.166V131.512Z" fill="#15F7F7"/>
<path d="M237.14 134.177H208.222V109.985H208.652V133.809H237.14V134.177Z" fill="#00AFDA"/>
<path d="M211.424 131.555H214.124V110.171H211.424V131.555ZM214.555 131.923H210.991V109.803H214.555V131.923Z" fill="#15F7F7"/>
<path d="M216.913 131.555H219.614V110.171H216.913V131.555ZM220.044 131.923H216.482V109.803H220.044V131.923Z" fill="#15F7F7"/>
<path d="M222.401 131.555H225.102V110.171H222.401V131.555ZM225.534 131.923H221.971V109.803H225.534V131.923Z" fill="#15F7F7"/>
<path d="M227.893 131.555H230.594V110.171H227.893V131.555ZM231.024 131.923H227.463V109.803H231.024V131.923Z" fill="#15F7F7"/>
<path d="M237.954 102.754H208.307V81.7686H208.614V102.433H237.954V102.754Z" fill="#00A8C0"/>
<path d="M234.825 85.9337C234.743 85.3654 233.861 85.332 233.725 85.8913L230.988 97.3256C230.777 97.8559 229.963 97.8559 229.752 97.3256L228.433 93.9851C228.28 93.5996 227.689 93.5996 227.536 93.9851L226.884 95.6342C226.428 96.7885 224.652 96.7885 224.196 95.6342L221.418 88.6056C221.295 88.3003 220.869 88.2156 220.624 88.4518L216.559 92.3695C215.829 93.0714 214.551 92.8308 214.183 91.9193L212.832 85.0334C212.771 84.7259 212.287 84.7392 212.248 85.049L210.142 100.512L236.729 100.769L234.825 85.9337Z" fill="#15F7F7"/>
<path d="M180.523 102.405C175.309 102.405 171.083 98.028 171.083 92.6284C171.083 87.2289 175.309 82.8522 180.523 82.8522C185.737 82.8522 189.964 87.2289 189.964 92.6284C189.964 98.028 185.737 102.405 180.523 102.405ZM180.523 81.5864C174.636 81.5864 169.86 86.5291 169.86 92.6284C169.86 98.7255 174.636 103.67 180.523 103.67C186.413 103.67 191.186 98.7255 191.186 92.6284C191.186 86.5291 186.413 81.5864 180.523 81.5864Z" fill="#94D4EA"/>
<path d="M178.722 88.9466C178.722 87.9438 179.507 87.1304 180.478 87.1304C181.448 87.1304 182.234 87.9438 182.234 88.9466C182.234 89.9494 181.448 90.765 180.478 90.765C179.507 90.765 178.722 89.9494 178.722 88.9466Z" fill="#94D4EA"/>
<path d="M183.418 94.9457C183.418 93.2632 182.101 91.8994 180.479 91.8994C178.854 91.8994 177.539 93.2632 177.539 94.9457V98.2706H183.418V94.9457Z" fill="#94D4EA"/>
<path d="M293.053 48.4982C293.053 40.4 299.39 33.835 307.213 33.835C315.033 33.835 321.373 40.4 321.373 48.4982C321.373 56.5964 315.033 63.1615 307.213 63.1615C299.39 63.1615 293.053 56.5964 293.053 48.4982Z" fill="#4D3684"/>
<path d="M307.213 48.4982L317.279 58.8093C314.62 61.5926 310.994 63.1615 307.213 63.1615C299.444 63.1615 293.053 56.543 293.053 48.4982C293.053 40.4535 299.444 33.835 307.213 33.835V48.4982Z" fill="white"/>
<path d="M307.213 48.4982L295.936 57.3675C294.064 54.8159 293.053 51.7005 293.053 48.4982C293.053 40.4535 299.444 33.835 307.213 33.835V48.4982Z" fill="#15F7F7"/>
<path d="M307.211 48.4982L297.633 37.6969C298.928 36.4668 300.433 35.4952 302.07 34.8333C303.71 34.1737 305.453 33.835 307.211 33.835V48.4982Z" fill="url(#paint2_linear)"/>
<path d="M317.858 103.286C316.612 106.143 314.729 108.77 312.351 110.89C306.741 115.888 298.738 118.177 291.027 117.733C286.446 117.468 281.804 116.236 278.251 113.501C272.837 109.334 270.678 102.357 265.537 97.8954C261.685 94.5482 256.243 92.9237 251.044 93.4674V134.262H317.858V103.286Z" fill="#F08FB4"/>
<path d="M318.399 134.329C313.897 134.329 310.073 128.344 308.205 124.961C307.484 123.659 306.929 122.296 306.488 120.894C303.71 112.062 305.459 101.678 298.709 94.4711C295.616 91.1707 290.185 90.5155 286.145 92.6125C282.369 94.5736 280.783 99.0082 279.804 103.093C277.934 110.897 277.316 127.114 266.664 128.575C258.323 129.719 252.672 117.4 251.099 108.31C251.099 120.199 251.099 134.329 251.099 134.329C251.099 134.329 317.889 134.329 318.399 134.329Z" fill="#FEFEFE"/>
<path d="M170.402 244.817C148.499 244.817 130.743 240.857 130.743 235.974C130.743 231.092 148.499 227.134 170.402 227.134C192.304 227.134 210.058 231.092 210.058 235.974C210.058 240.857 192.304 244.817 170.402 244.817Z" fill="#C9D0DA"/>
<path d="M174.174 242.318C174.174 242.318 180.597 245.268 184.172 245.168L184.751 239.517L177.073 239.216L174.174 242.318Z" fill="#F4A086"/>
<path d="M179.925 245.101C180.977 245.442 192.834 247.29 194.515 246.351C197.655 244.602 196.351 241.201 193.646 240.45C191.675 239.904 181.767 238.833 180.977 239.104C180.977 239.104 183.086 242.445 179.925 245.101Z" fill="#E8407B"/>
<path d="M183.394 239.943C183.394 239.943 184.351 242.314 182.86 244.685C182.86 244.685 178.814 244.576 179.24 241.598C179.667 238.621 183.394 239.943 183.394 239.943Z" fill="#E94A8A"/>
<path d="M212.49 219.104C213.202 223.135 202.083 229.032 189.795 231.61C177.505 234.189 168.248 239.196 166.253 228.981C165.467 224.965 174.923 219.592 187.211 217.012C199.5 214.433 211.775 215.073 212.49 219.104Z" fill="#312C45"/>
<path d="M130.699 219.104C129.987 223.135 141.106 229.032 153.394 231.61C165.684 234.189 176.265 238.668 176.936 228.981C177.221 224.887 168.266 219.592 155.976 217.012C143.691 214.433 131.414 215.073 130.699 219.104Z" fill="#312C45"/>
<path fill-rule="evenodd" clip-rule="evenodd" d="M180.16 236.634L178.324 244.137C178.324 244.137 139.163 236.289 130.817 223.063C130.52 222.59 130.372 222.038 130.355 221.474C130.292 219.602 130.895 215.626 136.303 216.828C136.303 216.828 146.062 217.761 161.321 229.432C166.671 233.9 180.16 236.634 180.16 236.634Z" fill="url(#paint3_linear)"/>
<path d="M165.126 242.927C164.072 243.363 162.985 243.644 162.294 243.867C161.242 244.208 152.884 244.482 151.173 244.821C149.462 245.162 149.135 245.331 147.751 243.969C146.37 242.606 145.989 240.867 147.896 240.119C149.807 239.368 156.305 238.349 157.558 238.211C158.806 238.075 160.452 237.598 161.242 237.87C161.492 237.957 162.507 238.033 163.9 237.534C163.941 238.398 165.126 242.927 165.126 242.927Z" fill="#F4A086"/>
<path d="M162.296 243.867C161.244 244.208 149.384 246.056 147.706 245.12C144.566 243.368 145.87 239.968 148.573 239.217C150.546 238.671 160.454 237.599 161.244 237.871C161.244 237.871 159.135 241.211 162.296 243.867Z" fill="#E8407B"/>
<path d="M158.827 238.711C158.827 238.711 157.868 241.082 159.359 243.453C159.359 243.453 163.407 243.341 162.981 240.364C162.555 237.387 158.827 238.711 158.827 238.711Z" fill="#E94A8A"/>
<path d="M163.321 236.634L165.159 244.137C165.159 244.137 204.316 236.289 212.664 223.063C212.961 222.59 213.109 222.038 213.126 221.474C213.189 219.602 212.586 215.626 207.176 216.828C207.176 216.828 195.65 218.294 182.16 229.432C175.043 234.566 163.321 236.634 163.321 236.634Z" fill="#443A65"/>
<path d="M159.179 169.414C159.131 171.466 159.25 173.309 159.56 175.328C160.192 179.469 157.487 183.879 158.907 187.743C159.514 189.396 160.805 190.602 162.213 191.326C163.62 192.051 165.157 192.351 166.674 192.648C167.879 192.882 169.34 193.004 170.089 191.879C170.573 191.148 170.569 190.143 170.541 189.22C170.296 180.957 170.05 172.688 169.321 164.464C169.153 162.566 168.908 160.533 167.797 159.136C167.022 158.165 164.853 156.966 164.313 158.354C163.859 159.524 163.162 160.886 162.503 161.848C160.932 164.148 159.256 166.178 159.179 169.414Z" fill="#312C45"/>
<path d="M181.386 169.414C181.434 171.466 181.315 173.309 181.005 175.328C180.373 179.469 183.078 183.879 181.655 187.743C181.048 189.396 179.759 190.602 178.352 191.326C176.942 192.051 175.408 192.351 173.889 192.648C172.686 192.882 171.225 193.004 170.476 191.879C169.992 191.148 169.996 190.143 170.024 189.22C170.269 180.957 170.515 172.688 171.242 164.464C171.412 162.566 171.657 160.533 172.768 159.136C173.54 158.165 175.709 156.966 176.25 158.354C176.704 159.524 177.401 160.886 178.061 161.848C179.632 164.148 181.307 166.178 181.386 169.414Z" fill="#312C45"/>
<path fill-rule="evenodd" clip-rule="evenodd" d="M188.513 209.769C187.835 210.569 185.147 212.336 182.73 213.791C182.548 212.058 182.27 209.328 182.24 208.347C182.195 206.863 183.266 205.894 184.573 202.669C185.453 200.494 184.779 194.91 184.779 194.91C184.779 194.91 190.897 203.516 191.868 204.425C192.838 205.334 190.809 207.07 188.513 209.769ZM152.782 210.796C151.049 208.644 148.667 207.342 149.267 206.386C149.868 205.43 155.693 194.595 155.693 194.595C155.693 194.595 155.558 201.755 158.947 205.268C161.133 207.529 158.999 209.961 158.687 210.93C158.407 211.797 158.183 212.385 157.933 214.968C155.861 213.504 153.576 211.784 152.782 210.796ZM198.735 203.995C198.618 203.752 192.307 193.474 190.598 188.788C188.889 184.102 184.779 181.949 182.84 181.278C182.147 181.04 180.914 180.625 179.614 180.188C177.271 179.404 174.712 178.553 174.712 178.553H166.629C166.629 178.553 163.83 179.524 160.856 180.603L160.854 180.605C158.114 181.601 155.228 182.687 154.254 183.192C152.222 184.244 148.805 191.752 148.112 192.612C147.419 193.474 142.093 203.699 141.325 207.627C140.726 210.683 158.22 219.621 158.697 220.769C159.25 220.131 161.8 217.602 161.8 217.602C161.8 217.602 160.985 217.069 159.836 216.287C164.521 216.51 175.973 216.091 177.615 216.176C177.947 216.194 178.304 216.185 178.674 216.154H178.672C179.182 216.537 182.459 219.536 182.459 219.536C182.459 219.536 190.542 216.062 194.259 212.173C199.537 206.649 199.313 205.214 198.735 203.995Z" fill="url(#paint4_linear)"/>
<path d="M153.897 207.338L156.241 222.886H184.922L186.577 207.338H153.897Z" fill="#595356"/>
<path d="M172.466 215.633C172.466 216.876 171.64 217.881 170.62 217.881C169.6 217.881 168.773 216.876 168.773 215.633C168.773 214.394 169.6 213.386 170.62 213.386C171.64 213.386 172.466 214.394 172.466 215.633Z" fill="#716F70"/>
<path d="M174.793 178.582L174.782 178.553C174.389 177.642 174.582 173.198 174.582 173.198C174.582 173.198 166.532 171.074 166.762 172.697C166.992 174.319 166.069 178.749 166.069 178.749H166.067C165.105 179.086 163.028 179.814 160.853 180.603L160.851 180.605C160.851 180.605 164.337 192.249 170.648 192.249C176.96 192.249 179.611 180.189 179.611 180.189C177.507 179.484 175.232 178.727 174.793 178.582Z" fill="#E9CAA7"/>
<path d="M166.1 178.602C168.516 180.931 172.764 181.376 174.826 178.593L174.794 178.582L174.783 178.553C174.389 177.642 174.583 173.198 174.583 173.198C174.583 173.198 166.532 171.074 166.762 172.697C166.969 174.15 166.25 177.844 166.1 178.602Z" fill="#E9CAA7"/>
<path d="M166.743 174.546C167.49 176.344 169.248 177.581 170.64 177.614C172.883 177.67 173.789 176.897 174.54 175.116C174.55 174.118 174.585 173.306 174.585 173.306C174.585 173.306 166.534 171.185 166.765 172.807C166.825 173.235 166.806 173.861 166.743 174.546Z" fill="#D2A979"/>
<path d="M171.58 155.551C171.58 155.551 177.883 156.581 176.938 166.823C176.084 176.069 171.012 176.354 170.64 176.345C170.265 176.334 164.446 175.293 164.018 163.897C164.018 163.897 163.839 154.653 171.58 155.551Z" fill="#E9CAA7"/>
<path d="M164.347 164.797C164.347 164.797 163.491 164.342 163.172 165.091C161.9 168.073 164.257 169.035 164.306 169.198C164.306 169.198 164.427 169.501 164.597 169.338C164.767 169.178 164.347 164.797 164.347 164.797Z" fill="#F4A086"/>
<path d="M176.753 164.647C176.753 164.647 177.491 164.261 177.928 164.943C178.972 166.561 176.844 168.887 176.794 169.05C176.794 169.05 176.674 169.353 176.504 169.19C176.336 169.028 176.753 164.647 176.753 164.647Z" fill="#F4A086"/>
<path d="M178.327 167.277L176.166 172.623C176.166 172.623 176.515 164.209 176.37 163.779C176.224 163.349 175.828 161.954 175.419 161.463C175.211 161.209 169.454 159.077 165.46 161.969C165.46 161.969 164.7 163.119 164.896 164.726C165.658 171.043 165.049 173.415 165.049 173.415C165.049 173.415 161.457 169.379 162.708 160.726C163.123 157.871 164.754 153.726 171.557 154.301C180.25 155.039 178.327 167.277 178.327 167.277Z" fill="#352F4E"/>
<path d="M172.081 163.253C172.94 163.5 173.852 163.502 174.705 163.77C175.557 164.037 176.4 164.692 176.495 165.608C177.162 164.151 177.061 162.364 176.312 160.951C175.565 159.533 174.21 158.499 172.703 158.085C171.886 157.862 171.003 157.811 170.203 158.094C166.904 159.259 170.084 162.678 172.081 163.253Z" fill="#352F4E"/>
<path d="M365.034 98.1367C365.034 98.1367 363.467 114.797 365.886 120.105C365.886 120.105 358.057 117.892 356.49 112.584L359.337 100.2L365.034 98.1367Z" fill="#312C45"/>
<path d="M354.46 101.711C354.46 101.711 353.606 113.763 356.49 117.966C356.49 117.966 351.258 115.755 348.054 111.663C348.054 111.663 347.2 90.5421 355.743 87.7788L357.665 99.057C357.665 99.057 354.673 99.5005 354.46 101.711Z" fill="#312C45"/>
<path d="M363.845 112.318C363.845 112.318 366.601 113.214 368.174 115.454C369.75 117.696 369.995 120.824 370.066 122.424C370.135 124.027 370.557 130.215 370.557 130.215L365.883 131.572L363.845 112.318Z" fill="#D3600C"/>
<path d="M383.655 236.634C383.655 236.634 387.16 241.518 386.678 242.294C386.199 243.069 382.512 243.179 380.268 242.294C378.023 241.409 377.969 235.68 376.956 233.22C376.53 232.19 377.44 229.148 378.718 228.928C379.997 228.707 381.387 229.355 381.387 229.355C381.387 229.355 380.061 232.821 383.655 236.634Z" fill="#3B354D"/>
<path d="M381.413 229.315C381.413 229.315 382.149 231.396 382.418 233.384C382.642 235.031 384.916 238.529 384.809 238.973C384.701 239.416 381.818 239.817 380.643 238.676C379.465 237.535 378.71 234.215 378.452 232.232C378.211 230.382 377.905 229.468 377.905 229.468C377.905 229.468 380.29 228.098 381.413 229.315Z" fill="#F4A086"/>
<path d="M353.14 236.714C353.14 236.714 356.521 241.519 356.039 242.294C355.559 243.07 351.873 243.179 349.628 242.294C347.384 241.41 347.33 235.68 346.316 233.22C345.89 232.19 346.8 229.149 348.079 228.928C349.357 228.707 350.857 229.403 350.857 229.403C350.857 229.403 349.548 232.904 353.14 236.714Z" fill="#3B354D"/>
<path d="M350.856 229.401C350.856 229.401 351.123 231.67 351.549 233.274C351.978 234.879 354.276 238.529 354.168 238.973C354.063 239.416 351.177 239.817 350 238.676C348.825 237.535 347.917 234.23 347.811 232.232C347.704 230.23 348.078 228.927 348.078 228.927C348.078 228.927 349.735 228.185 350.856 229.401Z" fill="#F4A086"/>
<path d="M367.745 149.837C367.745 149.837 370.753 164.329 371.444 167.979C372.135 171.627 374.069 189.299 374.276 192.303C374.483 195.309 377.416 206.629 377.278 207.701C377.14 208.775 381.625 230.333 381.625 230.333C381.625 230.333 380.093 231.61 378.477 230.447C377.646 229.85 368.638 210.266 368.638 204.9C368.638 197.484 363.342 187.801 362.658 186.143C356.309 170.727 357.56 166.013 356.729 165.013C355.9 164.012 355.829 165.632 355.345 167.85C354.863 170.067 353.826 189.241 353.204 191.674C352.582 194.105 353.066 202.333 352.72 206.482C352.375 210.632 350.858 229.402 350.858 229.402C350.858 229.402 349.683 231.307 348.035 229.451C347.682 229.052 345.19 208.544 345.121 203.607C345.052 198.669 344.977 191.861 344.846 189.726C343.565 169.271 340.419 166.348 345.373 151.872C354.65 124.765 367.745 149.837 367.745 149.837Z" fill="#F4A086"/>
<path d="M347.541 145.786C347.541 145.786 338.972 158.207 342.66 184.628C342.66 184.628 362.988 187.494 373.879 181.319C373.879 181.319 369.375 154.076 367.744 149.837C366.112 145.599 347.541 145.786 347.541 145.786Z" fill="#454545"/>
<path d="M376.862 232.789V237.906H377.504V233.95L376.862 232.789Z" fill="#3B354D"/>
<path d="M346.224 232.789V237.906H346.865V233.95L346.224 232.789Z" fill="#3B354D"/>
<path d="M359.044 110.494C359.044 110.494 362.749 112.092 363.845 112.319C364.942 112.544 368.648 118.211 369.393 120.301C370.139 122.389 369.392 125.523 367.858 129.202C366.324 132.879 367.77 134.107 367.068 137.784C366.367 141.463 368.633 149.307 368.764 151.35C368.895 153.394 348.148 153.724 344.07 150C344.07 150 348.168 143.642 348.695 142.735C349.22 141.826 348.783 136.877 348.299 135.604C347.817 134.334 344.606 123.521 344.606 123.521C344.606 123.521 341.981 115.216 344.352 113.308C346.414 111.65 352.031 111.06 353.04 110.697C354.049 110.333 356.982 110.175 359.044 110.494Z" fill="url(#paint5_linear)"/>
<path d="M360.55 106.719C360.55 106.719 360.464 107.539 360.363 108.673C360.318 109.175 360.271 109.739 360.223 110.322C360.096 111.974 359.993 113.761 360.053 114.67C360.053 114.67 356.772 118.075 353.04 110.697C353.04 110.697 354.611 107.655 353.427 103.51C352.246 99.3673 360.55 106.719 360.55 106.719Z" fill="#E9CAA7"/>
<path d="M368.802 134.111L369.351 135.497L368.174 134.626L368.802 134.111Z" fill="#F4A086"/>
<path d="M361.669 87.8751C361.669 87.8751 369.027 90.2685 365.033 103.414C361.039 116.562 350.991 101.892 352.044 93.8808C353.094 85.8739 361.669 87.8751 361.669 87.8751Z" fill="#E9CAA7"/>
<path d="M365.784 95.5457C365.784 95.5457 362.13 99.2605 356.012 99.724C356.012 99.724 353.662 102.579 353.481 103.7C353.481 103.7 347.079 92.6286 354.731 88.2898C362.84 83.6947 368.252 93.1657 365.784 95.5457Z" fill="#312C45"/>
<path d="M360.362 108.673C360.317 109.175 360.27 109.739 360.222 110.323C355.97 108.145 355.318 105.012 355.299 104.914C358.546 108.676 360.362 108.673 360.362 108.673Z" fill="#D2A979"/>
<path d="M369.773 122.336C369.773 122.336 369.976 126.964 368.973 129.619L368.052 129.124C368.052 129.124 369.756 124.493 369.773 122.336Z" fill="#343F56"/>
<path d="M353.819 137.386C353.819 137.386 355.517 136.223 355.781 136.051C356.046 135.882 356.976 135.938 357.929 136.25C358.857 136.553 359.9 136.97 360.191 137.139C360.341 137.226 360.492 137.257 360.425 137.709C360.361 138.164 360.066 138.509 360.066 138.509C360.066 138.509 360.238 139.109 359.842 139.508C359.842 139.508 359.98 140.078 359.459 140.455C359.459 140.455 359.58 141.017 359.177 141.255C359.177 141.255 358.31 141.38 357.983 141.308C357.518 141.206 355.091 140.627 353.386 140.161C353.386 140.161 352.683 139.726 353.819 137.386Z" fill="#E9CAA7"/>
<path d="M359.674 136.997C359.674 136.997 364.075 137.997 364.021 138.349C363.943 138.862 362.852 139.051 359.51 138.1C356.263 137.173 359.674 136.997 359.674 136.997Z" fill="#E9CAA7"/>
<path d="M348.83 112.544C347.831 111.917 344.5 111.986 343.198 115.224C341.898 118.465 340.833 122.15 339.921 123.844C339.008 125.535 335.907 133.262 336.828 134.189C337.749 135.118 339.641 136.221 342.49 136.914C345.432 137.632 353.962 140.923 353.962 140.923L355.051 136.141C355.051 136.141 351.3 134.287 349.135 133.389C347.207 132.586 347.446 132.377 344.27 131.211C344.27 131.211 346.092 126.402 346.912 125.116C347.734 123.831 353.323 115.356 348.83 112.544Z" fill="#D3600C"/>
<path d="M359.413 145.624L372.14 144.561C372.476 144.532 372.779 144.34 372.958 144.041L385.454 123.049C385.887 122.325 385.389 121.387 384.563 121.378L371.008 121.229C370.616 121.224 370.253 121.445 370.067 121.801L358.397 144.006C357.995 144.772 358.574 145.693 359.413 145.624Z" fill="#8D7C78"/>
<path d="M376.427 138.232C376.427 138.232 377.144 137.544 377.785 136.576C378.424 135.609 380.516 131.921 380.325 131.689C380.133 131.458 377.028 131.38 376.464 131.903C375.9 132.429 377.017 132.634 377.017 132.634C377.017 132.634 375.319 132.817 375.442 133.312C375.562 133.809 376.585 133.673 376.585 133.673C376.585 133.673 375.218 133.945 375.425 134.379C375.631 134.816 376.29 134.811 376.29 134.811C376.29 134.811 375.078 134.967 375.229 135.444C375.377 135.921 377.295 136.369 377.039 136.766C376.783 137.16 376.427 138.232 376.427 138.232Z" fill="#E9CAA7"/>
<path d="M352.497 110.836C352.497 110.836 356.618 117.784 359.887 117.702C363.156 117.619 360.924 111.277 360.924 111.277C360.924 111.277 358.417 109.198 352.497 110.836Z" fill="#E9CAA7"/>
<path d="M373.963 134.155C372.859 135.298 371.368 135.606 370.632 134.844C369.896 134.084 370.195 132.54 371.299 131.396C372.403 130.253 373.894 129.943 374.63 130.703C375.366 131.468 375.067 133.012 373.963 134.155Z" fill="#978883"/>
<path d="M366.38 93.7197C366.38 93.7197 366.841 95.5426 366.064 98.7338C366.064 98.7338 366.184 95.7298 365.58 94.912C364.973 94.0919 366.38 93.7197 366.38 93.7197Z" fill="#312C45"/>
<path d="M364.605 247.803C346.048 247.803 331.004 245.478 331.004 242.608C331.004 240.707 337.61 239.045 347.464 238.14C347.89 240.072 348.465 241.835 349.629 242.294C350.714 242.722 352.136 242.918 353.369 242.918C354.688 242.918 355.792 242.695 356.04 242.294C356.384 241.741 354.762 239.136 353.804 237.688C357.193 237.509 360.826 237.414 364.605 237.414C368.93 237.414 373.064 237.541 376.862 237.77V237.906H377.503V237.81C377.684 237.821 377.863 237.835 378.041 237.846C378.474 239.892 379.046 241.813 380.269 242.294C381.353 242.722 382.776 242.918 384.009 242.918C385.328 242.918 386.432 242.695 386.679 242.294C386.963 241.835 385.855 239.941 384.902 238.468C392.985 239.417 398.205 240.919 398.205 242.608C398.205 245.478 383.163 247.803 364.605 247.803Z" fill="#C9D0DA"/>
<path d="M384.007 242.918C382.774 242.918 381.352 242.722 380.267 242.294C379.045 241.812 378.473 239.891 378.04 237.846C378.748 237.895 379.443 237.946 380.123 237.999C380.287 238.269 380.459 238.499 380.642 238.677C381.21 239.23 382.18 239.419 383.041 239.419C383.958 239.419 384.754 239.203 384.808 238.973C384.829 238.891 384.767 238.701 384.649 238.438C384.733 238.45 384.817 238.459 384.901 238.467C385.854 239.94 386.962 241.835 386.678 242.294C386.431 242.695 385.327 242.918 384.007 242.918Z" fill="#373246"/>
<path d="M383.041 239.42C382.18 239.42 381.21 239.23 380.642 238.677C380.459 238.499 380.287 238.27 380.123 238C381.711 238.129 383.224 238.276 384.649 238.439C384.767 238.702 384.829 238.891 384.808 238.974C384.754 239.203 383.958 239.42 383.041 239.42Z" fill="#CC8874"/>
<path d="M353.369 242.917C352.136 242.917 350.713 242.721 349.629 242.293C348.464 241.834 347.89 240.071 347.464 238.139C348.116 238.079 348.779 238.024 349.457 237.97C349.631 238.251 349.812 238.491 350.001 238.676C350.571 239.229 351.54 239.419 352.403 239.419C353.319 239.419 354.116 239.202 354.169 238.973C354.204 238.828 353.984 238.342 353.655 237.696C353.705 237.691 353.752 237.689 353.804 237.687C354.761 239.136 356.384 241.741 356.039 242.293C355.792 242.694 354.688 242.917 353.369 242.917Z" fill="#373246"/>
<path d="M352.401 239.418C351.538 239.418 350.57 239.229 349.999 238.676C349.81 238.491 349.629 238.251 349.455 237.97C350.804 237.863 352.205 237.772 353.654 237.696C353.983 238.342 354.202 238.828 354.168 238.973C354.114 239.202 353.318 239.418 352.401 239.418Z" fill="#CC8874"/>
<path d="M377.504 237.906H376.862V237.771C377.078 237.784 377.291 237.797 377.504 237.811V237.906Z" fill="#373246"/>
<path d="M355.963 99.65C355.916 98.694 355.347 96.5168 353.974 97.1251C352.599 97.7357 354.056 102.17 354.969 101.896C354.969 101.896 356.075 101.914 355.963 99.65Z" fill="#E9CAA7"/>
<path d="M66.7604 247.803C48.2019 247.803 33.1597 245.478 33.1597 242.608C33.1597 239.74 48.2019 237.414 66.7604 237.414C85.3167 237.414 100.361 239.74 100.361 242.608C100.361 245.478 85.3167 247.803 66.7604 247.803Z" fill="#C9D0DA"/>
<path d="M48.2977 144.437C48.8938 148.803 50.2323 151.136 50.9511 151.243C53.9509 151.686 56.6064 146.449 56.6064 146.449L58.1451 139.287C58.1451 139.287 59.4556 123.648 49.9569 119.899C49.7051 119.984 47.3057 137.177 48.2977 144.437Z" fill="#002C6B"/>
<path d="M78.5293 132.887L91.5379 140.292L104.602 119.004L88.8028 113.321L78.5293 132.887Z" fill="#3B354D"/>
<path d="M79.3555 132.248L91.5205 139.171L103.735 119.265L88.9618 113.95L79.3555 132.248Z" fill="#FEFEFE"/>
<path d="M74.9004 128.527C74.9004 128.527 77.1642 127.404 78.1584 126.818C79.1505 126.231 81.707 125.427 81.9136 125.235C82.1202 125.046 89.4928 124.573 89.9383 124.175C90.3859 123.776 90.8206 125.111 88.9096 125.543C87.0009 125.977 84.341 127.036 84.1947 127.811C84.0505 128.582 86.1573 128.767 86.3703 129.405C86.5855 130.04 86.3122 129.897 86.011 130.035C85.8689 130.098 85.3223 129.862 84.6767 129.623C83.9279 129.347 83.0542 129.073 82.5334 129.264C82.0191 129.456 81.3627 129.405 80.7473 129.356C80.2007 129.311 79.6885 129.267 79.3377 129.391C78.5932 129.654 74.9822 130.913 74.9822 130.913L74.9004 128.527Z" fill="#E9CAA7"/>
<path d="M92.1715 137.622C92.1715 137.622 94.0738 135.85 94.9927 135.108C95.9137 134.366 97.6418 132.184 97.8957 132.057C98.1496 131.93 101.449 124.919 101.987 124.639C102.525 124.36 101.479 123.415 100.338 125.109C99.2019 126.805 97.2006 128.986 96.441 128.828C95.6813 128.67 96.3355 126.542 95.8384 126.085C95.3413 125.628 95.365 125.951 95.124 126.192C94.8808 126.432 95.1734 129.078 94.4698 129.884C93.7661 130.691 93.6413 132.331 93.1119 132.953C92.5825 133.577 90.0303 136.612 90.0303 136.612L92.1715 137.622Z" fill="#E9CAA7"/>
<path d="M51.2096 232.372C51.2096 232.372 50.7986 235.329 50.747 235.773C50.6953 236.219 46.1697 235.512 46.1697 235.512L45.8018 231.991C45.8018 231.991 50.6437 231.953 51.2096 232.372Z" fill="#FEFEFE"/>
<path d="M50.7949 235.397C50.7949 235.397 52.2281 237.18 53.6161 237.957C55.002 238.733 57.1819 239.04 58.0018 239.845C58.5936 240.426 60.1581 242.925 54.3995 242.873C48.6387 242.824 45.8626 243.228 45.245 242.269C44.6274 241.311 46.1381 235.196 46.1381 235.196C46.1381 235.196 47.5024 235.707 50.7949 235.397Z" fill="#101011"/>
<path d="M83.6352 232.372C83.6352 232.372 83.2242 235.329 83.1725 235.773C83.1209 236.219 78.5953 235.512 78.5953 235.512L78.2295 231.991C78.2295 231.991 83.0692 231.953 83.6352 232.372Z" fill="#FEFEFE"/>
<path d="M83.2197 235.397C83.2197 235.397 84.6529 237.18 86.0409 237.957C87.4268 238.733 92.5313 239.37 93.3512 240.175C93.9429 240.756 94.9285 243.092 86.8243 242.873C81.0656 242.717 78.2874 243.228 77.6698 242.269C77.0522 241.311 78.5629 235.196 78.5629 235.196C78.5629 235.196 79.8476 235.74 83.2197 235.397Z" fill="#101011"/>
<path d="M54.9586 156.382C54.9586 156.382 50.7042 163.377 51.0227 169.701C51.339 176.026 49.4797 182.929 48.8406 189.537C48.1283 196.9 45.2145 214.337 45.1091 218.277C45.0036 222.217 45.4598 236.742 45.4598 236.742L51.2938 236.883C51.2938 236.883 56.295 204.452 57.5646 201.343C58.8343 198.232 65.1266 176.059 65.3375 173.57C65.5484 171.083 54.9586 156.382 54.9586 156.382Z" fill="#39393D"/>
<path d="M77.3433 157.329C77.3433 157.329 80.5454 174.662 80.9693 178.533C81.3933 182.403 81.6752 197.265 81.8861 199.683C82.097 202.103 83.4161 233.11 84.5459 236.704H77.0872C77.0872 236.704 71.2403 213.68 71.2403 203.623C71.2403 193.566 66.818 181.762 63.9624 175.125C61.1067 168.491 54.5734 168.335 52.8174 156.023C52.8174 156.023 74.9654 153.425 77.3433 157.329Z" fill="#39393D"/>
<path d="M62.0538 97.5615C62.0538 97.5615 67.7608 95.3531 70.3927 99.8523C73.0245 104.352 72.7706 113.359 69.8934 114.467C67.0162 115.574 62.6951 114.997 61.221 112.18C59.7491 109.366 58.4191 105.294 58.4837 102.576C58.5461 99.8546 60.5539 98.3459 62.0538 97.5615Z" fill="#E9CAA7"/>
<path d="M69.2733 114.674C69.2733 114.674 69.0366 116.269 69.4282 117.056C69.8221 117.84 62.0341 117.863 62.0341 117.863C62.0341 117.863 61.4014 113.586 60.2028 109.974C59.0041 106.359 69.2733 114.674 69.2733 114.674Z" fill="#E9CAA7"/>
<path d="M69.8911 116.961C69.8911 116.961 69.8674 115.459 69.2089 115.314C68.5504 115.171 61.9525 114.514 61.1455 114.841V116.591C61.1455 116.591 62.7014 117.582 69.8911 116.961Z" fill="#E5CFC7"/>
<path d="M96.0822 134.708L96.0713 134.706L96.0822 134.708Z" fill="#423B59"/>
<path d="M50.1597 173.049C50.1597 173.049 53.661 174.116 59.6284 174.798C65.5979 175.478 80.511 174.551 80.6057 173.822C80.7004 173.091 77.3971 146.628 77.5865 145.267C77.7737 143.903 77.8748 139.047 77.8748 139.047C77.948 140.38 79.2564 145.813 80.8381 148.776C81.4084 149.846 83.3236 153.2 84.2446 152.438C88.7121 148.743 95.6307 134.824 96.0718 134.706C95.7017 134.541 92.7922 133.153 92.3834 133.012C92.0261 132.888 88.8025 136.422 86.8507 138.612C85.9791 139.589 85.3594 140.299 85.3594 140.299C84.7955 138.985 82.7426 130.706 82.1034 127.842C80.6638 121.38 80.8854 121.112 80.8854 121.112C76.5191 119.744 69.8911 116.961 69.8911 116.961L61.1455 116.591C61.1455 116.591 53.1187 118.423 49.9575 119.9C49.6583 120.04 51.4531 134.949 51.4531 134.949C51.4531 134.949 52.9681 146.292 53.2822 151.335C53.4264 153.65 50.1597 173.049 50.1597 173.049Z" fill="#0349AE"/>
<path d="M52.9048 147.043L52.2227 145.311C50.8433 141.801 50.3956 137.975 50.925 134.225L51.166 132.524C51.336 133.975 51.4523 134.949 51.4523 134.949C51.4523 134.949 52.3475 141.65 52.9048 147.043Z" fill="#2F2838"/>
<path d="M52.945 147.139L52.9063 147.044C52.3489 141.651 51.4537 134.95 51.4537 134.95C51.4537 134.95 51.3375 133.976 51.1675 132.525L51.2084 132.231L52.945 147.139Z" fill="#332D48"/>
<path d="M85.3574 140.299L86.0912 143.51C86.0912 143.51 86.8853 140.288 86.8487 138.612C85.9772 139.588 85.3574 140.299 85.3574 140.299Z" fill="#002C6B"/>
<path d="M98.5866 117.863L99.3462 116.51L93.3573 114.369L92.5977 115.715L98.5866 117.863Z" fill="#3B354D"/>
<path d="M68.5454 91.4813C67.0627 90.5587 67.4307 94.9443 63.23 95.8134C63.23 95.8134 59.1177 96.3928 58.0331 99.1338C56.8818 100.734 56.4083 103.493 59.1456 108.112C59.4146 108.828 59.7137 109.438 60.0473 109.875C60.0473 109.875 60.6025 110.606 62.903 110.238C68.2377 109.378 67.308 106.546 68.2678 106.198C69.2276 105.85 69.97 105.336 69.97 105.336L70.3573 106.847L71.1234 106.702C71.1234 106.702 70.3573 101.527 71.2612 99.9227C72.7245 97.3243 71.3193 93.2083 68.5454 91.4813Z" fill="#312C45"/>
<path d="M69.8183 104.12C69.6892 103.561 68.3163 101.961 67.789 103.672C67.2618 105.386 68.5831 107.69 69.3212 107.492C70.0572 107.296 70.1454 105.54 69.8183 104.12Z" fill="#E9CAA7"/>
<path d="M81.6249 150.145C81.287 149.599 81.003 149.091 80.8373 148.777C79.7032 146.653 78.7111 143.261 78.2119 141.019C78.0871 140.393 77.973 139.736 77.874 139.047L78.3733 125.418L81.6249 150.145Z" fill="#002C6B"/>
<defs>
<linearGradient id="paint0_linear" x1="167.826" y1="16.2202" x2="193.492" y2="81.4955" gradientUnits="userSpaceOnUse">
<stop stop-color="#BC12E7"/>
<stop offset="1" stop-color="#DC1368"/>
</linearGradient>
<linearGradient id="paint1_linear" x1="252.966" y1="76.875" x2="283.312" y2="147.919" gradientUnits="userSpaceOnUse">
<stop stop-color="#BC12E7"/>
<stop offset="1" stop-color="#DC1368"/>
</linearGradient>
<linearGradient id="paint2_linear" x1="298.431" y1="33.835" x2="308.02" y2="44.8885" gradientUnits="userSpaceOnUse">
<stop stop-color="#BC12E7"/>
<stop offset="1" stop-color="#DC1368"/>
</linearGradient>
<linearGradient id="paint3_linear" x1="130.408" y1="230.845" x2="180.16" y2="230.845" gradientUnits="userSpaceOnUse">
<stop stop-color="#443A65"/>
<stop offset="1" stop-color="#3D3454"/>
</linearGradient>
<linearGradient id="paint4_linear" x1="146.119" y1="178.553" x2="165.847" y2="226.148" gradientUnits="userSpaceOnUse">
<stop stop-color="#E7B812"/>
<stop offset="1" stop-color="#DC4313"/>
</linearGradient>
<linearGradient id="paint5_linear" x1="345.554" y1="110.322" x2="373.54" y2="140.889" gradientUnits="userSpaceOnUse">
<stop stop-color="#E7B812"/>
<stop offset="1" stop-color="#DC4313"/>
</linearGradient>
</defs>
</svg>
