<svg width="417" height="327" viewBox="0 0 417 327" fill="none" xmlns="http://www.w3.org/2000/svg">
<path d="M318.141 121.002C359.473 121.193 380.999 134.153 417 161.241V327H0V225.033C98.5 240.5 147.235 181.866 177.322 163.919C221.663 137.472 269.663 120.779 318.141 121.002Z" fill="#39393D"/>
<path d="M218.302 31.0166L210.166 0.848279L205.803 2.02275L205.671 1.67538L210.622 0.34375L218.853 30.8677L218.302 31.0166ZM187.165 7.03082L187.069 6.67517L198.702 3.54462L197.344 4.29314L187.165 7.03082ZM200.604 3.12693L200.563 3.04836L201.093 2.90361L200.604 3.12693ZM203.599 2.3536L203.55 2.24195L204.743 1.92351L203.599 2.3536Z" fill="#B2DFF9"/>
<path d="M212.403 33.1261L214.131 32.1708L216.799 31.17L205.804 2.02311L210.166 0.848633L218.303 31.017L218.435 31.505L212.403 33.1261ZM187.119 8.54891L186.742 7.14284L187.165 7.03117L197.344 4.2935L194.995 5.5879L187.119 8.54891Z" fill="#99D6F3"/>
<path d="M214.13 32.1698L215.841 31.231L215.936 30.896L216.45 30.6603L203.599 2.35296L204.742 1.92286L205.637 1.58789L205.67 1.67473L205.803 2.02211L216.798 31.169L214.13 32.1698ZM182.582 11.2773L182.242 10.3799L187.118 8.54791L194.994 5.58691L194.228 6.00872L182.582 11.2773Z" fill="#B2DFF9"/>
<path d="M215.936 30.8951L215.94 30.8827L200.603 3.12535L201.092 2.90203L203.379 1.86816L203.548 2.24037L203.598 2.35202L216.449 30.6594L215.936 30.8951ZM181.392 13.0753L180.916 12.029L182.581 11.2764L194.227 6.00779L181.392 13.0753Z" fill="#99D6F3"/>
<path d="M193.921 43.2943L193.581 43.1951L178.104 15.173L178.199 14.8339L181.393 13.0764L194.228 6.00882L194.994 5.587L197.343 4.2926L198.702 3.54407L200.119 2.7666L200.463 2.86585L200.562 3.04781L200.603 3.12639L215.94 30.8838L215.936 30.8961L215.841 31.2311L214.13 32.1699L212.402 33.1252L193.921 43.2943ZM204.556 22.4267H204.543H204.556Z" fill="#B2DFF9"/>
<path d="M164.089 23.473L165.244 22.0959L165.215 21.7774L165.58 21.4052L145.081 1.33577L146.581 0L166.048 21.7278L164.089 23.473ZM129.993 16.0002L129.4 15.3385L138.767 6.97657L138.241 7.601L129.993 16.0002Z" fill="#B2DFF9"/>
<path d="M165.216 21.7769V21.7645L142.766 2.99767L144.734 0.996094L145.082 1.33521L165.58 21.4047L165.216 21.7769ZM129.566 17.9391L128.812 17.1989L129.993 15.9996L138.242 7.60045L129.566 17.9391Z" fill="#99D6F3"/>
<path d="M150.098 39.784L127.44 20.8394L127.407 20.5127L129.566 17.9404L138.241 7.60167L138.767 6.97724L142.23 2.85001L142.558 2.8252L142.765 2.99889L165.215 21.7657V21.7781L165.244 22.0966L164.088 23.4737L150.425 39.7592L150.098 39.784ZM144.671 33.1962H144.662H144.671Z" fill="#B2DFF9"/>
<path d="M340.205 53.1766L303.139 43.2514L303.358 42.4326L340.424 52.3536L340.205 53.1766Z" fill="#B2DFF9"/>
<path d="M327.476 105.153L326.817 104.979L340.406 54.4022L301.583 44.0097L301.881 42.918L303.141 43.2529L340.207 53.1781L341.359 53.4883L327.476 105.153Z" fill="#99D6F3"/>
<path d="M326.58 105.852L326.141 105.736L339.821 54.8366L299.685 44.0885L299.536 44.6344L299.424 44.6054L299.718 43.5137L301.582 44.0099L340.405 54.4024L326.816 104.979L326.58 105.852Z" fill="#B2DFF9"/>
<path d="M325.996 106.286L323.912 105.728L337.587 54.8246L299.535 44.6348L299.684 44.0889L339.82 54.837L326.141 105.736L325.996 106.286Z" fill="#99D6F3"/>
<path d="M323.762 106.273L322.834 106.021L336.493 55.1752L297.729 44.7952L297.89 44.1914L299.423 44.605L299.535 44.6339L337.587 54.8237L323.911 105.727L323.762 106.273Z" fill="#B2DFF9"/>
<path d="M322.61 106.844L321.952 106.666L335.54 56.0936L296.722 45.7011L297.016 44.6094L297.728 44.7955L336.493 55.1755L322.834 106.021L322.61 106.844Z" fill="#99D6F3"/>
<path d="M321.717 107.542L321.278 107.426L334.958 56.5222L294.822 45.774L294.495 46.994L294.383 46.9651L294.859 45.1992L296.723 45.6996L335.542 56.0921L321.954 106.665L321.717 107.542Z" fill="#B2DFF9"/>
<path d="M321.132 107.975L319.906 107.648L333.291 57.8281C333.353 57.6007 333.221 57.365 332.993 57.3071L294.493 46.9973L294.82 45.7773L334.957 56.5255L321.277 107.429L321.132 107.975Z" fill="#99D6F3"/>
<path d="M318.887 110.218C318.853 110.218 318.816 110.214 318.779 110.206L278.042 99.2963C277.814 99.2384 277.682 99.0027 277.744 98.7711L291.738 46.7013C291.788 46.511 291.958 46.3828 292.149 46.3828C292.186 46.3828 292.219 46.3869 292.256 46.3952L294.382 46.9659L294.493 46.9949L332.993 57.3046C333.221 57.3625 333.353 57.5982 333.291 57.8257L319.906 107.646L319.301 109.9C319.247 110.094 319.073 110.218 318.887 110.218ZM308.186 99.4452L307.9 100.508L316.877 102.915L317.163 101.852L308.186 99.4452ZM308.749 97.3443L308.467 98.4072L317.445 100.81L317.727 99.7471L308.749 97.3443ZM287.459 90.4133L284.091 94.0939L304.747 99.623L307.448 89.5779L306.023 89.8343L302.605 93.0807L300.492 93.3702L298.268 95.3304L294.506 91.9765L292.832 93.4529L292.828 87.7955L289.352 92.5182L289.307 89.8385L287.902 91.9145L287.459 90.4133ZM309.246 95.4917L308.96 96.5545L317.938 98.9613L318.224 97.8985L309.246 95.4917ZM309.735 93.6803L309.449 94.7431L318.427 97.1459L318.713 96.083L309.735 93.6803ZM310.224 91.8648L309.938 92.9277L318.916 95.3304L319.201 94.2676L310.224 91.8648ZM310.7 90.0783L310.414 91.1453L319.396 93.548L319.682 92.481L310.7 90.0783ZM314.599 75.4801L312.511 83.2548L320.303 85.3432L320.419 84.9172L313.049 82.9446L315.025 75.5959L314.599 75.4801ZM318.928 83.0935L318.837 83.2424L318.949 83.3127L319.131 83.4285L319.28 83.5236L319.371 83.3788V83.3747L319.077 83.1886L319.044 83.1679L318.928 83.0935V83.0976V83.0935ZM319.736 82.8454L319.69 82.8991L319.479 83.1224L319.38 83.2299L319.508 83.3458L319.624 83.2217L319.864 82.9653L319.736 82.8454ZM318.34 82.7172L318.244 82.8619V82.866L318.688 83.1473L318.779 82.9984L318.634 82.9074L318.485 82.8123L318.34 82.7172ZM288.872 76.303L288.586 77.3658L309.325 82.9198L309.615 81.857L288.872 76.303ZM320.158 82.3987L319.86 82.7172H319.856L319.984 82.8371L320.051 82.7668L320.105 82.7089L320.295 82.5062L320.668 82.7999L320.792 81.8446L319.723 82.0555L319.848 82.1506L320.158 82.3987ZM317.822 82.5972L318.095 82.7668H318.099L318.186 82.6262L318.041 82.531L317.872 82.4235H317.843L317.669 82.4318L317.677 82.6014H317.751L317.822 82.5972ZM314.168 82.5683L314.176 82.742L314.35 82.7337L314.57 82.7254L314.698 82.7172L314.694 82.5476H314.69L314.172 82.5683H314.168ZM315.39 82.5187L314.868 82.5393V82.5435L314.876 82.713L315.046 82.7048L315.224 82.7006L315.398 82.6923L315.39 82.5187ZM315.568 82.5145L315.576 82.6841L315.746 82.6799L315.924 82.6717L316.098 82.6634L316.094 82.4897L315.572 82.5145H315.568ZM316.268 82.4856L316.277 82.6592L316.451 82.651L316.629 82.6427L316.799 82.6386L316.794 82.4649L316.662 82.469L316.442 82.4814H316.359L316.272 82.4856H316.268ZM316.968 82.4566L316.977 82.6303L317.151 82.622L317.329 82.6179L317.499 82.6096L317.495 82.4401L317.49 82.4359L316.973 82.4566H316.968ZM316.612 80.5543L314.027 81.737L313.857 82.3698L316.554 81.1333L317.453 81.8983L320.113 80.5791L320.303 80.943L320.73 79.9836L319.719 79.8223L319.897 80.1656L317.503 81.3111L316.612 80.5543ZM316.43 78.6354L316.301 78.6479L314.238 80.9844L314.135 81.3814L316.388 78.8381L317.677 79.7603L317.739 79.7768L318.493 79.7189L318.572 79.6693L319.678 77.6347L320.183 78.8174L320.274 78.8753L321.613 78.7719L321.662 78.9952L321.679 79.0118L321.704 79.0035L322.035 78.5899L322.043 78.5693L322.027 78.5569L321.563 78.3708L321.538 78.3749L321.53 78.3997L321.571 78.5858L320.328 78.6809L319.777 77.3824L319.694 77.3245L319.607 77.3741L318.431 79.537L317.76 79.5866L316.43 78.6354ZM289.369 74.4545L289.083 75.5173L309.826 81.0712L310.112 80.0043L289.369 74.4545ZM289.858 72.639L289.572 73.7059L310.311 79.2558L310.597 78.1929L289.858 72.639ZM290.346 70.8276L290.061 71.8905L310.8 77.4403L311.086 76.3775L290.346 70.8276ZM290.823 69.0411L290.537 70.1039L311.28 75.6579L311.566 74.5909L290.823 69.0411ZM317.975 62.9165L316.082 69.9716L315.97 70.3769L316.38 70.4885L323.448 72.3784L323.556 71.9732L316.488 70.0791L318.385 63.0281L317.975 62.9165ZM323.195 66.8948L322.081 71.0427L323.311 71.3694L324.426 67.2215L323.195 66.8948ZM321.07 68.3629L320.465 70.6085L321.691 70.9352L322.292 68.6937L321.07 68.3629ZM319.562 67.511L318.845 70.1742L320.071 70.5009L320.788 67.8377L319.562 67.511ZM292.227 63.8097L291.941 64.8767L312.685 70.4307L312.971 69.3637L292.227 63.8097ZM317.615 68.2471L317.213 69.7359L318.439 70.0667L318.841 68.5738L317.615 68.2471ZM292.724 61.9612L292.439 63.024L313.182 68.5779L313.468 67.511L292.724 61.9612ZM320.767 65.6128L317.971 66.8948L317.789 67.573L320.701 66.2373L321.675 67.0644L324.55 65.6418L324.757 66.0346L325.221 64.9966L324.123 64.8188L324.318 65.1868L321.733 66.4275L320.767 65.6128ZM293.213 60.1457L292.927 61.2085L313.671 66.7666L313.952 65.6997L293.213 60.1457ZM293.702 58.3302L293.416 59.393L314.155 64.947L314.441 63.8842L293.702 58.3302ZM294.183 56.5478L293.893 57.6107L314.636 63.1646L314.922 62.1018L294.183 56.5478ZM320.556 82.5269L320.063 82.1341L320.622 82.0265L320.556 82.5269Z" fill="#B2DFF9"/>
<path d="M314.636 63.1656L293.893 57.6116L294.183 56.5488L314.922 62.1028L314.636 63.1656Z" fill="#81BBDC"/>
<path d="M314.156 64.9478L293.417 59.3939L293.703 58.3311L314.442 63.885L314.156 64.9478Z" fill="#81BBDC"/>
<path d="M313.672 66.7684L292.929 61.2103L293.215 60.1475L313.954 65.7014L313.672 66.7684Z" fill="#81BBDC"/>
<path d="M313.181 68.5777L292.438 63.0238L292.723 61.9609L313.467 67.5107L313.181 68.5777Z" fill="#81BBDC"/>
<path d="M312.685 70.4315L291.941 64.8775L292.227 63.8105L312.971 69.3645L312.685 70.4315Z" fill="#81BBDC"/>
<path d="M311.281 75.6597L290.538 70.1058L290.824 69.043L311.567 74.5928L311.281 75.6597Z" fill="#81BBDC"/>
<path d="M310.8 77.4408L290.061 71.8909L290.346 70.8281L311.086 76.3779L310.8 77.4408Z" fill="#81BBDC"/>
<path d="M310.311 79.2564L289.572 73.7066L289.858 72.6396L310.597 78.1936L310.311 79.2564Z" fill="#81BBDC"/>
<path d="M309.826 81.0718L289.083 75.5179L289.369 74.4551L310.112 80.0049L309.826 81.0718Z" fill="#81BBDC"/>
<path d="M309.325 82.9215L288.586 77.3675L288.872 76.3047L309.615 81.8586L309.325 82.9215Z" fill="#81BBDC"/>
<path d="M319.396 93.5488L310.414 91.1461L310.7 90.0791L319.682 92.4818L319.396 93.5488Z" fill="#81BBDC"/>
<path d="M318.915 95.3308L309.938 92.9281L310.223 91.8652L319.201 94.2679L318.915 95.3308Z" fill="#81BBDC"/>
<path d="M318.427 97.1472L309.449 94.7445L309.735 93.6816L318.713 96.0844L318.427 97.1472Z" fill="#81BBDC"/>
<path d="M317.938 98.9628L308.96 96.556L309.246 95.4932L318.223 97.9L317.938 98.9628Z" fill="#81BBDC"/>
<path d="M317.444 100.81L308.467 98.4075L308.748 97.3447L317.726 99.7474L317.444 100.81Z" fill="#81BBDC"/>
<path d="M316.878 102.916L307.9 100.509L308.186 99.4463L317.164 101.853L316.878 102.916Z" fill="#81BBDC"/>
<path d="M320.303 85.3436L312.511 83.2552L314.599 75.4805L315.025 75.5963L313.049 82.945L320.419 84.9176L320.303 85.3436Z" fill="#81BBDC"/>
<path d="M313.857 82.3697L314.027 81.737L316.612 80.5543L317.503 81.3111L319.898 80.1655L319.72 79.8223L320.73 79.9836L320.304 80.943L320.113 80.5791L317.453 81.8983L316.554 81.1332L313.857 82.3697Z" fill="#988883"/>
<path d="M314.135 81.3831L314.238 80.9861L316.301 78.6495L316.43 78.6371L317.76 79.5883L318.431 79.5386L319.607 77.3758L319.695 77.3262L319.777 77.3841L320.328 78.6826L321.571 78.5875L321.613 78.7736L320.275 78.877L320.183 78.8191L319.678 77.6363L318.572 79.671L318.493 79.7206L317.739 79.7785L317.677 79.762L316.389 78.8397L314.135 81.3831Z" fill="#2498CE"/>
<path d="M321.678 79.0131L321.662 78.9965L321.612 78.7732L321.571 78.5871L321.529 78.401L321.538 78.3762L321.562 78.3721L322.026 78.5582L322.043 78.5706L322.035 78.5913L321.703 79.0048L321.678 79.0131Z" fill="#2498CE"/>
<path d="M319.281 83.5243L319.132 83.4292L318.95 83.3134L318.838 83.2431L318.929 83.0942V83.0983V83.0942L319.045 83.1686L319.078 83.1893L319.372 83.3754V83.3795L319.281 83.5243ZM319.509 83.3465L319.381 83.2306L319.48 83.1231L319.691 82.8998L319.737 82.8461L319.865 82.966L319.625 83.2224L319.509 83.3465ZM318.689 83.148L318.246 82.8667V82.8626L318.341 82.7179L318.486 82.813L318.635 82.9081L318.78 82.9991L318.689 83.148ZM319.985 82.8378L319.857 82.7179H319.861L320.16 82.3994L320.296 82.5069L320.106 82.7096L320.052 82.7675L319.985 82.8378ZM318.101 82.7675H318.096L317.823 82.5979L317.752 82.6021H317.678L317.67 82.4325L317.844 82.4243H317.873L318.043 82.5318L318.188 82.6269L318.101 82.7675ZM314.177 82.7427L314.169 82.569H314.173L314.691 82.5483H314.695L314.699 82.7179L314.571 82.7261L314.351 82.7344L314.177 82.7427ZM314.877 82.7137L314.869 82.5442V82.54L315.391 82.5194L315.399 82.693L315.225 82.7013L315.047 82.7055L314.877 82.7137ZM315.577 82.6848L315.569 82.5152H315.573L316.095 82.4904L316.099 82.6641L315.926 82.6724L315.747 82.6806L315.577 82.6848ZM316.278 82.66L316.269 82.4863H316.274L316.36 82.4821H316.443L316.663 82.4697L316.796 82.4656L316.8 82.6393L316.63 82.6434L316.452 82.6517L316.278 82.66ZM316.978 82.631L316.969 82.4573H316.974L317.491 82.4366L317.496 82.4408L317.5 82.6103L317.33 82.6186L317.152 82.6227L316.978 82.631Z" fill="#A29983"/>
<path d="M320.667 82.801L320.294 82.5074L320.158 82.3998L319.847 82.1517L319.723 82.0566L320.792 81.8457L320.667 82.801ZM320.622 82.0277L320.062 82.1352L320.555 82.5281L320.622 82.0277Z" fill="#A29983"/>
<path d="M323.449 72.379L316.381 70.4891L315.971 70.3774L316.083 69.9721L317.976 62.917L318.386 63.0287L316.489 70.0796L323.556 71.9737L323.449 72.379Z" fill="#81BBDC"/>
<path d="M318.438 70.0686L317.212 69.7378L317.614 68.249L318.84 68.5757L318.438 70.0686Z" fill="#2498CE"/>
<path d="M320.072 70.5017L318.846 70.175L319.562 67.5117L320.789 67.8384L320.072 70.5017Z" fill="#A29983"/>
<path d="M321.692 70.9355L320.466 70.6088L321.071 68.3633L322.293 68.6941L321.692 70.9355Z" fill="#5EAAD5"/>
<path d="M323.311 71.3711L322.081 71.0444L323.195 66.8965L324.426 67.2232L323.311 71.3711Z" fill="#988883"/>
<path d="M317.789 67.5726L317.971 66.8944L320.768 65.6124L321.733 66.427L324.318 65.1864L324.123 64.8184L325.221 64.9962L324.757 66.0342L324.55 65.6413L321.675 67.0639L320.701 66.2368L317.789 67.5726Z" fill="#81BBDC"/>
<path d="M304.747 99.6234L284.091 94.0942L287.459 90.4136L287.902 91.9148L289.307 89.8388L289.352 92.5186L292.828 87.7959L292.832 93.4532L294.506 91.9769L298.268 95.3307L300.492 93.3705L302.605 93.081L306.023 89.8347L307.448 89.5783L304.747 99.6234ZM298.417 96.592L298.421 96.6045L298.417 96.592Z" fill="#75BCE4"/>
<path d="M303.426 39.0766C303.281 39.0766 303.14 39.0104 303.049 38.8946C303.074 38.8905 303.094 38.8863 303.115 38.878L329.687 30.6609L329.7 30.6319L329.716 30.6857L332.517 24.408L332.484 24.4163L332.5 24.3749L327.641 8.70559L327.649 8.70145L326.961 6.47656C326.974 6.50551 326.986 6.53446 326.999 6.56754L334.004 29.1431C334.079 29.3954 333.942 29.6642 333.689 29.7428L303.567 39.0559C303.517 39.0724 303.471 39.0766 303.426 39.0766Z" fill="#5EAAD5"/>
<path d="M302.969 38.9014C302.766 38.9014 302.576 38.7691 302.514 38.5581L295.508 15.9867C295.5 15.9536 295.491 15.9247 295.487 15.8916L296.266 18.4018L327.64 8.7041L332.5 24.3734L332.483 24.4148L328.929 25.5148C328.514 25.643 328.286 26.0773 328.415 26.4867L329.699 30.6304L329.687 30.6594L303.114 38.8766C303.094 38.8848 303.073 38.889 303.048 38.8931C303.023 38.8972 302.998 38.9014 302.969 38.9014ZM307.502 31.5237L305.053 32.2805L305.596 34.0298L308.044 33.273L307.502 31.5237ZM311.027 30.4361L308.579 31.1929L309.121 32.938L311.57 32.1812L311.027 30.4361ZM314.553 29.3443L312.1 30.1011L312.643 31.8504L315.096 31.0895L314.553 29.3443ZM306.499 28.3021L304.055 29.0589L304.593 30.8041L307.042 30.0473L306.499 28.3021ZM310.025 27.2104L307.576 27.9672L308.119 29.7165L310.567 28.9555L310.025 27.2104ZM313.55 26.1227L311.102 26.8795L311.64 28.6247L314.093 27.8679L313.55 26.1227ZM305.501 25.0765L303.052 25.8333L303.595 27.5826L306.043 26.8258L305.501 25.0765ZM317.076 25.031L314.627 25.7878L315.17 27.5329L317.614 26.7761L317.076 25.031ZM309.026 23.9888L306.578 24.7456L307.121 26.4908L309.569 25.734L309.026 23.9888ZM320.597 23.9433L318.153 24.7001L318.691 26.4453L321.14 25.6885L320.597 23.9433ZM312.552 22.8971L310.099 23.6539L310.642 25.4032L313.094 24.6464L312.552 22.8971ZM324.119 22.8516L321.674 23.6084L322.217 25.3536L324.661 24.6009L324.119 22.8516ZM304.498 21.8508L302.05 22.6117L302.592 24.3569L305.041 23.6001L304.498 21.8508ZM316.073 21.8053L313.625 22.5662L314.168 24.3114L316.616 23.5546L316.073 21.8053ZM327.644 21.7639L325.2 22.5207L325.739 24.2659L328.187 23.5091L327.644 21.7639ZM308.024 20.7632L305.579 21.52L306.118 23.2651L308.566 22.5083L308.024 20.7632ZM319.599 20.7177L317.15 21.4745L317.693 23.2196L320.142 22.467L319.599 20.7177ZM311.549 19.6755L309.101 20.4323L309.643 22.1775L312.092 21.4207L311.549 19.6755ZM323.12 19.63L320.676 20.3827L321.214 22.132L323.659 21.3752L323.12 19.63ZM315.075 18.5837L312.626 19.3405L313.169 21.0857L315.613 20.3289L315.075 18.5837ZM326.646 18.5383L324.197 19.2951L324.74 21.0444L327.189 20.2876L326.646 18.5383ZM318.596 17.4961L316.152 18.2529L316.695 19.9981L319.139 19.2413L318.596 17.4961ZM322.118 16.4044L319.673 17.1611L320.216 18.9063L322.66 18.1537L322.118 16.4044ZM314.118 15.5069L311.674 16.2637L312.212 18.0089L314.66 17.2521L314.118 15.5069ZM325.643 15.3167L323.199 16.0735L323.742 17.8187L326.186 17.0619L325.643 15.3167ZM317.643 14.4152L315.195 15.172L315.738 16.9213L318.186 16.1645L317.643 14.4152ZM321.165 13.3276L318.721 14.0844L319.259 15.8295L321.703 15.0727L321.165 13.3276ZM324.69 12.2399L322.242 12.9926L322.785 14.7419L325.233 13.9851L324.69 12.2399Z" fill="#B2DFF9"/>
<path d="M329.717 30.6849L329.7 30.6311L328.416 26.4874C328.287 26.078 328.515 25.6437 328.929 25.5155L332.484 24.4155L332.517 24.4072L329.717 30.6849Z" fill="#75BCE4"/>
<path d="M302.593 24.3577L302.051 22.6125L304.499 21.8516L305.042 23.6009L302.593 24.3577Z" fill="#81BBDC"/>
<path d="M306.119 23.2676L305.58 21.5224L308.024 20.7656L308.567 22.5108L306.119 23.2676Z" fill="#81BBDC"/>
<path d="M309.644 22.1777L309.102 20.4326L311.55 19.6758L312.093 21.421L309.644 22.1777Z" fill="#988883"/>
<path d="M313.17 21.0869L312.627 19.3418L315.075 18.585L315.614 20.3301L313.17 21.0869Z" fill="#81BBDC"/>
<path d="M316.695 19.9981L316.152 18.2529L318.597 17.4961L319.139 19.2413L316.695 19.9981Z" fill="#81BBDC"/>
<path d="M320.218 18.9072L319.675 17.162L322.119 16.4053L322.662 18.1546L320.218 18.9072Z" fill="#81BBDC"/>
<path d="M323.742 17.8193L323.199 16.0742L325.644 15.3174L326.186 17.0625L323.742 17.8193Z" fill="#81BBDC"/>
<path d="M312.211 18.0098L311.673 16.2646L314.117 15.5078L314.66 17.253L312.211 18.0098Z" fill="#81BBDC"/>
<path d="M315.738 16.9221L315.195 15.1728L317.644 14.416L318.186 16.1653L315.738 16.9221Z" fill="#81BBDC"/>
<path d="M319.259 15.832L318.721 14.0869L321.165 13.3301L321.704 15.0752L319.259 15.832Z" fill="#81BBDC"/>
<path d="M322.784 14.7432L322.241 12.9939L324.69 12.2412L325.232 13.9864L322.784 14.7432Z" fill="#81BBDC"/>
<path d="M303.595 27.5842L303.053 25.8349L305.501 25.0781L306.044 26.8275L303.595 27.5842Z" fill="#81BBDC"/>
<path d="M307.122 26.4912L306.579 24.7461L309.028 23.9893L309.57 25.7344L307.122 26.4912Z" fill="#81BBDC"/>
<path d="M310.641 25.4045L310.099 23.6552L312.551 22.8984L313.094 24.6477L310.641 25.4045Z" fill="#81BBDC"/>
<path d="M314.167 24.3127L313.624 22.5676L316.072 21.8066L316.615 23.5559L314.167 24.3127Z" fill="#81BBDC"/>
<path d="M317.694 23.2207L317.151 21.4756L319.6 20.7188L320.143 22.4681L317.694 23.2207Z" fill="#81BBDC"/>
<path d="M321.215 22.1328L320.677 20.3835L323.121 19.6309L323.66 21.376L321.215 22.1328Z" fill="#81BBDC"/>
<path d="M324.742 21.0461L324.199 19.2968L326.648 18.54L327.19 20.2894L324.742 21.0461Z" fill="#81BBDC"/>
<path d="M304.593 30.8057L304.055 29.0605L306.499 28.3037L307.042 30.0489L304.593 30.8057Z" fill="#81BBDC"/>
<path d="M308.119 29.717L307.576 27.9677L310.025 27.2109L310.567 28.9561L308.119 29.717Z" fill="#81BBDC"/>
<path d="M311.641 28.627L311.103 26.8818L313.551 26.125L314.094 27.8702L311.641 28.627Z" fill="#81BBDC"/>
<path d="M315.171 27.5352L314.628 25.79L317.076 25.0332L317.615 26.7784L315.171 27.5352Z" fill="#81BBDC"/>
<path d="M318.692 26.4453L318.153 24.7002L320.598 23.9434L321.14 25.6885L318.692 26.4453Z" fill="#81BBDC"/>
<path d="M322.218 25.3555L321.676 23.6103L324.12 22.8535L324.663 24.6028L322.218 25.3555Z" fill="#81BBDC"/>
<path d="M325.74 24.2666L325.201 22.5214L327.645 21.7646L328.188 23.5098L325.74 24.2666Z" fill="#81BBDC"/>
<path d="M305.596 34.0315L305.054 32.2822L307.502 31.5254L308.045 33.2747L305.596 34.0315Z" fill="#81BBDC"/>
<path d="M309.122 32.9385L308.579 31.1933L311.028 30.4365L311.57 32.1817L309.122 32.9385Z" fill="#81BBDC"/>
<path d="M312.643 31.8518L312.101 30.1025L314.553 29.3457L315.096 31.0909L312.643 31.8518Z" fill="#81BBDC"/>
<path d="M296.267 18.4028L295.488 15.8926L294.697 13.3368C294.618 13.0804 294.759 12.8116 295.011 12.7331L296.838 12.1707L297.323 13.7339C297.402 13.9861 297.605 14.1598 297.804 14.1598C297.837 14.1598 297.866 14.1515 297.899 14.1433L297.924 14.135C298.148 14.0647 298.259 13.7669 298.164 13.4733L297.679 11.9101L299.436 11.3684L299.921 12.9316C299.999 13.1838 300.202 13.3575 300.397 13.3575C300.43 13.3575 300.464 13.3492 300.497 13.341L300.521 13.3327C300.745 13.2666 300.857 12.9646 300.766 12.671L300.277 11.1078L302.038 10.5619L302.522 12.1251C302.601 12.3774 302.8 12.5511 302.995 12.5511C303.028 12.5511 303.061 12.547 303.09 12.5387L303.123 12.5304C303.343 12.4601 303.45 12.1624 303.359 11.8687L302.875 10.3055L304.627 9.7638L305.112 11.3229C305.19 11.5793 305.393 11.7488 305.588 11.7488C305.621 11.7488 305.654 11.7447 305.688 11.7364L305.717 11.7282C305.94 11.6578 306.048 11.3601 305.957 11.0665L305.472 9.49912L307.225 8.95737L307.709 10.5206C307.792 10.7728 307.991 10.9465 308.186 10.9465C308.219 10.9465 308.252 10.9424 308.281 10.9341L308.314 10.9217C308.538 10.8556 308.641 10.5578 308.55 10.2642L308.066 8.69684L309.822 8.15509L310.307 9.71829C310.386 9.97055 310.589 10.1443 310.783 10.1443C310.817 10.1443 310.85 10.1401 310.879 10.1318L310.908 10.1194C311.131 10.0533 311.243 9.7514 311.148 9.45778L310.663 7.89455L312.416 7.35281L312.905 8.91603C312.983 9.16829 313.186 9.34197 313.381 9.34197C313.41 9.34197 313.443 9.33785 313.476 9.32958L313.505 9.31716C313.729 9.25099 313.837 8.94911 313.75 8.65549L313.261 7.09227L315.017 6.55052L315.502 8.11374C315.581 8.36601 315.78 8.53969 315.979 8.53969C316.012 8.53969 316.041 8.53556 316.074 8.52315L316.103 8.51487C316.327 8.44457 316.434 8.14683 316.343 7.85321L315.858 6.28998L317.615 5.74824L318.1 7.31146C318.178 7.56372 318.377 7.7374 318.576 7.7374C318.605 7.7374 318.638 7.72914 318.667 7.72087L318.696 7.71259C318.924 7.64229 319.028 7.34454 318.936 7.05092L318.452 5.4877L320.208 4.94595L320.693 6.50916C320.768 6.76143 320.975 6.93099 321.17 6.93099C321.203 6.93099 321.236 6.92686 321.265 6.91858L321.294 6.91031C321.518 6.84 321.625 6.54224 321.534 6.24863L321.049 4.68541L322.806 4.14367L323.291 5.70275C323.369 5.95915 323.568 6.12871 323.767 6.12871C323.8 6.12871 323.833 6.12457 323.867 6.1163L323.891 6.10802C324.115 6.03772 324.223 5.73997 324.132 5.44221L323.647 3.88313L325.47 3.31657C325.52 3.30416 325.569 3.2959 325.615 3.2959C325.822 3.2959 326.013 3.42823 326.079 3.63087L326.961 6.47608L327.649 8.70098L327.641 8.70512L296.267 18.4028Z" fill="#988883"/>
<path d="M297.804 14.16C297.605 14.16 297.402 13.9863 297.323 13.734L296.838 12.1708L296.685 11.6746C296.594 11.3851 296.706 11.0832 296.93 11.017L296.954 11.0087C296.988 10.9963 297.017 10.9922 297.05 10.9922C297.249 10.9922 297.452 11.1659 297.53 11.4182L297.679 11.9103L298.164 13.4735C298.259 13.7671 298.148 14.0649 297.924 14.1352L297.899 14.1434C297.866 14.1517 297.837 14.16 297.804 14.16Z" fill="#2972A0"/>
<path d="M300.397 13.3572C300.202 13.3572 299.999 13.1835 299.92 12.9313L299.436 11.3681L299.282 10.8718C299.191 10.5782 299.299 10.2804 299.523 10.2143L299.552 10.206C299.585 10.1936 299.618 10.1895 299.647 10.1895C299.842 10.1895 300.049 10.3632 300.123 10.6113L300.277 11.1075L300.766 12.6707C300.857 12.9644 300.745 13.2663 300.521 13.3324L300.496 13.3407C300.463 13.349 300.43 13.3572 300.397 13.3572Z" fill="#2972A0"/>
<path d="M302.995 12.5523C302.8 12.5523 302.601 12.3786 302.522 12.1264L302.038 10.5632L301.884 10.071C301.789 9.77742 301.897 9.47965 302.12 9.40934L302.15 9.40523C302.183 9.39282 302.212 9.38867 302.245 9.38867C302.444 9.38867 302.643 9.55823 302.721 9.8105L302.875 10.3068L303.359 11.87C303.45 12.1636 303.343 12.4613 303.123 12.5317L303.09 12.5399C303.061 12.5482 303.028 12.5523 302.995 12.5523Z" fill="#2972A0"/>
<path d="M305.588 11.7486C305.393 11.7486 305.19 11.579 305.111 11.3226L304.627 9.76359L304.477 9.26733C304.386 8.97371 304.49 8.67596 304.713 8.60566L304.747 8.59738C304.78 8.58911 304.809 8.58496 304.842 8.58496C305.037 8.58496 305.24 8.75452 305.318 9.00679L305.472 9.49891L305.956 11.0662C306.047 11.3599 305.94 11.6576 305.716 11.7279L305.687 11.7362C305.654 11.7445 305.621 11.7486 305.588 11.7486Z" fill="#2972A0"/>
<path d="M308.186 10.9471C307.991 10.9471 307.792 10.7734 307.709 10.5211L307.225 8.9579L307.071 8.46578C306.98 8.17216 307.088 7.87441 307.312 7.80411L307.345 7.79583C307.374 7.78756 307.407 7.7793 307.44 7.7793C307.635 7.7793 307.834 7.95297 307.912 8.20524L308.066 8.69736L308.55 10.2647C308.642 10.5583 308.538 10.8561 308.314 10.9223L308.281 10.9346C308.252 10.9429 308.219 10.9471 308.186 10.9471Z" fill="#2972A0"/>
<path d="M310.784 10.1443C310.589 10.1443 310.386 9.97063 310.307 9.71836L309.823 8.15516L309.669 7.66304C309.582 7.36942 309.686 7.07168 309.91 7.00137L309.939 6.9931C309.972 6.98482 310.005 6.97656 310.034 6.97656C310.233 6.97656 310.432 7.15024 310.515 7.4025L310.664 7.89463L311.148 9.45785C311.244 9.75147 311.132 10.0534 310.908 10.1195L310.879 10.1319C310.85 10.1402 310.817 10.1443 310.784 10.1443Z" fill="#2972A0"/>
<path d="M313.381 9.34259C313.186 9.34259 312.983 9.16891 312.905 8.91664L312.416 7.35342L312.263 6.8613C312.176 6.56768 312.283 6.26992 312.507 6.19962L312.536 6.18721C312.565 6.17894 312.598 6.1748 312.631 6.1748C312.826 6.1748 313.033 6.34849 313.112 6.60076L313.261 7.09288L313.75 8.65611C313.837 8.94973 313.729 9.25161 313.505 9.31777L313.476 9.33019C313.443 9.33846 313.41 9.34259 313.381 9.34259Z" fill="#2972A0"/>
<path d="M315.978 8.54083C315.779 8.54083 315.58 8.36715 315.502 8.11489L315.017 6.55166L314.864 6.0554C314.772 5.76592 314.88 5.46816 315.1 5.39786L315.129 5.38959C315.162 5.37719 315.195 5.37305 315.228 5.37305C315.423 5.37305 315.626 5.54675 315.705 5.79487L315.858 6.29112L316.343 7.85435C316.434 8.14797 316.326 8.44571 316.102 8.51602L316.073 8.52429C316.04 8.5367 316.011 8.54083 315.978 8.54083Z" fill="#2972A0"/>
<path d="M318.575 7.73614C318.377 7.73614 318.178 7.56246 318.099 7.3102L317.614 5.74697L317.457 5.25072C317.37 4.9571 317.478 4.65934 317.697 4.59317L317.726 4.5849C317.755 4.5725 317.788 4.56836 317.821 4.56836C318.02 4.56836 318.219 4.74206 318.298 4.99019L318.451 5.48644L318.936 7.04966C319.027 7.34328 318.923 7.64102 318.696 7.71133L318.667 7.71961C318.638 7.72788 318.604 7.73614 318.575 7.73614Z" fill="#2972A0"/>
<path d="M321.169 6.93123C320.975 6.93123 320.767 6.76167 320.693 6.5094L320.208 4.94619L320.055 4.44994C319.964 4.16046 320.071 3.85857 320.295 3.7924L320.324 3.77998C320.357 3.77171 320.386 3.76758 320.419 3.76758C320.614 3.76758 320.817 3.94128 320.892 4.18941L321.049 4.68566L321.534 6.24887C321.625 6.54249 321.517 6.84024 321.294 6.91055L321.265 6.91883C321.236 6.9271 321.202 6.93123 321.169 6.93123Z" fill="#2972A0"/>
<path d="M323.766 6.12848C323.567 6.12848 323.368 5.95893 323.29 5.70253L322.805 4.14345L322.652 3.6472C322.56 3.35771 322.668 3.05582 322.892 2.98552L322.921 2.97725C322.95 2.96898 322.983 2.96484 323.016 2.96484C323.211 2.96484 323.414 3.13439 323.493 3.38666L323.646 3.88291L324.131 5.44199C324.222 5.73975 324.114 6.0375 323.89 6.1078L323.865 6.11608C323.832 6.12435 323.799 6.12848 323.766 6.12848Z" fill="#2972A0"/>
<path d="M273.352 57.3924H272.503V11.166H237.26V10.6201H273.352V57.3924Z" fill="#B2DFF9"/>
<path d="M272.504 58.141H271.908V12.1627H236.61V11.166H272.504V58.141Z" fill="#99D6F3"/>
<path d="M271.907 58.9385H271.505V12.6584H235.014V13.7667H234.915V12.1621H271.907V58.9385Z" fill="#B2DFF9"/>
<path d="M271.504 59.4356H270.39V14.1438C270.39 13.937 270.224 13.7675 270.017 13.7675H235.014V12.6592H271.504V59.4356Z" fill="#99D6F3"/>
<path d="M270.017 61.8591H232.98C232.773 61.8591 232.611 61.6937 232.611 61.4828V14.1439C232.611 13.9371 232.773 13.7676 232.98 13.7676H270.017C270.224 13.7676 270.39 13.9371 270.39 14.1439V61.4828C270.39 61.6937 270.224 61.8591 270.017 61.8591ZM258.583 55.1431V56.1108H266.744V55.1431H258.583ZM236.928 54.1092V55.0769H255.782V54.1092H236.928ZM258.583 53.2325V54.196H266.744V53.2325H258.583ZM236.928 52.426V53.3938H255.782V52.426H236.928ZM258.583 51.5493V52.517H266.744V51.5493H258.583ZM236.928 50.776V51.7478H255.782V50.776H236.928ZM258.583 49.8993V50.867H266.744V49.8993H258.583ZM236.928 49.1259V50.0936H255.782V49.1259H236.928ZM258.583 48.2534V49.2169H266.744V48.2534H258.583ZM236.928 47.5048V48.4725H255.782V47.5048H236.928ZM258.583 46.6281V47.5958H266.744V46.6281H258.583ZM236.928 39.9038V40.8674H255.782V39.9038H236.928ZM258.562 33.3573V40.429H265.647V40.0444H258.948V33.3573H258.562ZM259.809 39.4696L259.855 39.6143L260 39.5689L260.186 39.5109L260.294 39.4779L260.248 39.3331L259.813 39.4696H259.809ZM260.837 39.1512L260.402 39.2876H260.398L260.443 39.4324L260.588 39.3869L260.737 39.3414L260.882 39.2959L260.837 39.1512ZM261.425 37.2075L259.503 38.7996V39.3703L261.504 37.712L262.444 38.1545L264.395 36.4341L264.644 36.6988L264.785 35.7849L263.89 35.88L264.122 36.1281L262.349 37.6458L261.425 37.2075ZM261.425 38.9692L260.986 39.1057L261.031 39.2504L261.176 39.2049L261.326 39.1594L261.471 39.1139L261.425 38.9692ZM236.928 38.2165V39.1842H255.782V38.2165H236.928ZM263.969 38.8369L263.923 38.9816L264.035 39.0188L264.213 39.0726L264.362 39.1181L264.408 38.9733L264.114 38.8782L264.081 38.87L263.969 38.8369ZM262.013 38.7872L261.901 38.8203L261.719 38.8782L261.653 38.8989L261.578 38.9196L261.574 38.9237L261.62 39.0684L261.765 39.023L261.914 38.9733L262.059 38.932L262.013 38.7872ZM263.38 38.6508L263.335 38.7955L263.774 38.9361L263.82 38.7914L263.675 38.7418L263.525 38.6962L263.38 38.6508ZM264.594 38.4398L264.569 38.4936L264.441 38.7293L264.379 38.8451L264.516 38.9154L264.586 38.7831L264.731 38.5143L264.594 38.4398ZM262.162 38.7376L262.204 38.8865L262.349 38.841L262.502 38.7914L262.647 38.75L262.602 38.6053H262.597L262.162 38.7376ZM262.916 38.6632L263.186 38.75H263.19L263.231 38.6053L263.086 38.5557L262.916 38.506L262.896 38.5102L262.747 38.5557L262.792 38.7004L262.854 38.6839L262.916 38.6632ZM260.833 35.6194L260.725 35.6608L259.507 38.1132L259.511 38.4729L260.841 35.8055L262.146 36.2935H262.204L262.829 36.0702L262.883 36.0123L263.36 34.0356L264.056 34.9205L264.147 34.9495L265.257 34.5608L265.348 34.7386L265.369 34.7469L265.39 34.7345L265.576 34.3085V34.2878L265.56 34.2837L265.125 34.2299L265.104 34.2382L265.1 34.263L265.178 34.4119L264.151 34.7717L263.385 33.7999L263.302 33.7668L263.24 33.8288L262.734 35.9296L262.179 36.1281L260.833 35.6194ZM264.855 37.9684L264.673 38.3034L264.669 38.3075L264.801 38.3778L264.806 38.3737L264.847 38.2993L264.876 38.2455L264.992 38.0263L265.377 38.1917L265.265 37.3522L264.408 37.7699L264.532 37.8278L264.855 37.9684ZM236.928 36.5706V37.5383H255.782V36.5706H236.928ZM236.928 34.9205V35.8883H255.782V34.9205H236.928ZM236.928 33.2953V34.263H255.782V33.2953H236.928ZM235.996 29.7967V29.805V29.7967ZM236.928 28.5436V29.5114H255.782V28.5436H236.928ZM258.562 21.9393V28.7215H265.361V28.3493H258.931V21.9393H258.562ZM263.894 24.127V27.8944H265.009V24.127H263.894ZM262.423 25.8556V27.8944H263.538V25.8556H262.423ZM260.953 25.4751V27.8944H262.067V25.4751H260.953ZM259.47 26.5421V27.8944H260.584V26.5421H259.47ZM236.928 26.8605V27.8282H255.782V26.8605H236.928ZM236.928 25.2104V26.1782H255.782V25.2104H236.928ZM261.545 23.5893L259.465 25.3097V25.93L261.632 24.1352L262.643 24.6149L264.76 22.754L265.021 23.0435L265.178 22.0551L264.209 22.1543L264.458 22.4273L262.548 24.0649L261.545 23.5893ZM236.928 23.5604V24.5281H255.782V23.5604H236.928ZM236.928 21.9393V22.9028H255.782V21.9393H236.928ZM265.22 37.985L264.71 37.7616L265.162 37.5425L265.22 37.985Z" fill="#B2DFF9"/>
<path d="M236.928 22.902H255.782V21.9385H236.928V22.902Z" fill="#81BBDC"/>
<path d="M236.928 24.5263H255.782V23.5586H236.928V24.5263Z" fill="#81BBDC"/>
<path d="M236.928 26.1777H255.782V25.21H236.928V26.1777Z" fill="#81BBDC"/>
<path d="M236.928 27.8271H255.782V26.8594H236.928V27.8271Z" fill="#81BBDC"/>
<path d="M236.928 29.5107H255.782V28.543H236.928V29.5107Z" fill="#81BBDC"/>
<path d="M236.928 34.2624H255.782V33.2988H236.928V34.2624Z" fill="#81BBDC"/>
<path d="M236.928 35.8886H255.782V34.9209H236.928V35.8886Z" fill="#81BBDC"/>
<path d="M236.928 37.539H255.782V36.5713H236.928V37.539Z" fill="#81BBDC"/>
<path d="M236.928 39.1845H255.782V38.2168H236.928V39.1845Z" fill="#81BBDC"/>
<path d="M236.928 40.8669H255.782V39.9033H236.928V40.8669Z" fill="#81BBDC"/>
<path d="M236.928 48.4726H255.782V47.5049H236.928V48.4726Z" fill="#81BBDC"/>
<path d="M236.928 50.0927H255.782V49.125H236.928V50.0927Z" fill="#81BBDC"/>
<path d="M236.928 51.748H255.782V50.7803H236.928V51.748Z" fill="#81BBDC"/>
<path d="M236.928 53.3935H255.782V52.4258H236.928V53.3935Z" fill="#81BBDC"/>
<path d="M236.928 55.0771H255.782V54.1094H236.928V55.0771Z" fill="#81BBDC"/>
<path d="M258.583 47.5956H266.744V46.6279H258.583V47.5956Z" fill="#81BBDC"/>
<path d="M258.583 49.2167H266.744V48.249H258.583V49.2167Z" fill="#81BBDC"/>
<path d="M258.583 50.8659H266.744V49.9023H258.583V50.8659Z" fill="#81BBDC"/>
<path d="M258.583 52.5165H266.744V51.5488H258.583V52.5165Z" fill="#81BBDC"/>
<path d="M258.583 54.196H266.744V53.2324H258.583V54.196Z" fill="#81BBDC"/>
<path d="M258.583 56.1103H266.744V55.1426H258.583V56.1103Z" fill="#81BBDC"/>
<path d="M265.647 40.4281H258.562V33.3564H258.948V40.0435H265.647V40.4281Z" fill="#81BBDC"/>
<path d="M259.503 39.3696V38.7989L261.425 37.2068L262.349 37.6451L264.122 36.1274L263.89 35.8793L264.785 35.7842L264.644 36.6981L264.396 36.4335L262.444 38.1538L261.504 37.7113L259.503 39.3696Z" fill="#988883"/>
<path d="M259.511 38.4728L259.507 38.113L260.725 35.6607L260.833 35.6193L262.179 36.128L262.734 35.9295L263.24 33.8286L263.302 33.7666L263.385 33.7997L264.151 34.7715L265.178 34.4117L265.257 34.5606L264.147 34.9493L264.056 34.9204L263.36 34.0354L262.883 36.0122L262.829 36.0701L262.204 36.2934H262.146L260.841 35.8054L259.511 38.4728Z" fill="#2498CE"/>
<path d="M265.369 34.7474L265.348 34.7391L265.257 34.5613L265.178 34.4124L265.1 34.2636L265.104 34.2387L265.124 34.2305L265.559 34.2842L265.576 34.2884V34.309L265.39 34.735L265.369 34.7474Z" fill="#2498CE"/>
<path d="M259.855 39.6147L259.81 39.4699H259.814L260.249 39.3335L260.294 39.4782L260.187 39.5113L260 39.5692L259.855 39.6147ZM260.443 39.4327L260.398 39.2879H260.402L260.837 39.1515L260.883 39.2962L260.738 39.3417L260.588 39.3872L260.443 39.4327ZM261.032 39.2507L260.986 39.106L261.425 38.9695L261.471 39.1143L261.326 39.1597L261.177 39.2053L261.032 39.2507ZM264.363 39.1184L264.213 39.0729L264.035 39.0192L263.923 38.9819L263.969 38.8372L264.081 38.8703L264.114 38.8785L264.408 38.9737L264.363 39.1184ZM261.62 39.0688L261.574 38.924L261.579 38.9199L261.653 38.8992L261.719 38.8785L261.902 38.8207L262.014 38.7876L262.059 38.9323L261.914 38.9737L261.765 39.0233L261.62 39.0688ZM263.774 38.9364L263.335 38.7958L263.381 38.6511L263.526 38.6966L263.675 38.7421L263.82 38.7917L263.774 38.9364ZM264.516 38.9158L264.379 38.8455L264.441 38.7297L264.57 38.4939L264.595 38.4402L264.731 38.5146L264.586 38.7834L264.516 38.9158ZM262.204 38.8868L262.163 38.7379L262.598 38.6056H262.602L262.647 38.7503L262.502 38.7917L262.349 38.8413L262.204 38.8868ZM263.19 38.7503H263.186L262.917 38.6635L262.855 38.6842L262.792 38.7007L262.747 38.556L262.896 38.5105L262.917 38.5064L263.087 38.556L263.232 38.6056L263.19 38.7503ZM264.802 38.3782L264.669 38.3078L264.673 38.3037L264.856 37.9688L264.992 38.0266L264.876 38.2458L264.847 38.2996L264.806 38.374L264.802 38.3782Z" fill="#A29983"/>
<path d="M265.378 38.1911L264.992 38.0256L264.856 37.9678L264.533 37.8272L264.408 37.7693L265.266 37.3516L265.378 38.1911ZM265.162 37.5418L264.711 37.761L265.22 37.9843L265.162 37.5418Z" fill="#A29983"/>
<path d="M265.361 28.7207H258.562V21.9385H258.931V28.3485H265.361V28.7207Z" fill="#81BBDC"/>
<path d="M259.47 27.8933H260.584V26.541H259.47V27.8933Z" fill="#2498CE"/>
<path d="M260.953 27.8939H262.068V25.4746H260.953V27.8939Z" fill="#A29983"/>
<path d="M262.422 27.8933H263.536V25.8545H262.422V27.8933Z" fill="#5EAAD5"/>
<path d="M263.893 27.8934H265.007V24.126H263.893V27.8934Z" fill="#988883"/>
<path d="M259.465 25.9296V25.3093L261.545 23.589L262.547 24.0645L264.457 22.4269L264.208 22.1539L265.178 22.0547L265.02 23.0431L264.759 22.7536L262.642 24.6146L261.632 24.1348L259.465 25.9296Z" fill="#81BBDC"/>
<path d="M289.447 249.77L288.499 248.699C289.464 248.311 290.421 247.914 291.374 247.504L292.356 248.563C291.39 248.976 290.425 249.378 289.447 249.77ZM298.002 246.007L296.971 244.973C297.891 244.535 298.802 244.097 299.709 243.638L300.766 244.655C299.854 245.118 298.943 245.565 298.002 246.007ZM306.135 241.814L305.02 240.821C305.886 240.337 306.748 239.841 307.597 239.345L308.745 240.325C307.883 240.834 307.013 241.334 306.135 241.814ZM313.795 237.207L312.606 236.256C313.422 235.722 314.234 235.185 315.025 234.647L316.248 235.573C315.44 236.123 314.619 236.665 313.795 237.207ZM320.958 232.195L319.694 231.289C320.453 230.714 321.207 230.135 321.956 229.548L323.237 230.429C322.478 231.016 321.733 231.607 320.958 232.195ZM100.574 231.483C99.5633 230.896 98.569 230.305 97.5872 229.697L98.5152 228.828C99.4142 229.387 100.338 229.924 101.266 230.47V230.797L100.574 231.483ZM327.591 226.785L326.265 225.942C326.969 225.33 327.657 224.709 328.345 224.081L329.691 224.908C329.008 225.545 328.295 226.169 327.591 226.785ZM333.672 221.033L332.285 220.243C332.923 219.59 333.548 218.928 334.157 218.262L335.57 219.027C334.948 219.706 334.319 220.375 333.672 221.033ZM339.17 214.933L337.716 214.209C338.288 213.519 338.847 212.824 339.39 212.121L340.856 212.824C340.301 213.54 339.729 214.234 339.17 214.933ZM344.038 208.544L342.534 207.862C343.035 207.146 343.541 206.426 344.013 205.69L345.517 206.336C345.024 207.08 344.531 207.804 344.038 208.544ZM67.9864 207.634C67.1909 206.906 66.3996 206.174 65.6166 205.434L66.8595 204.789C67.6301 205.529 68.4172 206.261 69.2085 206.981L67.9864 207.634ZM348.268 201.857L346.735 201.253C347.158 200.5 347.572 199.748 347.982 198.995L349.531 199.574C349.125 200.347 348.703 201.1 348.268 201.857ZM61.0512 200.93C60.3262 200.165 59.5888 199.404 58.8638 198.627L60.1771 198.06C60.8855 198.826 61.6105 199.578 62.3479 200.335L61.0512 200.93ZM351.839 194.93L350.289 194.401C350.637 193.619 350.981 192.846 351.317 192.052L352.9 192.569C352.552 193.358 352.216 194.144 351.839 194.93ZM54.6629 193.962C53.9793 193.181 53.3206 192.391 52.6619 191.597L54.0249 191.105C54.6836 191.878 55.3382 192.659 56.0176 193.445L54.6629 193.962ZM56.0218 193.445H56.0176H56.0218ZM354.772 187.771L353.177 187.312C353.463 186.514 353.732 185.716 354.001 184.901L355.601 185.348C355.344 186.159 355.07 186.961 354.772 187.771ZM48.8463 186.791C48.2208 185.985 47.6159 185.178 47.0359 184.355L48.4569 183.921C49.041 184.728 49.6418 185.538 50.2508 186.336L48.8463 186.791ZM357.03 180.427L355.414 180.034C355.625 179.219 355.824 178.392 356.015 177.573L357.631 177.941C357.444 178.777 357.237 179.608 357.03 180.427ZM43.5973 179.426C43.0546 178.607 42.5285 177.776 42.0023 176.945L43.4772 176.581C43.9909 177.404 44.5253 178.227 45.0639 179.054L43.5973 179.426ZM358.318 174.649L356.682 174.314C356.844 173.479 356.984 172.644 357.117 171.817L358.749 172.131C358.613 172.966 358.467 173.806 358.318 174.649ZM38.9905 171.912C38.5099 171.072 38.0459 170.229 37.5902 169.381L39.1065 169.087C39.558 169.931 40.022 170.766 40.4902 171.597L38.9905 171.912ZM359.391 167.04L357.747 166.78C357.829 165.932 357.892 165.084 357.954 164.24L359.59 164.472C359.54 165.324 359.466 166.184 359.391 167.04ZM35.005 164.269C34.5907 163.413 34.1971 162.553 33.816 161.697L35.3737 161.49C35.7466 162.338 36.1402 163.182 36.5462 164.034L35.005 164.269ZM359.768 159.311L358.128 159.125C358.132 158.269 358.119 157.417 358.095 156.557L359.739 156.718C359.756 157.591 359.768 158.447 359.768 159.311ZM31.6617 156.524C31.322 155.668 31.003 154.799 30.7006 153.931L32.2832 153.803C32.5897 154.654 32.9129 155.515 33.2443 156.371L31.6617 156.524ZM359.466 151.511L357.825 151.408C357.747 150.54 357.664 149.675 357.564 148.815L359.205 148.902C359.3 149.766 359.383 150.639 359.466 151.511ZM28.9896 148.728C28.7286 147.856 28.4883 146.983 28.2521 146.106L29.8596 146.053C30.0916 146.913 30.3401 147.777 30.5887 148.646L28.9896 148.728ZM30.5887 148.646H30.597H30.5887ZM358.451 143.666L356.823 143.642C356.678 142.765 356.52 141.901 356.342 141.04H357.97C358.14 141.917 358.31 142.786 358.451 143.666ZM26.9886 140.871C26.8063 139.998 26.6281 139.13 26.4707 138.245L28.103 138.27C28.2604 139.138 28.4261 140.002 28.6209 140.867L26.9886 140.871ZM355.145 135.846C354.917 134.982 354.685 134.113 354.432 133.257L356.044 133.183C356.301 134.056 356.537 134.928 356.761 135.801L355.145 135.846ZM27.3076 133.084L25.6711 133.009C25.5676 132.141 25.4764 131.264 25.3894 130.392L27.0383 130.499C27.117 131.359 27.204 132.224 27.3117 133.084H27.3076ZM352.8 128.1C352.498 127.24 352.191 126.388 351.868 125.528L353.451 125.375C353.774 126.244 354.093 127.104 354.387 127.968L352.8 128.1ZM351.868 125.528L351.872 125.524L351.868 125.528ZM26.6986 125.334L25.058 125.185C25.0249 124.321 25.0124 123.456 25 122.584L26.6447 122.766C26.6488 123.626 26.6737 124.474 26.6986 125.334ZM349.784 120.4C349.419 119.552 349.034 118.701 348.641 117.857L350.182 117.629C350.588 118.485 350.969 119.342 351.35 120.198L349.784 120.4ZM26.7814 117.654L25.1284 117.423C25.174 116.562 25.232 115.711 25.3066 114.855L26.9472 115.107C26.8767 115.955 26.8146 116.802 26.7814 117.654ZM346.118 112.783C345.683 111.943 345.231 111.108 344.759 110.272L346.275 109.966C346.739 110.814 347.203 111.658 347.65 112.51L346.118 112.783ZM27.5271 110.062L25.8866 109.751C26.0109 108.92 26.1517 108.064 26.2926 107.22L27.9332 107.555C27.7799 108.387 27.6431 109.226 27.5354 110.062H27.5271ZM341.83 105.285C341.312 104.458 340.782 103.627 340.255 102.812L341.726 102.44C342.256 103.263 342.791 104.098 343.313 104.929L341.83 105.285ZM28.9523 102.585L27.3366 102.212C27.5354 101.377 27.7426 100.558 27.9663 99.7311L29.5779 100.132C29.3624 100.951 29.1553 101.766 28.9523 102.585ZM336.916 97.9198C336.336 97.1175 335.748 96.3028 335.151 95.5046L336.56 95.0539C337.161 95.8644 337.753 96.675 338.346 97.4938L336.916 97.9198ZM31.0569 95.2772L29.4494 94.8306C29.7311 94.02 30.0046 93.2053 30.3029 92.403L31.8979 92.8786C31.5954 93.6685 31.3179 94.4708 31.0569 95.2772ZM33.8036 88.1517L32.221 87.6348C32.569 86.8408 32.9377 86.0592 33.2981 85.2776L34.8642 85.8152C34.4954 86.5885 34.1433 87.3619 33.8036 88.1517ZM37.209 81.2331L37.2049 81.2248L37.209 81.2331ZM37.2049 81.2248L35.672 80.6458C36.0905 79.8849 36.5213 79.1323 36.9646 78.3837L38.4933 78.9793C38.05 79.7236 37.6233 80.4722 37.2049 81.2248ZM41.2607 74.575V74.5667L39.7652 73.9174C40.254 73.1854 40.7512 72.4576 41.2649 71.7297L42.7439 72.408C42.2426 73.1234 41.7455 73.8388 41.2607 74.575ZM45.9422 68.1732H45.938H45.9422ZM45.938 68.1732L44.4922 67.4578C45.0556 66.7506 45.6273 66.0559 46.2032 65.3653L47.6449 66.1055C47.0773 66.7796 46.4932 67.4743 45.938 68.1732ZM51.2409 62.0651L49.8489 61.2918C50.4745 60.6136 51.1208 59.9684 51.7712 59.3068L53.1425 60.1008C52.5086 60.7459 51.8706 61.4076 51.2409 62.0651ZM57.1362 56.292L55.8022 55.4525C56.4816 54.828 57.1859 54.1953 57.9026 53.5874L59.2284 54.4393C58.5158 55.0513 57.8239 55.6593 57.1362 56.292ZM287.268 52.7975C286.295 52.202 285.317 51.6106 284.319 51.0234L285.234 50.1425C286.237 50.7339 287.21 51.3211 288.2 51.9291L287.268 52.7975ZM63.5949 50.8662L62.3148 49.9688C63.0646 49.3857 63.8269 48.8068 64.6058 48.2319L65.8569 49.1376C65.0946 49.7083 64.3324 50.279 63.5949 50.8662ZM278.32 47.5992C277.309 47.0451 276.29 46.495 275.258 45.9492L276.074 45.0063C277.114 45.5604 278.141 46.1146 279.173 46.6729L278.32 47.5992ZM70.5632 45.8127L69.3618 44.8739C70.1821 44.3322 70.9899 43.7946 71.8268 43.2611L73.0075 44.2164C72.1955 44.7416 71.3794 45.2751 70.5632 45.8127ZM78.0535 41.1603L76.9225 40.1677C77.7843 39.6674 78.6584 39.1794 79.545 38.6955L80.6511 39.6922C79.7853 40.1802 78.907 40.664 78.0535 41.1603ZM85.9995 36.9131L84.9473 35.8875C85.8628 35.4285 86.795 34.9901 87.7188 34.5518L88.7504 35.5898C87.8266 36.024 86.9151 36.4624 85.9995 36.9131ZM94.3806 33.0961L93.4111 32.025C94.3806 31.6238 95.3458 31.231 96.3194 30.834L97.264 31.9133C96.2987 32.2979 95.3334 32.6867 94.3806 33.0961Z" fill="#15F7F7"/>
<path d="M103.167 29.7139L102.28 28.6221C103.283 28.2665 104.306 27.9191 105.321 27.5759L106.17 28.6924C105.168 29.0274 104.157 29.3624 103.167 29.7139ZM229.11 27.8074C227.954 27.4849 226.811 27.1788 225.638 26.8811L225.97 25.748C227.15 26.054 228.31 26.3641 229.483 26.6826L229.11 27.8074ZM112.314 26.8025L111.511 25.6611C112.563 25.3634 113.611 25.0739 114.672 24.7885L115.434 25.9217C114.386 26.2029 113.342 26.4924 112.314 26.8025ZM121.781 24.3378L121.081 23.1922C122.162 22.9441 123.243 22.7001 124.333 22.4727L125.016 23.6264C123.927 23.8539 122.85 24.0938 121.781 24.3378Z" fill="#15F7F7"/>
<path d="M176.194 19.5157C175.014 19.4661 173.841 19.4206 172.669 19.3958L172.466 18.1924C173.655 18.2296 174.848 18.2627 176.033 18.3082L176.194 19.5157ZM172.669 19.4041L172.656 19.3958H172.669V19.4041Z" fill="#15F7F7"/>
<path d="M267.279 222.774L266.417 221.914C267.184 221.542 267.942 221.174 268.7 220.789L269.595 221.653C268.833 222.034 268.054 222.406 267.279 222.774ZM268.7 220.789L268.708 220.781L268.7 220.789ZM274.098 219.263L273.162 218.436C273.891 218.027 274.608 217.609 275.329 217.2L276.281 218.01C275.565 218.436 274.84 218.854 274.098 219.263ZM280.511 215.392L279.529 214.607C280.209 214.16 280.884 213.701 281.543 213.25L282.575 214.028C281.891 214.491 281.211 214.946 280.511 215.392ZM286.527 211.187L285.475 210.442C286.113 209.958 286.73 209.474 287.364 208.978L288.428 209.718C287.807 210.219 287.181 210.707 286.527 211.187ZM287.364 208.978L287.355 208.974L287.351 208.97L287.364 208.978ZM292.087 206.667L290.968 205.951C291.565 205.438 292.132 204.913 292.72 204.396L292.712 204.388L293.843 205.087C293.267 205.62 292.675 206.15 292.087 206.667ZM297.191 201.836L296.018 201.175C296.544 200.625 297.083 200.075 297.588 199.52L298.773 200.161C298.255 200.728 297.717 201.282 297.191 201.836ZM87.3296 201.141C86.5631 200.596 85.805 200.033 85.0676 199.458L85.9873 198.83C86.7247 199.388 87.4663 199.942 88.2327 200.492L87.3296 201.141ZM301.785 196.729L300.584 196.109C301.052 195.53 301.524 194.955 301.976 194.368L301.984 194.359L303.206 194.959C302.746 195.55 302.266 196.142 301.785 196.729ZM80.6678 196.001C79.9511 195.414 79.2427 194.827 78.5384 194.227L79.5285 193.64C80.2245 194.235 80.9288 194.814 81.6331 195.397L80.6678 196.001ZM305.862 191.357L304.623 190.803C305.045 190.199 305.447 189.587 305.849 188.979L305.857 188.975L307.109 189.525C306.711 190.141 306.288 190.749 305.862 191.357ZM74.4328 190.608C73.7575 189.996 73.1029 189.376 72.4484 188.756L73.48 188.214C73.8238 188.545 74.1718 188.872 74.5198 189.194L74.4991 189.86L75.2407 189.856C75.3153 189.922 75.3898 189.988 75.4644 190.054L74.4328 190.608ZM309.416 185.758L308.128 185.253C308.488 184.624 308.836 183.996 309.18 183.363L310.485 183.855C310.129 184.488 309.772 185.129 309.416 185.758ZM68.6204 184.976C67.9948 184.339 67.3734 183.702 66.7809 183.061L67.8788 182.573C68.4671 183.218 69.0885 183.843 69.6975 184.48L68.6204 184.976ZM312.42 179.955L311.111 179.501C311.409 178.851 311.691 178.202 311.976 177.54L313.302 177.962C313.02 178.64 312.726 179.31 312.42 179.955ZM63.2595 179.141C62.6878 178.483 62.1285 177.826 61.5734 177.156L62.7251 176.738C63.2761 177.391 63.8354 178.057 64.3905 178.702L63.2595 179.141ZM58.3709 173.128C57.8696 172.45 57.3518 171.771 56.8629 171.093L58.0561 170.725C58.5366 171.399 59.0503 172.081 59.5516 172.751L58.3709 173.128ZM53.9919 166.953C53.5279 166.263 53.0763 165.56 52.6413 164.873L53.8759 164.567C54.3109 165.254 54.7625 165.949 55.2182 166.631L53.9919 166.953ZM317.88 162.744L316.786 162.739L316.476 162.677C316.608 161.974 316.716 161.28 316.84 160.581L318.203 160.833C318.112 161.47 318 162.107 317.88 162.744ZM50.1142 160.655C49.7165 159.948 49.3312 159.249 48.9459 158.525L50.2095 158.29C50.5948 158.993 50.9801 159.696 51.3778 160.39L50.1142 160.655ZM316.84 160.581L316.844 160.577L316.84 160.581ZM318.746 156.573L317.379 156.354C317.437 155.643 317.491 154.927 317.536 154.229H317.544L318.899 154.415C318.866 155.138 318.808 155.85 318.746 156.573ZM46.7751 154.241C46.4271 153.534 46.0998 152.81 45.789 152.091L47.0775 151.913C47.413 152.628 47.7362 153.339 48.0718 154.047V154.051L46.7751 154.241ZM319.057 150.097L317.685 149.944C317.685 149.225 317.677 148.501 317.66 147.786L319.04 147.918C319.061 148.637 319.065 149.365 319.057 150.097ZM43.9703 147.752C43.701 147.029 43.4359 146.305 43.1708 145.581L44.5048 145.465C44.7533 146.189 45.0309 146.905 45.3002 147.624L45.296 147.62L43.9703 147.752ZM318.796 143.547L317.433 143.46C317.366 142.736 317.3 142.012 317.217 141.293L318.588 141.359C318.667 142.095 318.733 142.823 318.796 143.547ZM41.7332 141.21C41.526 140.482 41.3147 139.754 41.12 139.018L42.4582 138.969C42.6529 139.701 42.8642 140.42 43.092 141.144L41.7332 141.21ZM317.959 136.971L316.6 136.942C316.467 136.219 316.339 135.499 316.19 134.775H317.553C317.698 135.507 317.843 136.243 317.959 136.971ZM40.0595 134.631C39.902 133.89 39.7612 133.158 39.6162 132.422L40.9957 132.443C41.1242 133.175 41.265 133.899 41.4266 134.622H41.4225L40.0595 134.631ZM315.191 130.421C315.001 129.697 314.81 128.969 314.599 128.25L315.941 128.192C316.152 128.919 316.351 129.647 316.534 130.383L315.191 130.421ZM314.591 128.25H314.595C314.599 128.25 314.599 128.25 314.599 128.25H314.591ZM40.3329 128.092L38.9616 128.034C38.8705 127.307 38.7835 126.571 38.7255 125.847L40.0926 125.925C40.1548 126.653 40.2418 127.377 40.3329 128.092ZM313.215 123.92C312.971 123.204 312.714 122.485 312.449 121.769L313.762 121.641C314.048 122.373 314.305 123.093 314.545 123.816L313.215 123.92ZM39.8109 121.6L38.4438 121.471C38.4189 120.752 38.3982 120.024 38.394 119.3L39.7695 119.445C39.7736 120.165 39.7943 120.88 39.8109 121.6ZM310.696 117.464C310.377 116.753 310.062 116.05 309.727 115.339L311.036 115.144C311.363 115.864 311.682 116.583 312.005 117.307L310.696 117.464ZM39.8855 115.157L38.4976 114.962C38.5473 114.247 38.5846 113.531 38.6468 112.812L40.0263 113.019C39.9766 113.734 39.9186 114.445 39.8855 115.157ZM39.8855 115.157H39.873H39.8855ZM307.618 111.087C307.254 110.38 306.872 109.681 306.483 108.982H306.487L306.483 108.978L307.751 108.726C308.144 109.425 308.53 110.149 308.907 110.856L307.618 111.087ZM306.479 108.982L306.483 108.978C306.483 108.982 306.483 108.982 306.483 108.982H306.479ZM40.511 108.792L40.5193 108.788L39.1398 108.536C39.2433 107.828 39.3635 107.121 39.4836 106.418L40.8508 106.695C40.7223 107.39 40.6105 108.089 40.5193 108.788L40.511 108.792ZM41.7042 102.535L40.3412 102.221C40.5235 101.522 40.6892 100.823 40.8839 100.141L42.2345 100.471C42.0439 101.162 41.8782 101.84 41.7042 102.535Z" fill="#15F7F7"/>
<path d="M43.4716 96.4023L42.1211 96.0219C42.349 95.3436 42.5809 94.6696 42.8337 93.9996L44.1718 94.3842C43.9232 95.0583 43.6871 95.7283 43.4716 96.4023ZM45.7627 90.4224L44.4452 89.9882C44.7352 89.3307 45.0335 88.669 45.3484 88.0238L46.6741 88.4705C46.3634 89.1198 46.0527 89.769 45.7627 90.4224ZM48.6171 84.6286L47.3369 84.1365C47.6849 83.4996 48.0454 82.8586 48.4182 82.23L49.6942 82.7428C49.338 83.3631 48.9734 83.9876 48.6171 84.6286ZM52.0308 79.0416L50.7673 78.4957C51.1774 77.8712 51.6082 77.2675 52.0267 76.6595L53.282 77.2261C52.847 77.8299 52.4368 78.4295 52.0308 79.0416ZM278.641 75.6133C277.95 75.0178 277.249 74.4347 276.553 73.8557L277.519 73.2478C278.227 73.8392 278.931 74.4347 279.623 75.026L278.641 75.6133ZM276.553 73.8557L276.558 73.8474L276.553 73.8557ZM55.95 73.6861L54.732 73.0823C55.2084 72.4868 55.6807 71.9037 56.1737 71.3206L57.3792 71.9451C56.8904 72.5117 56.4181 73.0948 55.95 73.6861ZM272.232 70.4067C271.495 69.8401 270.753 69.2777 270.016 68.7277L270.004 68.7194L270.915 68.0701C271.673 68.6367 272.415 69.2033 273.16 69.7698L272.232 70.4067ZM60.3953 68.5623L59.2228 67.9089C59.7573 67.3506 60.2917 66.784 60.8344 66.2423L61.9903 66.9081C61.4558 67.4498 60.9131 67.9957 60.3911 68.5581L60.3953 68.5623ZM265.43 65.4524C264.655 64.9189 263.88 64.3896 263.073 63.8685L263.922 63.1737C264.721 63.6989 265.521 64.2366 266.292 64.77L265.43 65.4524ZM65.3336 63.7196L64.215 63.0083C64.795 62.4873 65.3833 61.9662 65.984 61.4492L67.0943 62.1606C66.5018 62.6651 65.9053 63.1862 65.3419 63.7114L65.3336 63.7196ZM70.7441 59.1664L69.6753 58.4179C70.3008 57.9258 70.9554 57.442 71.5934 56.9581L72.6457 57.719C72.0036 58.1946 71.378 58.6867 70.7441 59.1664ZM76.598 54.9317L75.5789 54.146C76.2624 53.6828 76.9501 53.2362 77.6544 52.7978L78.6529 53.596C77.9486 54.0302 77.2733 54.4809 76.598 54.9317ZM82.8745 51.032L82.8703 51.0237L81.9216 50.2007C82.6424 49.7748 83.384 49.3695 84.1215 48.9642L85.0453 49.8037C84.312 50.2049 83.587 50.6143 82.8745 51.032ZM89.532 47.4672L88.6579 46.6028C89.4202 46.2224 90.1949 45.8461 90.9779 45.4822L91.8355 46.3589C91.0608 46.7228 90.3026 47.095 89.532 47.4672ZM226.632 45.3705C225.704 45.0231 224.78 44.6757 223.827 44.3408L224.283 43.4475C225.244 43.7949 226.172 44.1381 227.108 44.4938L226.632 45.3705ZM96.5666 44.2705L95.7505 43.373C96.5542 43.0339 97.3662 42.7031 98.1906 42.3723L98.9819 43.2862C98.1699 43.6046 97.3662 43.9272 96.5749 44.2622L96.5666 44.2705ZM218.156 42.4136C217.215 42.0993 216.262 41.8016 215.305 41.5038L215.662 40.594C216.631 40.8835 217.592 41.1895 218.549 41.4997L218.156 42.4136ZM103.924 41.4252L103.191 40.5113C104.032 40.2135 104.877 39.924 105.731 39.6511L106.447 40.5733C105.59 40.8504 104.757 41.1358 103.924 41.4252ZM209.526 39.8331C208.561 39.5601 207.591 39.3079 206.622 39.0556L206.891 38.1127C207.865 38.365 208.851 38.6255 209.824 38.8985L209.526 39.8331ZM111.593 38.9894L110.93 38.0341C111.808 37.786 112.678 37.5379 113.577 37.298L114.215 38.2533C113.345 38.4932 112.454 38.7372 111.593 38.9894ZM119.535 36.9341L118.942 35.9664C119.854 35.7555 120.765 35.557 121.685 35.3626L122.232 36.3303C121.337 36.5247 120.43 36.7191 119.535 36.9341ZM127.709 35.2799L127.713 35.2716L127.211 34.2874C128.131 34.122 129.076 33.9772 130.008 33.8284L130.493 34.8126C129.565 34.9574 128.628 35.1104 127.709 35.2799ZM182.987 34.4363C181.993 34.2998 181.015 34.184 180.012 34.0641L180.029 33.0633C181.031 33.1832 182.026 33.3114 183.037 33.4479L182.987 34.4363ZM136.11 34.031L136.106 34.0269L136.11 34.031ZM136.106 34.0269L135.679 33.0343C136.624 32.9144 137.585 32.8069 138.538 32.6994L138.944 33.7043C137.987 33.8035 137.055 33.9111 136.106 34.0269ZM174.071 33.4479C173.065 33.3569 172.074 33.2825 171.084 33.208L171.01 32.2031C172.021 32.2858 173.011 32.3603 174.013 32.4512L174.071 33.4479Z" fill="#15F7F7"/>
<path d="M165.141 32.8762C164.163 32.8307 163.177 32.8059 162.191 32.7893L162.042 31.7803C163.024 31.7968 164.018 31.8299 165.025 31.8671L165.141 32.8762Z" fill="#B2DFF9"/>
<path d="M126.62 119.752C127.668 121.096 133.199 124.979 133.8 125.426C134.396 125.872 135.146 133.933 135.146 133.933C135.146 133.933 130.357 129.458 128.116 127.068C125.87 124.677 126.62 119.752 126.62 119.752Z" fill="#E5E8EC"/>
<path d="M128.717 117.224C128.452 112.791 134.62 103.321 138.635 100.641C138.635 100.641 116.922 87.4527 117.564 94.4582C118.053 99.9005 114.942 112.613 111.114 114.255C102.729 117.865 103.392 139.643 109.382 145.614C113.442 149.667 134.939 141.47 135.279 141.231C136.853 140.184 127.76 127.774 128.717 117.224Z" fill="#D2A979"/>
<path d="M221.421 112.575C224.665 111.719 225.485 114.916 227.93 119.138C230.378 123.348 242.674 142.905 241.817 147.474C240.971 152.044 235.432 155.551 232.893 157.37C230.353 159.194 223.518 147.495 220.99 142.524C218.472 137.553 221.421 112.575 221.421 112.575Z" fill="#AD084E"/>
<path d="M251.731 133.001L232.64 140.296C232.64 140.296 228.734 151.189 232.334 157.648C232.334 157.648 253.86 152.657 255.762 150.875C259.482 147.397 251.731 133.001 251.731 133.001Z" fill="#AD084E"/>
<path d="M255.953 132.141C256.723 131.239 258.21 129.878 259.433 128.493C260.22 127.612 262.009 127.265 264.433 125.565C265.046 125.147 265.643 124.548 265.535 125.445C265.423 126.355 263.145 127.372 262.743 128.51C262.589 128.936 266.123 128.228 267.101 127.765C267.954 127.385 272.947 125.892 273.141 126.549C273.473 127.753 267.49 128.857 267.743 129.337C267.946 129.705 274.243 126.711 274.293 127.492C274.413 129.151 268.94 130.036 268.601 130.995C268.601 130.995 269.902 130.602 271.302 130.127C272.586 129.734 273.771 129.014 274.069 129.204C276.199 130.528 267.142 132.529 268.191 132.93C268.675 133.116 273.141 130.333 273.187 131.388C273.195 131.905 267.66 134.899 267.66 134.899C267.66 134.899 260.833 138.455 258.148 139.158C256.537 139.576 253.471 140.221 253.471 140.221L251.482 134.485C251.482 134.485 254.652 133.704 255.953 132.141Z" fill="#E9CAA7"/>
<path d="M254.867 132.323C253.454 133.109 250.869 134.238 250.869 134.238C250.869 134.238 251.967 141.219 255.29 144.99C258.301 143.332 258.749 142.984 258.749 142.984C258.749 142.984 254.453 136.351 254.867 132.323Z" fill="#FEFEFE"/>
<path d="M206.276 180.98C206.876 186.414 202.323 190.798 196.2 190.744L162.295 190.43C156.769 190.38 152.037 186.22 151.644 181.162L147.062 121.921C146.697 117.24 150.583 113.059 155.807 112.563L187.823 109.49C193.59 108.936 198.773 112.513 199.32 117.521L206.276 180.98Z" fill="#2D2D32"/>
<path d="M193.826 70.3201C188.424 74.8277 185.263 89.153 187.284 96.0593C189.306 102.97 196.531 108.888 198.847 109.14C201.155 109.392 220.601 110.959 220.328 109.748C218.903 103.35 224.409 84.604 217.681 78.6117C210.961 72.5946 203.777 67.5203 198.321 69.282C195.703 70.1298 193.826 70.3201 193.826 70.3201Z" fill="#E7E7E7"/>
<path d="M215.493 111.252C213.504 109.582 210.853 108.382 209.8 102.555C210.293 98.7094 214.295 92.9238 214.577 91.9933L197.749 89.0654C194.111 102.183 190.855 103.378 185.188 105.467C182.143 105.086 186.99 126.545 188.796 127.013C215.799 133.944 218.061 112.576 215.493 111.252Z" fill="#E9CAA7"/>
<path fill-rule="evenodd" clip-rule="evenodd" d="M183.937 109.863C183.547 108.015 183.22 106.596 182.959 106.059C183.411 106.116 183.837 106.141 184.239 106.141C184.305 106.141 184.368 106.141 184.434 106.137C184.181 106.89 184.152 108.209 184.281 109.83L183.937 109.863Z" fill="url(#paint0_linear)"/>
<path fill-rule="evenodd" clip-rule="evenodd" d="M184.914 114.557C184.554 112.882 184.227 111.253 183.937 109.863L184.28 109.83C184.388 111.236 184.616 112.87 184.914 114.557Z" fill="url(#paint1_linear)"/>
<path fill-rule="evenodd" clip-rule="evenodd" d="M193.275 100.07C193.889 99.0944 194.406 97.9902 194.837 96.8984C194.875 96.9646 194.908 97.0349 194.945 97.1011C194.398 98.2673 193.847 99.2432 193.275 100.07Z" fill="url(#paint2_linear)"/>
<path fill-rule="evenodd" clip-rule="evenodd" d="M189.492 125.821C187.607 125.821 186.083 119.941 184.914 114.556C184.616 112.869 184.388 111.236 184.281 109.83C184.152 108.208 184.181 106.889 184.434 106.137C187.781 106.066 189.67 104.135 192.028 101.695C192.483 101.224 192.898 100.67 193.275 100.07C193.846 99.2428 194.398 98.2668 194.944 97.1006C196.954 100.901 199.841 103.544 202.878 103.97C203.591 104.065 204.278 104.131 204.953 104.131C206.246 104.131 207.472 103.895 208.67 103.242C205.645 107.902 200.338 117.315 190.234 125.52C189.981 125.726 189.737 125.821 189.492 125.821Z" fill="#D2A979"/>
<path d="M193.197 85.4929C193.081 88.6731 192.554 90.9104 193.478 93.6646C195.355 99.2516 198.992 103.428 202.878 103.97C207.842 104.661 211.599 103.569 216.131 92.0559C219.984 82.2672 222.685 71.2668 210.576 67.7971C199.229 64.5425 193.594 75.1831 193.197 85.4929Z" fill="#E9CAA7"/>
<path d="M205.26 74.1405C200.749 74.0826 198.474 79.0452 196.196 83.3957C195.512 84.6695 191.22 84.4833 191.1 85.9142C189.302 83.0938 187.504 73.1811 196.378 68.0903C201.258 65.2989 203.79 66.5519 203.79 66.5519L205.26 74.1405Z" fill="#E7E7E7"/>
<path d="M204.246 73.698C209.396 76.8161 215.883 76.5142 217.097 83.2633C218.311 89.9918 216.579 95.4465 216.579 95.4465C216.579 95.4465 222.893 82.1426 219.305 73.6277C216.84 67.7677 207.871 64.6123 204.602 66.4154C201.342 68.2267 204.246 73.698 204.246 73.698Z" fill="white"/>
<path d="M194.469 84.7526C190.881 78.169 189.849 86.1463 190.84 88.549C192.058 91.5018 192.981 91.7788 192.981 91.7788L194.469 84.7526Z" fill="#E9CAA7"/>
<path d="M216.082 69.7891C219.081 71.8196 223.746 77.9732 223.622 88.4484C223.572 93.4936 227.665 104.974 231.211 106.475C232.885 107.186 230.084 106.748 228.953 106.669C226.787 106.516 226.65 104.771 226.65 104.771C226.65 104.771 226.662 106.963 228.129 107.732C229.571 108.493 225.403 108.869 224.508 108.303C223.319 107.554 221.898 105.606 221.898 105.606C221.898 105.606 223.149 110.631 224.852 111.673C226.319 112.571 219.578 108.981 219.18 107.161C218.613 104.531 215.705 99.7589 217.681 93.9361C219.649 88.1134 218.72 79.4496 215.327 76.7077C211.926 73.9701 216.082 69.7891 216.082 69.7891Z" fill="white"/>
<path d="M203.897 72.0361C204.179 74.4182 204.834 76.0269 208.107 77.6604C211.379 79.2898 216.769 85.7163 216.268 88.5863C217.005 85.1456 217.109 79.236 213.919 76.2006C210.729 73.161 203.897 72.0361 203.897 72.0361Z" fill="white"/>
<path d="M189.964 102.507C193.245 106.527 194.583 110.72 198.204 116.927C202.492 124.297 209.929 121.848 212.485 114.446C215.041 107.043 212.609 107.035 212.609 107.035L223.472 112.581C223.472 112.581 224.408 125.219 223.492 129.904C222.581 134.59 224.88 140.045 220.161 147.964C218.343 151.02 216.574 156.442 218.513 160.594C221.351 166.669 226.024 172.628 224.482 176.954C219.987 176.032 196.783 191.552 184.881 185.059C172.983 178.571 163.607 175.618 161.884 176.929C167.062 161.719 174.909 150.946 174.039 141.074C171.876 116.46 170.066 109.963 170.066 109.963L189.964 102.507Z" fill="#DC1368"/>
<path d="M174.86 111.145C181.062 123.77 180.163 140.941 183.22 142.235C185.743 143.298 187.086 149.708 184.712 150.461C182.338 151.209 179.616 149.572 178.216 149.663C176.807 149.749 181.638 152.868 180.925 154.315C180.204 155.771 183.295 154.319 180.813 158.132C174.926 167.185 182.607 180.211 181.832 178.156C172.18 175.344 162.452 178.135 162.452 178.135C162.452 178.135 165.012 163.624 171.84 153.74C176.148 147.508 168.24 115.475 171.542 111.724C172.238 110.934 174.86 111.145 174.86 111.145Z" fill="#AD084E"/>
<path d="M195.475 84.9796L191.97 81.6133L192.496 83.1269L195.686 86.5138L195.475 84.9796Z" fill="#2D2D32"/>
<path d="M202.302 90.6122C200.769 90.6122 199.369 90.0704 198.196 89.0779C197.239 88.2632 196.054 87.2418 195.673 86.4271L195.582 85.753C195.632 85.6041 195.739 85.4718 195.926 85.3642C196.597 84.9672 198.747 84.6777 200.794 84.6777C202.48 84.6777 204.096 84.8721 204.75 85.3642C206.184 86.4436 206.142 87.3534 206.142 87.3534C205.898 87.9779 205.488 90.1366 203.499 90.5046C203.089 90.5791 202.691 90.6122 202.302 90.6122Z" fill="#E9CBC0"/>
<path d="M195.674 86.427C195.558 86.1789 195.516 85.9514 195.582 85.7529L195.674 86.427Z" fill="#66656B"/>
<path d="M216.77 90.39C217.035 89.6787 217.287 88.9674 217.528 88.252C217.528 88.6696 217.515 89.0708 217.499 89.4595C217.296 89.7821 217.051 90.1046 216.77 90.39Z" fill="#E8E8EF"/>
<path d="M212.808 91.5847C212.112 91.5847 211.462 91.5227 210.961 91.4276C209.486 91.1588 209.072 88.6692 209.043 87.532C209.005 86.3906 210.58 86.3575 211.959 86.1383C212.083 86.1218 212.228 86.1094 212.394 86.1094C213.285 86.1094 214.747 86.3699 215.994 86.6842C216.251 87.4038 216.359 88.0572 216.268 88.5865C216.384 88.0572 216.479 87.4658 216.554 86.8331C216.914 86.9323 217.237 87.0357 217.511 87.1308C217.523 87.5154 217.527 87.8876 217.527 88.2516C217.287 88.967 217.034 89.6783 216.769 90.3896C216.694 90.4682 216.616 90.5426 216.533 90.6171C215.692 91.3408 214.171 91.5847 212.808 91.5847Z" fill="#EBCEC4"/>
<path d="M217.498 89.4591C217.515 89.0704 217.527 88.6693 217.527 88.2516C217.527 87.8877 217.523 87.5155 217.51 87.1309C217.916 87.2797 218.202 87.4162 218.285 87.5237C218.351 87.6023 218.086 88.5328 217.498 89.4591Z" fill="#F6F8FA"/>
<path d="M216.268 88.5859C216.359 88.0566 216.251 87.4032 215.994 86.6836C216.185 86.7332 216.375 86.7828 216.553 86.8325C216.479 87.4652 216.384 88.0566 216.268 88.5859Z" fill="#F6F8FA"/>
<path d="M196.494 85.6381C196.722 85.0344 197.381 84.9889 200.554 85.146C203.301 85.2784 205.24 86.2874 205.501 86.7465C206.043 87.6687 205.086 88.9052 204.005 89.8688C202.924 90.8117 199.063 89.8563 198.035 89.2277C196.817 88.4958 196.026 86.8871 196.494 85.6381ZM209.689 87.2344C210.062 86.8498 212.171 86.3081 214.884 86.8044C218.008 87.3833 217.739 87.3833 217.933 88.0037C218.178 88.7315 217.109 90.6545 215.763 91.0887C214.623 91.465 211.268 91.7794 210.435 90.6131C209.59 89.4304 208.956 88.0036 209.689 87.2344ZM195.127 85.2701C194.808 86.6886 195.305 90.2368 202.041 90.9398C205.285 91.2748 205.264 88.6571 206.673 88.0574V88.0657C206.673 88.0657 206.855 87.983 207.121 87.954L207.141 87.9499H207.485L207.816 88.0285L207.846 88.0367C208.098 88.1277 208.256 88.2518 208.256 88.2518V88.2394C209.486 89.1492 208.695 91.7959 211.951 92.073C217.527 92.5568 218.758 89.3394 218.766 87.8837C218.779 86.4239 215.456 86.0848 212.709 85.907C209.656 85.7167 208.475 86.9202 208.475 86.9202L207.613 86.854L206.76 86.7216C206.76 86.7216 205.89 85.2784 202.862 84.7614C200.169 84.3024 195.458 83.8516 195.127 85.2701Z" fill="#2D2D32"/>
<path d="M310.518 284.736H319.039V170.154H310.518V284.736Z" fill="#C1C1C1"/>
<path d="M138.688 228.78L158.238 216.063L157.646 200.754L134.814 211.349L138.688 228.78Z" fill="#2D2D32"/>
<path d="M165.149 294.389H167.958L158.901 213.321L153.984 201.733L88.017 202.536V219.404H88.1869L78.8613 294.873H81.6785L97.8812 219.404H150.16L165.149 294.389Z" fill="#101011"/>
<path d="M86.8865 126.69C84.4049 116.785 82.6069 118.717 67.9619 119.866C56.3204 120.197 53.8098 123.721 54.0998 131.45L64.138 201.563C64.3907 208.82 71.4419 214.068 79.8063 213.25C88.1708 212.427 99.9241 208.634 99.5512 201.377L86.8865 126.69Z" fill="#515151"/>
<path d="M146.294 302.904H150.781L141.965 227.063L171.251 212.709L120.323 203.569L70.0947 211.551V227.063H70.2853L60.1436 303.421H62.969L80.5761 227.063H133.236L146.294 302.904Z" fill="#606060"/>
<path d="M72.9705 212.609C69.5029 212.601 69.2461 211.385 72.3863 209.95L95.5077 199.317C98.6604 197.862 97.9602 197.494 101.428 197.51L152.928 197.758C156.387 197.783 159.391 199.785 156.669 201.931L146.08 208.076C143.349 210.206 138.274 211.931 134.815 211.927L72.9705 212.609Z" fill="#39393D"/>
<path d="M123.828 70.0215C117.133 71.5061 102.256 78.9334 102.633 103.8C103.002 128.675 94.5713 133.253 94.5713 133.253C94.5713 133.253 113.04 142.901 119.362 113.204C125.688 83.5073 123.828 70.0215 123.828 70.0215Z" fill="#A75A3C"/>
<path d="M254.693 275.854H263.211V170.929H254.693V275.854Z" fill="#A3A3A3"/>
<path d="M154.37 161.118C154.142 160.974 152.335 157.702 152.77 154.034C156.623 135.127 161.429 123.535 163.219 117.162C165.477 109.164 170.237 109.338 172.404 110.359C172.404 110.359 174.127 122.762 174.243 133.245C174.268 135.267 173.017 139.271 172.259 142.988C180.913 142.947 186.535 142.281 186.535 142.281C186.535 142.281 184.646 156.114 187.885 158.554C190.201 160.299 158.657 163.786 154.37 161.118Z" fill="#AD084E"/>
<path d="M190.657 151.16C191.116 154.141 189.211 158.513 187.595 153.285C186.261 148.922 186.725 144.154 189.182 143.149C191.042 142.388 190.657 151.16 190.657 151.16Z" fill="#E5E8EC"/>
<path d="M188.775 144.557C191.833 143.436 194.936 141.257 197.397 141.232C201.142 140.827 200.5 140.682 201.432 140.678C203.404 140.657 207.269 139.983 206.822 141.191C206.639 141.691 204.009 142.266 202.066 142.605L200.234 142.994C201.879 143.961 206.929 147.096 206.888 147.878C206.793 149.437 203.835 146.84 200.819 146.314L200.566 146.534C202.762 147.084 205.301 149.292 204.982 149.697C204.671 150.103 200.81 148.473 198.528 148.192L198.221 148.424C200.077 149.031 203.35 150.218 203.043 150.607C202.666 151.107 199.435 150.235 196.982 150.103C195.139 151.203 192.293 151.232 190.834 150.93C188.336 150.409 187.872 149.044 187.872 149.044L188.775 144.557Z" fill="#E9CAA7"/>
<path d="M189.778 143.253C190.167 142.831 184.703 143.827 184.703 143.827C184.703 143.827 181.832 152.586 185.374 156.027C186.074 156.709 189.873 155.485 189.873 155.485C189.873 155.485 186.621 146.623 189.778 143.253Z" fill="#FEFEFE"/>
<path d="M175.378 127.059C176.128 127.906 171.537 143.638 171.537 143.638L186.041 142.773C186.041 142.773 184.243 145.904 184.181 146.979C180.436 146.76 170.808 147.054 169.18 147.227C167.56 147.405 159.453 152.761 160.111 150.651L164.391 146.603C164.391 146.603 160.207 149.043 160.269 147.972C160.331 146.913 167.817 143.514 167.817 143.514C167.817 143.514 174.984 126.612 175.378 127.059Z" fill="#DC1368"/>
<path d="M248.898 234.527C248.939 237.137 250.87 244.676 250.87 244.676C250.87 244.676 272.897 252.231 277.844 250.346C282.782 248.443 267.951 245.904 260.344 229.925C256.338 221.488 248.873 231.918 248.898 234.527Z" fill="#D19987"/>
<path d="M248.939 238.035C248.712 234.201 245.401 225.889 245.401 225.889L258.791 222.746C258.791 222.746 255.634 222.27 260.647 230.202C262.188 232.621 262.619 233.44 263.953 235.318C264.554 236.186 257.805 240.47 268.423 248.456C270.42 250.3 275.068 247.546 277.89 247.757C277.89 247.757 284.15 247.765 282.981 252.409C282.385 254.816 269.55 258.365 265.461 253.609C262.201 249.804 258.878 248.7 256.053 248.444C255.68 250.966 257.283 258.939 257.283 258.939C257.283 258.939 255.609 259.477 254.938 259.349C254.773 257.198 252.374 249.353 250.655 248.2C248.529 247.054 249.109 241.434 248.939 238.035Z" fill="#2D2D32"/>
<path d="M227.823 164.678C232.421 162.726 242.277 160.261 246.9 165.911C249.597 169.198 250.443 171.907 251.847 181.075C252.763 187.006 268.104 239.096 268.104 239.096L245.84 246.155C245.84 246.155 230.341 191.182 226.025 190.533C221.704 189.892 217.548 170.927 217.453 169.881C217.349 168.818 227.823 164.678 227.823 164.678Z" fill="#2D2D32"/>
<path d="M233.365 260.932C232.963 267.041 239.965 276.693 248.209 282.805C248.209 282.805 241.079 289.273 229.355 275.278C225.833 271.06 221.844 255.565 221.844 255.565C221.844 255.565 234.637 241.194 233.365 260.932Z" fill="#D19987"/>
<path d="M220.518 276.115C218.612 274.597 220.294 269.175 220.775 265.776C221.309 261.963 219.677 253.167 219.677 253.167L236.447 253.084C236.447 253.084 231.72 257.414 236.174 265.739C236.617 266.57 230.051 273.443 231.952 275.986C233.398 277.934 244.517 280.171 247.277 280.912C247.277 280.912 253.408 282.136 251.366 286.478C250.317 288.711 237.044 289.712 233.97 284.266C231.496 279.898 228.447 278.166 225.725 277.355C224.872 279.758 224.893 287.888 224.893 287.888C224.893 287.888 223.149 288.095 222.519 287.847C222.759 285.729 221.964 277.665 220.518 276.115Z" fill="#2D2D32"/>
<path d="M205.562 187.804C211.218 190.625 224.732 191.874 224.176 194.74C219.934 216.79 216.4 246.59 217.461 258.591L237.956 261.759C237.956 261.759 247.903 202.283 248.913 192.974C250.152 181.68 241.146 173.748 231.609 173.93C225.125 174.046 205.562 187.804 205.562 187.804Z" fill="#3A383F"/>
<path d="M180.258 216.753C176.965 219.114 155.206 262.719 154.452 266.015C151.971 276.945 156.863 288.194 162.639 295.443C156.818 296.63 151.329 293.801 145.164 283.061C142.649 278.694 138.767 275.026 138.883 271.892C139.136 264.791 140.768 269.609 144.306 260.143C147.861 250.66 150.827 220.475 163.007 208.23C170.456 200.741 183.548 214.371 180.258 216.753Z" fill="#D19987"/>
<path d="M141.394 265.688C138.995 266.561 136.286 270.349 136.157 274.501C136.054 278.645 138.477 281.693 135.271 290.816C137.135 291.961 137.329 291.535 137.329 291.535C137.329 291.535 140.594 280.068 142.239 281.461C143.879 282.842 144.907 288.872 147.049 293.756C149.191 298.648 161.967 301.63 163.09 300.761C164.233 299.893 166.214 296.543 163.57 294.414C160.907 292.288 160.55 291.101 160.55 291.101C160.55 291.101 154.597 292.519 151.353 287.11C147.314 280.357 141.394 265.688 141.394 265.688Z" fill="#3A383F"/>
<path d="M166.242 189.248C167.958 197.002 174.056 210.74 172.071 214.276C170.075 217.804 167.274 273.335 167.991 276.622C170.311 287.59 179.479 295.761 187.785 299.922C183.005 303.429 176.823 303.164 166.719 295.997C162.613 293.082 157.538 291.374 156.316 288.491C153.574 281.937 157.074 285.617 156.312 275.535C155.546 265.457 145.553 236.81 151.469 220.595C155.082 210.682 151.954 197.275 152.832 193.826C153.685 190.381 166.242 189.248 166.242 189.248Z" fill="#D19987"/>
<path d="M155.997 281.809C154.183 283.599 153.313 288.165 154.941 291.982C156.582 295.803 160.062 297.548 161.002 307.176C163.16 307.444 163.165 306.969 163.165 306.969C163.165 306.969 161.309 295.183 163.397 295.77C165.46 296.337 168.907 301.365 172.917 304.922C176.923 308.47 189.77 305.832 190.429 304.566C191.088 303.28 191.489 299.43 188.183 298.594C184.886 297.767 184.065 296.862 184.065 296.862C184.065 296.862 179.251 300.625 174.027 297.077C167.54 292.639 155.997 281.809 155.997 281.809Z" fill="#2D2D32"/>
<path d="M181.369 238.836L199.051 232.401C199.051 232.401 196.686 226.033 191.689 207.39C185.777 185.335 184.228 182.283 178.714 179.616C173.229 176.969 128.403 175.927 128.403 169.819L103.31 168.504C94.5143 183.619 83.8919 208.233 106.052 211.029C113.779 212.005 122.702 210.558 130.926 209.114C141.565 207.241 151.027 205.368 155.195 208.742C155.899 216.422 154.984 249.617 154.984 249.617L181.369 238.836Z" fill="#CF243A"/>
<path d="M122.461 120.875C125.246 123.1 132.997 131.272 132.997 131.272C135.391 135.655 138.78 145.494 139.447 148.839C140.359 153.558 137.218 158.061 135.23 160.716C133.569 162.945 135.611 170.133 135.251 173.164C134.89 176.212 134.766 190.591 134.766 190.591C134.766 190.591 100.392 190.955 96.7716 189.288C94.5345 188.259 100.289 159.955 100.927 147.735C101.569 135.531 102.203 125.354 114.805 113.332C115.928 115.991 118.31 117.55 122.461 120.875Z" fill="#F6C1D8"/>
<path d="M98.783 162.698C95.2533 177.172 86.8889 188.921 88.7449 189.798C88.7449 189.798 124.858 190.745 125.21 188.925C132.05 153.765 117.107 132.769 117.782 126.934C118.292 122.637 118.201 124.482 121.101 119.635C117.405 116.691 115.644 115.433 112.227 110.979C99.5453 128.621 101.753 150.54 98.783 162.698Z" fill="#F092BC"/>
<path d="M221.368 311.976L225.858 313.035C226.67 311.422 230.026 309.222 235.399 306.625V179.124C229.765 180.873 224.193 182.718 218.729 184.69C220.506 239.655 221.326 299.214 221.368 311.976Z" fill="#C1C1C1"/>
<path d="M101.266 313.035H225.858V186.94H101.266V313.035Z" fill="#E8E8E8"/>
<path d="M208.988 300.154H116.01V189.745L208.988 189.488V300.154ZM119.237 192.64V296.932H205.761V192.64H119.237Z" fill="white"/>
<path d="M74.5 189.86L250.928 189.372C250.928 189.372 272.682 180.026 321.121 173.64C340.828 171.043 348.256 171.788 348.256 171.788L348.621 162.88L280.276 163.806C280.276 163.806 270.59 160.738 125.08 173.64C86.8913 177.031 74.7486 181.746 74.7486 181.746L74.5 189.86Z" fill="#D9D9D9"/>
<path d="M263.906 162.508C263.906 162.508 209.866 164.241 124.349 172.636C82.3488 176.755 74.701 181.552 74.701 181.552L74.6348 182.246L249.994 179.707C249.994 179.707 302.89 163.248 348.743 162.88L263.906 162.508Z" fill="white"/>
<path d="M271.496 162.263C271.392 162.52 271.454 162.797 271.649 162.884L278.037 168.404C278.257 168.504 278.535 168.371 278.671 168.09L296.104 128.94C296.394 128.17 295.794 127.686 295.533 127.67L287.114 127.844C286.878 127.831 286.613 128.038 286.497 128.278L271.496 162.263Z" fill="#2D2D32"/>
<path d="M271.29 164.071C271.186 164.332 271.232 164.584 271.389 164.65L277.583 167.359C277.761 167.442 278.006 167.293 278.126 167.008L294.908 128.858C295.033 128.589 295.078 128.018 294.569 128.022L287.455 128.155C287.261 128.163 287.025 128.362 286.909 128.626L271.29 164.071Z" fill="#3A383F"/>
<path d="M229.757 167.131C229.562 167.321 229.662 167.462 230.001 167.462L277.47 167.511C277.88 167.511 278.017 167.338 277.769 167.127L272.014 162.292C271.865 162.172 271.505 162.094 271.206 162.094L235.263 162.503C235.002 162.503 234.699 162.602 234.563 162.714L229.757 167.131Z" fill="#3A383F"/>
<path d="M278.941 159.105L275.938 157.273L286.44 134.031L290.052 134.457L278.941 159.105Z" fill="#6B6D7A"/>
<path d="M229.604 168.504C229.62 168.81 229.881 169.058 230.221 169.058L277.752 168.727C278.083 168.723 278.348 168.475 278.348 168.173L278.34 167.681C278.348 167.379 278.075 167.131 277.731 167.139L230.2 167.461C229.877 167.47 229.595 167.718 229.608 168.016L229.604 168.504Z" fill="#2D2D32"/>
<path d="M245.28 166.098L247.327 162.976L268.58 162.724L271.824 166.078L245.28 166.098Z" fill="#6B6D7A"/>
<path d="M212.68 170.986C212.58 171.35 212.299 171.602 212.021 171.536L192.637 176.346C192.322 176.284 192.135 175.903 192.235 175.51L203.002 132.41C203.284 131.19 204.001 130.909 204.734 130.748L222.345 129.904C223.062 129.846 223.426 130.645 223.344 131.017L212.68 170.986Z" fill="#2D2D32"/>
<path d="M152.961 173.538C152.75 173.711 152.538 174.034 152.882 174.022L193.221 174.985C193.648 174.977 195.206 174.518 194.965 174.315L208.413 168.637C208.281 168.517 210.451 165.9 210.141 165.912L188.913 165.263C188.648 165.267 187.72 165.321 187.583 165.42L152.961 173.538Z" fill="#2D2D32"/>
<path d="M152.679 174.915C152.675 175.312 152.956 175.647 153.317 175.647L192.566 176.371C192.918 176.371 193.213 176.044 193.213 175.647L193.221 174.985C193.225 174.58 192.939 174.262 192.591 174.262L153.333 173.53C152.981 173.517 152.683 173.852 152.683 174.249L152.679 174.915Z" fill="#3A383F"/>
<path d="M156.664 164.799C158.267 165.369 168.807 164.352 170.124 164.269C170.746 164.232 173.347 165.403 173.741 165.647C174.342 166.01 177.598 167.594 176.608 168.186C176.04 168.529 174.184 167.4 172.883 167.069C171.326 166.68 169.06 166.672 169.06 166.672C169.06 166.672 172.051 166.953 172.825 167.247C173.791 167.619 177.594 169.501 176.583 170.183C175.584 170.861 172.672 168.951 172.672 168.951L168.094 168.802C168.094 168.802 171.355 169.062 171.831 169.277C172.626 169.637 175.51 170.394 174.938 171.138C174.665 171.49 172.279 170.936 170.92 170.808C169.573 170.675 167.655 171.031 167.655 171.031C167.655 171.031 172.411 170.779 173.045 171.411C173.679 172.032 169.78 172.598 167.895 172.615C166.027 172.644 159.083 173.148 154.622 171.85C153.126 171.411 156.664 164.799 156.664 164.799Z" fill="#E9CAA7"/>
<path d="M159.643 164.427C158.209 166.946 155.62 170.548 156.664 175.006L149.663 174.447C149.663 174.447 146.866 167.041 152.393 163.129C152.998 162.686 159.643 164.427 159.643 164.427Z" fill="#F6C1D8"/>
<path d="M110.985 127.183C106.548 125.864 104.932 138.601 107.025 147.228C111.114 164.1 116.856 167.012 120.041 170.804C125.759 177.594 151.088 175.378 151.088 175.378L155.123 163.315C155.123 163.315 133.601 158.489 132.806 157.132C130.428 153.092 124.976 139.002 123.136 133.37C119.913 123.473 110.985 127.183 110.985 127.183Z" fill="#F092BC"/>
<path d="M105.533 135.848C107.948 141.972 112.203 160.814 124.226 172.447C127.731 175.834 114.026 168.853 110.55 159.424C106.461 148.287 105.533 135.848 105.533 135.848Z" fill="#F6C1D8"/>
<path d="M191.547 100.053C192.235 102.054 201.635 115.222 201.635 115.222C201.635 115.222 195.57 116.537 193.383 120.205C187.831 109.031 189.074 104.482 188.991 103.465C188.904 102.451 191.547 100.053 191.547 100.053Z" fill="#FEFEFE"/>
<path d="M198.999 114.834C200.975 117.741 202.831 119.428 204.555 123.129C204.555 123.129 198.241 123.435 193.054 113.63C192.395 112.373 198.999 114.834 198.999 114.834Z" fill="#FEFEFE"/>
<path d="M203.147 121.452C209.369 116.692 211.474 111.721 211.474 111.721L214.084 114.719C214.084 114.719 207.149 122.874 204.36 123.052C201.581 123.226 203.147 121.452 203.147 121.452Z" fill="#FEFEFE"/>
<path d="M208.89 113.556C209.702 113.134 213.625 116.231 216.049 119.242C216.608 114.838 215.547 109.788 215.547 109.788L210.742 103.022C210.742 103.022 211.554 104.18 211.272 107.083C210.994 109.982 208.89 113.556 208.89 113.556Z" fill="#FEFEFE"/>
<path d="M118.396 116.468C118.993 117.812 130.957 124.383 131.703 125.127C132.453 125.872 131.554 130.351 131.554 133.932C131.554 136.177 114.655 119.751 114.506 117.961C114.357 116.17 118.396 116.468 118.396 116.468Z" fill="#FEFEFE"/>
<path d="M116.486 88.2374C115.393 77.0964 122.365 72.3695 131.231 71.5135C140.113 70.6326 145.809 76.7366 146.903 87.8693C147.114 89.9991 145.557 91.1074 145.441 93.0635C145.768 94.0767 146.911 96.8185 147.603 98.1625C147.719 99.0765 146.153 100.346 144.898 100.656C143.402 106.268 142.097 111.148 135.912 109.903C127.175 108.137 117.58 99.3784 116.486 88.2374Z" fill="#E9CAA7"/>
<path d="M142.41 87.3127L145.699 81.4693C150.339 76.271 135.354 65.618 123.017 69.9933C111.545 74.0626 110.63 80.5305 111.04 87.6394C111.458 94.7359 115.701 104.603 115.701 104.603C115.701 104.603 119.653 105.778 124.628 104.483C128.514 103.466 133.855 100.058 132.931 99.1567C131.638 97.9119 131.046 92.1843 133.428 91.6012C134.584 91.3241 136.771 93.4663 136.771 93.4663L142.41 87.3127Z" fill="#A75A3C"/>
<path d="M146.623 78.3145C147.928 80.1671 148.296 82.9503 143.089 86.664C138.461 89.9641 137.326 95.0176 138.262 97.0606C136.953 95.1996 136.212 93.533 140.487 87.032C144.767 80.5393 146.623 78.3145 146.623 78.3145Z" fill="#C07A49"/>
<path d="M132.499 100.091C130.026 103.801 128.787 110.727 117.133 117.659C105.479 124.59 101.506 133.638 101.009 136.359C100.516 139.076 103.499 102.068 108.454 93.6521C113.413 85.2405 132.499 100.091 132.499 100.091Z" fill="#A75A3C"/>
<path d="M144.713 76.9492C143.785 80.8448 145.459 80.8449 138.95 84.7446C132.442 88.6402 128.539 98.6605 127.238 104.975C125.933 111.286 109.942 118.527 105.298 123.349C100.649 128.175 100.649 129.288 100.649 129.288C100.649 129.288 102.65 123.478 114.221 114.81C126.861 105.343 121.654 100.149 127.607 91.0512C133.556 81.9614 139.137 81.7753 140.997 79.9185C142.853 78.0617 144.713 76.9492 144.713 76.9492Z" fill="#C07A49"/>
<defs>
<linearGradient id="paint0_linear" x1="189.646" y1="113.114" x2="208.687" y2="90.0454" gradientUnits="userSpaceOnUse">
<stop stop-color="#67C0ED"/>
<stop offset="0.25098" stop-color="#67C0ED"/>
<stop offset="0.639216" stop-color="#3193BC"/>
<stop offset="1" stop-color="#3193BC"/>
</linearGradient>
<linearGradient id="paint1_linear" x1="189.645" y1="113.114" x2="208.687" y2="90.0458" gradientUnits="userSpaceOnUse">
<stop stop-color="#2D2D32"/>
<stop offset="0.25098" stop-color="#2D2D32"/>
<stop offset="0.639216" stop-color="#2C2A2C"/>
<stop offset="1" stop-color="#2C2A2C"/>
</linearGradient>
<linearGradient id="paint2_linear" x1="189.646" y1="113.114" x2="208.688" y2="90.0455" gradientUnits="userSpaceOnUse">
<stop stop-color="#DCDBE4"/>
<stop offset="0.25098" stop-color="#DCDBE4"/>
<stop offset="0.639216" stop-color="#AEA7A6"/>
<stop offset="1" stop-color="#AEA7A6"/>
</linearGradient>
</defs>
</svg>
