<svg width="27" height="30" viewBox="0 0 27 30" fill="none" xmlns="http://www.w3.org/2000/svg">
<g clip-path="url(#clip0)">
<path d="M15.2543 25.4427V20.6852H6.73633V9.26926H15.2543V4.51172L26.7249 14.9773L15.2543 25.4427Z" fill="#DC1368"/>
<path d="M0.847395 20.6855C0.379656 20.6855 0 20.2593 0 19.7342V10.221C0 9.69571 0.379656 9.26953 0.847395 9.26953C1.31534 9.26953 1.69499 9.69571 1.69499 10.221V19.7342C1.69499 20.2593 1.31534 20.6855 0.847395 20.6855Z" fill="#A6084B"/>
<path d="M4.23753 20.6855C3.76979 20.6855 3.39014 20.2593 3.39014 19.7342V10.221C3.39014 9.69571 3.76979 9.26953 4.23753 9.26953C4.70527 9.26953 5.08493 9.69571 5.08493 10.221V19.7342C5.08493 20.2593 4.70527 20.6855 4.23753 20.6855Z" fill="#A6084B"/>
<path d="M15.2543 25.4429V20.6854H6.73633V14.9775H26.7249L15.2543 25.4429Z" fill="#A6084B"/>
</g>
<defs>
<clipPath id="clip0">
<rect width="26.7251" height="30" fill="white"/>
</clipPath>
</defs>
</svg>
