<svg width="30" height="30" viewBox="0 0 30 30" fill="none" xmlns="http://www.w3.org/2000/svg">
<g clip-path="url(#clip0)">
<path d="M17.1238 25.4427V20.6852H7.56201V9.26926H17.1238V4.51172L30 14.9773L17.1238 25.4427Z" fill="#15F7F7"/>
<path d="M0.951233 20.6855C0.426178 20.6855 0 20.2593 0 19.7342V10.221C0 9.69571 0.426178 9.26953 0.951233 9.26953C1.47652 9.26953 1.90269 9.69571 1.90269 10.221V19.7342C1.90269 20.2593 1.47652 20.6855 0.951233 20.6855Z" fill="#0D7E97"/>
<path d="M4.75665 20.6855C4.2316 20.6855 3.80542 20.2593 3.80542 19.7342V10.221C3.80542 9.69571 4.2316 9.26953 4.75665 9.26953C5.28171 9.26953 5.70789 9.69571 5.70789 10.221V19.7342C5.70789 20.2593 5.28171 20.6855 4.75665 20.6855Z" fill="#0D7E97"/>
<path d="M17.1238 25.4429V20.6854H7.56201V14.9775H30L17.1238 25.4429Z" fill="#0D7E97"/>
</g>
<defs>
<clipPath id="clip0">
<rect width="30" height="30" fill="white"/>
</clipPath>
</defs>
</svg>
