<svg width="309" height="2" viewBox="0 0 309 2" fill="none" xmlns="http://www.w3.org/2000/svg">
<line y1="1" x2="14.7143" y2="1" stroke="#01B5AC" stroke-width="2"/>
<line x1="24.5239" y1="1" x2="39.2382" y2="1" stroke="#01B5AC" stroke-width="2"/>
<line x1="49.0476" y1="1" x2="63.7619" y2="1" stroke="#01B5AC" stroke-width="2"/>
<line x1="73.5715" y1="1" x2="88.2858" y2="1" stroke="#01B5AC" stroke-width="2"/>
<line x1="98.0952" y1="1" x2="112.81" y2="1" stroke="#01B5AC" stroke-width="2"/>
<line x1="122.619" y1="1" x2="137.333" y2="1" stroke="#01B5AC" stroke-width="2"/>
<line x1="245.238" y1="1" x2="259.952" y2="1" stroke="#01B5AC" stroke-width="2"/>
<line x1="147.143" y1="1" x2="161.857" y2="1" stroke="#01B5AC" stroke-width="2"/>
<line x1="171.667" y1="1" x2="186.381" y2="1" stroke="#01B5AC" stroke-width="2"/>
<line x1="196.19" y1="1" x2="210.905" y2="1" stroke="#01B5AC" stroke-width="2"/>
<line x1="220.714" y1="1" x2="235.429" y2="1" stroke="#01B5AC" stroke-width="2"/>
<line x1="269.762" y1="1" x2="284.476" y2="1" stroke="#01B5AC" stroke-width="2"/>
<line x1="294.286" y1="1" x2="309" y2="1" stroke="#01B5AC" stroke-width="2"/>
</svg>
