<svg width="332" height="6" viewBox="0 0 332 6" fill="none" xmlns="http://www.w3.org/2000/svg">
<line y1="3" x2="13" y2="3" stroke="#FF40EC" stroke-width="2"/>
<circle cx="21" cy="3" r="3" fill="#FF40EC"/>
<line x1="29" y1="3" x2="42" y2="3" stroke="#FF40EC" stroke-width="2"/>
<circle cx="50" cy="3" r="3" fill="#FF40EC"/>
<line x1="58" y1="3" x2="71" y2="3" stroke="#FF40EC" stroke-width="2"/>
<circle cx="79" cy="3" r="3" fill="#FF40EC"/>
<line x1="87" y1="3" x2="100" y2="3" stroke="#FF40EC" stroke-width="2"/>
<circle cx="108" cy="3" r="3" fill="#FF40EC"/>
<line x1="116" y1="3" x2="129" y2="3" stroke="#FF40EC" stroke-width="2"/>
<circle cx="137" cy="3" r="3" fill="#FF40EC"/>
<line x1="145" y1="3" x2="158" y2="3" stroke="#FF40EC" stroke-width="2"/>
<circle cx="166" cy="3" r="3" fill="#FF40EC"/>
<line x1="174" y1="3" x2="187" y2="3" stroke="#FF40EC" stroke-width="2"/>
<circle cx="195" cy="3" r="3" fill="#FF40EC"/>
<line x1="203" y1="3" x2="216" y2="3" stroke="#FF40EC" stroke-width="2"/>
<circle cx="224" cy="3" r="3" fill="#FF40EC"/>
<line x1="232" y1="3" x2="245" y2="3" stroke="#FF40EC" stroke-width="2"/>
<circle cx="253" cy="3" r="3" fill="#FF40EC"/>
<line x1="261" y1="3" x2="274" y2="3" stroke="#FF40EC" stroke-width="2"/>
<circle cx="282" cy="3" r="3" fill="#FF40EC"/>
<line x1="290" y1="3" x2="303" y2="3" stroke="#FF40EC" stroke-width="2"/>
<circle cx="311" cy="3" r="3" fill="#FF40EC"/>
<line x1="319" y1="3" x2="332" y2="3" stroke="#FF40EC" stroke-width="2"/>
</svg>
