<svg width="25" height="51" viewBox="0 0 25 51" fill="none" xmlns="http://www.w3.org/2000/svg">
<path d="M11.1405 50H10.1405V51H11.1405V50ZM11.1405 14.3H12.1405V12.7371L10.7214 13.392L11.1405 14.3ZM1.13048 18.92H0.130484V20.4829L1.54954 19.828L1.13048 18.92ZM1.13048 6.81L0.678923 5.91776L0.130484 6.19532V6.81H1.13048ZM12.6105 0.999997V-3.33786e-06H12.3718L12.1589 0.107756L12.6105 0.999997ZM23.5305 0.999997H24.5305V-3.33786e-06H23.5305V0.999997ZM23.5305 50V51H24.5305V50H23.5305ZM12.1405 50V14.3H10.1405V50H12.1405ZM10.7214 13.392L0.711426 18.012L1.54954 19.828L11.5595 15.208L10.7214 13.392ZM2.13048 18.92V6.81H0.130484V18.92H2.13048ZM1.58204 7.70224L13.062 1.89224L12.1589 0.107756L0.678923 5.91776L1.58204 7.70224ZM12.6105 2H23.5305V-3.33786e-06H12.6105V2ZM22.5305 0.999997V50H24.5305V0.999997H22.5305ZM23.5305 49H11.1405V51H23.5305V49Z" fill="#15F7F7"/>
</svg>
