<svg width="531" height="407" viewBox="0 0 531 407" fill="none" xmlns="http://www.w3.org/2000/svg">
<path d="M0 407H531V0H0V407Z" fill="url(#paint0_linear)"/>
<path d="M306.705 269.147H278.988V195.041L292.846 166.267L306.705 195.041V269.147Z" stroke="white" stroke-width="2" stroke-miterlimit="10"/>
<path d="M278.988 195.041H306.705" stroke="white" stroke-width="2" stroke-miterlimit="10"/>
<path fill-rule="evenodd" clip-rule="evenodd" d="M350.069 137.462L355.943 136.355L356.128 137.298L350.255 138.405L350.069 137.462ZM354.537 146.436L359.057 141.379L359.795 142.011L355.275 147.069L354.537 146.436Z" fill="white"/>
<path d="M288.022 176.511H297.67L292.846 166.267L288.022 176.511Z" fill="white"/>
<path fill-rule="evenodd" clip-rule="evenodd" d="M343.63 56.7777C344.395 55.3869 345.879 54 348.651 54C351.771 54 354.301 56.4761 354.301 59.5325L354.301 88.5155C354.301 88.5217 354.301 88.528 354.301 88.5342C354.301 88.5429 354.301 88.5515 354.301 88.5602C354.276 92.1685 351.292 95.7056 347.513 95.7056H302.182V65.4603H342.822V59.5231L342.822 59.5138L343.274 59.5325C342.822 59.5138 342.822 59.5133 342.822 59.5133L342.822 59.5127L342.822 59.5112L342.823 59.5066L342.823 59.4921C342.824 59.4801 342.825 59.4633 342.827 59.4421C342.83 59.3996 342.836 59.3394 342.844 59.264C342.862 59.1133 342.892 58.9009 342.946 58.6472C343.053 58.1417 343.254 57.462 343.63 56.7777ZM343.726 59.5436V86.0313C343.93 85.7079 344.168 85.4039 344.44 85.1261C345.412 84.1324 346.802 83.4973 348.578 83.4973C350.296 83.4973 351.653 84.0907 352.619 85.0297C352.917 85.3194 353.176 85.6399 353.396 85.9828V59.5325C353.396 56.966 351.271 54.8861 348.651 54.8861C346.266 54.8861 345.061 56.0439 344.427 57.1979C344.103 57.7858 343.927 58.3785 343.832 58.8273C343.784 59.0508 343.758 59.236 343.743 59.3636C343.736 59.4273 343.731 59.4765 343.729 59.5086C343.728 59.5246 343.727 59.5364 343.726 59.5436ZM353.396 88.5854C353.247 87.4713 352.77 86.4248 351.982 85.6588C351.193 84.8919 350.069 84.3835 348.578 84.3835C347.039 84.3835 345.888 84.9267 345.092 85.7393C344.29 86.559 343.828 87.6763 343.725 88.8469L342.822 88.8088V66.3464H303.087V94.8195H347.513C350.692 94.8195 353.357 91.7912 353.396 88.5854ZM335.171 73.1102H308.962V72.2241H335.171V73.1102ZM189.373 74.4034H242.814V88.252H249.102V95.0393H242.814V108.482H189.373V74.4034ZM241.91 95.0393H217.807L211.398 91.6444L217.807 88.252H241.91V75.2895H190.277V107.596H241.91V95.0393ZM196.865 77.4793V85.0039H195.96V77.4793H196.865ZM327.037 79.309H308.962V78.4229H327.037V79.309ZM453.264 81.2405C448.903 81.2405 445.368 84.7055 445.368 88.9787C445.368 89.2715 445.384 89.5604 445.416 89.8447C445.932 89.7526 446.464 89.7045 447.006 89.7045C449.296 89.7045 451.381 90.5604 452.947 91.9636C454.513 90.5604 456.598 89.7045 458.888 89.7045C459.651 89.7045 460.392 89.7995 461.097 89.9782C461.141 89.651 461.163 89.3174 461.163 88.9787C461.163 84.7057 457.626 81.2405 453.264 81.2405ZM461.973 90.2485C462.035 89.8341 462.067 89.4101 462.067 88.9787C462.067 84.2163 458.125 80.3544 453.264 80.3544C448.403 80.3544 444.463 84.2164 444.463 88.9787C444.463 89.3416 444.486 89.6992 444.53 90.0502C440.874 91.0978 438.203 94.4063 438.203 98.3267C438.203 103.089 442.145 106.951 447.006 106.951C449.296 106.951 451.381 106.095 452.947 104.691C454.513 106.095 456.598 106.951 458.888 106.951C463.75 106.951 467.691 103.089 467.691 98.3267C467.691 94.6272 465.313 91.4725 461.973 90.2485ZM460.93 90.8515C460.279 90.6813 459.594 90.5906 458.888 90.5906C456.846 90.5906 454.985 91.3494 453.583 92.5948C454.546 93.6543 455.246 94.948 455.584 96.378C458.215 95.5873 460.262 93.4866 460.93 90.8515ZM455.742 97.2567C458.705 96.4069 461.02 94.0722 461.791 91.1298C464.717 92.2629 466.787 95.0578 466.787 98.3267C466.787 102.6 463.25 106.065 458.888 106.065C456.846 106.065 454.985 105.306 453.583 104.06C454.968 102.536 455.81 100.527 455.81 98.3267C455.81 97.9644 455.787 97.6073 455.742 97.2567ZM454.705 96.5886C454.408 95.3213 453.793 94.173 452.947 93.2281C452.131 94.1399 451.53 95.2412 451.222 96.4559C451.873 96.6262 452.558 96.717 453.264 96.717C453.756 96.717 454.238 96.6729 454.705 96.5886ZM451.055 97.3292C451.761 97.508 452.501 97.6031 453.264 97.6031C453.808 97.6031 454.34 97.5548 454.856 97.4624C454.888 97.7462 454.905 98.0345 454.905 98.3267C454.905 100.28 454.166 102.064 452.947 103.426C451.728 102.064 450.99 100.28 450.99 98.3267C450.99 97.9887 451.012 97.6558 451.055 97.3292ZM450.361 96.1774C450.714 94.827 451.393 93.6046 452.311 92.5949C450.909 91.3494 449.048 90.5906 447.006 90.5906C446.515 90.5906 446.034 90.6345 445.568 90.7186C446.153 93.2161 447.971 95.2515 450.361 96.1774ZM444.689 90.9289C445.356 93.7598 447.445 96.0565 450.18 97.0588C450.117 97.4726 450.085 97.896 450.085 98.3267C450.085 100.527 450.926 102.536 452.311 104.06C450.909 105.306 449.048 106.065 447.006 106.065C442.645 106.065 439.108 102.6 439.108 98.3267C439.108 94.8437 441.458 91.8988 444.689 90.9289ZM104.226 83.8432C100.754 83.8432 97.9393 86.6007 97.9393 90.0026V101.637C97.9393 105.039 100.754 107.799 104.226 107.799H122.989V98.8448H120.544C118.708 98.8448 117.221 97.3877 117.221 95.5893C117.221 93.7909 118.708 92.3337 120.544 92.3337H122.989V83.9855H123.893V92.3337H128.058C129.844 92.3337 131.3 93.7132 131.378 95.4444H136.963V90.0026C136.963 86.6009 134.146 83.8432 130.674 83.8432H104.226ZM136.963 96.3305H131.294C130.952 97.7716 129.633 98.8448 128.058 98.8448H123.893V107.799H130.674C134.146 107.799 136.963 105.039 136.963 101.637V96.3305ZM97.0348 90.0026C97.0348 86.1114 100.254 82.9571 104.226 82.9571H130.674C134.646 82.9571 137.868 86.1112 137.868 90.0026V101.637C137.868 105.528 134.646 108.685 130.674 108.685H104.226C100.254 108.685 97.0348 105.528 97.0348 101.637V96.5976H76.0783C71.8599 96.5976 68.4421 99.9479 68.4421 104.079V142.79C68.4421 146.921 71.8599 150.271 76.0783 150.271H181.749V151.157H76.0783C71.3602 151.157 67.5376 147.41 67.5376 142.79V104.079C67.5376 99.4587 71.3602 95.7115 76.0783 95.7115H97.0348V90.0026ZM196.413 87.6356C194.266 87.6356 192.527 89.3392 192.527 91.4426C192.527 93.5461 194.266 95.2496 196.413 95.2496C198.557 95.2496 200.296 93.5462 200.296 91.4426C200.296 89.339 198.557 87.6356 196.413 87.6356ZM191.622 91.4426C191.622 88.8498 193.766 86.7495 196.413 86.7495C199.057 86.7495 201.201 88.8499 201.201 91.4426C201.201 94.0353 199.057 96.1357 196.413 96.1357C193.766 96.1357 191.622 94.0354 191.622 91.4426ZM217.469 89.438V93.853L213.3 91.6447L217.469 89.438ZM218.373 94.1532H248.198V89.1381H218.373V94.1532ZM120.544 94.106C119.708 94.106 119.03 94.7697 119.03 95.5893C119.03 96.4089 119.708 97.0725 120.544 97.0725H128.058C128.894 97.0725 129.572 96.4089 129.572 95.5893C129.572 94.7697 128.894 94.106 128.058 94.106H120.544ZM196.865 97.8432V105.37H195.96V97.8432H196.865ZM415.496 104.879C413.728 104.879 412.296 106.281 412.296 108.012C412.296 109.744 413.729 111.15 415.496 111.15C417.263 111.15 418.697 109.744 418.697 108.012C418.697 106.281 417.264 104.879 415.496 104.879ZM411.467 107.238C411.836 105.387 413.5 103.993 415.496 103.993C417.763 103.993 419.601 105.791 419.601 108.012C419.601 108.613 419.467 109.183 419.226 109.695L450.022 139.865C451.485 139.317 453.204 139.62 454.386 140.774C455.992 142.341 455.997 144.889 454.395 146.461C453.97 146.879 453.474 147.187 452.945 147.383L453.028 192.189H455.067L456.423 195.166H463.435C466.389 195.166 468.783 197.511 468.783 200.406V277.019C468.783 279.911 466.39 282.258 463.435 282.258H317.298C316.107 282.258 315.139 281.309 315.139 280.14C315.139 279.413 314.496 278.843 313.755 278.915L298.412 280.441L298.321 279.559L313.665 278.034L313.666 278.033C314.938 277.91 316.043 278.887 316.043 280.14C316.043 280.82 316.607 281.372 317.298 281.372H463.435C465.89 281.372 467.878 279.422 467.878 277.019V200.406C467.878 198 465.89 196.052 463.435 196.052H456.827L458.182 199.027H424.252L427.367 192.189H443.25V189.509H444.155V192.189H448.132L448.046 145.815C447.672 145.252 447.457 144.618 447.399 143.973L414.693 112.036H373.655L379.282 134.393H373.241C373.009 137.676 370.217 140.271 366.807 140.271C363.395 140.271 360.601 137.676 360.369 134.393H354.328L359.974 111.961H362.288V111.593C362.288 109.187 364.275 107.238 366.731 107.238C366.807 107.238 366.883 107.239 366.958 107.243V107.238H411.467ZM411.393 108.124H369.418C370.373 108.835 371.025 109.916 371.152 111.15H412.927C412.018 110.434 411.427 109.346 411.393 108.124ZM415.95 112.012C417.084 111.889 418.079 111.314 418.743 110.474L449.182 140.295C448.528 140.52 447.66 141.795 447.472 142.793M447.472 142.793L415.95 112.012ZM370.25 111.961C370.263 111.84 370.27 111.717 370.27 111.593C370.27 109.676 368.685 108.124 366.731 108.124C364.775 108.124 363.192 109.676 363.192 111.593C363.192 111.717 363.199 111.84 363.212 111.961H370.25ZM362.288 112.847V123.176H363.192V114.226C364.004 115.271 365.286 115.946 366.731 115.946C368.74 115.946 370.437 114.64 370.987 112.847H372.928L378.127 133.507H373.241C373.009 130.222 370.217 127.627 366.807 127.627C365.468 127.627 364.224 128.027 363.192 128.711V126.379H362.288V129.436C361.195 130.487 360.481 131.916 360.369 133.507H355.483L360.683 112.847H362.288ZM361.276 134.393C361.506 137.186 363.895 139.385 366.807 139.385C369.717 139.385 372.104 137.186 372.334 134.393H361.276ZM372.334 133.507H361.276C361.506 130.712 363.895 128.513 366.807 128.513C369.717 128.513 372.104 130.711 372.334 133.507ZM370.031 112.847C369.518 114.142 368.234 115.06 366.731 115.06C365.227 115.06 363.944 114.142 363.431 112.847H370.031ZM448.953 146.786L449.037 192.189H452.123L452.041 147.607C450.968 147.75 449.848 147.476 448.953 146.786ZM449.23 145.844C450.482 147.066 452.508 147.062 453.755 145.835L453.755 145.835C455.004 144.61 455 142.623 453.748 141.402L453.747 141.402C452.495 140.178 450.469 140.182 449.223 141.409L449.222 141.409C447.974 142.636 447.977 144.621 449.23 145.844ZM448.134 193.075H427.954L425.646 198.141H456.788L454.48 193.075H452.608L448.134 193.085L448.134 193.075ZM304.412 114.298L301.502 143.324L290.022 137.248L289.976 137.319C289.965 137.336 289.953 137.352 289.94 137.367L283.682 144.66C283.56 144.802 283.36 144.855 283.181 144.791C283.003 144.727 282.884 144.561 282.884 144.375V134.37L271.418 128.844L304.412 114.298ZM283.241 133.555L301.634 116.494L273.541 128.88L283.241 133.555ZM301.554 117.788L283.788 134.268V143.159L289.228 136.819L301.554 117.788ZM303.25 116.824L300.734 141.911L290.508 136.497L303.25 116.824ZM215.655 130.64H219.758V134.663H218.167C218.379 139.791 222.249 143.995 227.289 144.839V143.424H231.395V144.769C236.251 143.784 239.934 139.662 240.141 134.663H238.549V130.64H242.655V134.663H241.046C240.868 139.329 237.891 143.294 233.713 144.993H240.602V145.879H231.395V147.447H227.289V145.879H217.706V144.993H224.595C220.416 143.294 217.44 139.329 217.262 134.663H215.655V130.64ZM216.559 131.526V133.777H218.854V131.526H216.559ZM239.454 131.526V133.777H241.751V131.526H239.454ZM382.914 138.369L377.04 137.262L377.211 136.392L383.085 137.499L382.914 138.369ZM397.722 141.076H402.919V143.18H419.933V141.076H425.13V146.168H422.983V162.836H425.13V167.928H419.933V165.824H402.919V167.928H397.722V162.836H399.869V146.168H397.722V141.076ZM400.774 146.168V162.836H402.919V164.938H419.933V162.836H422.078V146.168H419.933V144.066H402.919V146.168H400.774ZM402.014 143.18H399.869V145.282H398.626V141.962H402.014V143.18ZM402.014 144.066V145.282H400.774V144.066H402.014ZM420.838 144.066V145.282H422.078V144.066H420.838ZM422.983 145.282H424.226V141.962H420.838V143.18H422.983V145.282ZM422.078 163.722H420.838V164.938H422.078V163.722ZM420.838 165.824V167.042H424.226V163.722H422.983V165.824H420.838ZM402.014 164.938V163.722H400.774V164.938H402.014ZM399.869 163.722H398.626V167.042H402.014V165.824H399.869V163.722ZM377.913 147.045L373.395 141.987L374.075 141.404L378.594 146.461L377.913 147.045ZM228.194 144.311V146.561H230.491V144.311H228.194ZM366.279 149.887V143.623H367.183V149.887H366.279ZM229.154 154.433L238.562 173.743L234.171 178.045H234.703V187.761H223.604V178.045H224.136L219.745 173.743L229.154 154.433ZM220.837 173.56L224.91 177.55H233.398L237.471 173.56L229.606 157.418V168.495C230.779 168.703 231.667 169.71 231.667 170.917C231.667 172.277 230.543 173.381 229.154 173.381C227.765 173.381 226.641 172.277 226.641 170.917C226.641 169.71 227.529 168.703 228.702 168.495V157.418L220.837 173.56ZM229.154 169.341C228.265 169.341 227.546 170.048 227.546 170.917C227.546 171.788 228.266 172.495 229.154 172.495C230.042 172.495 230.762 171.788 230.762 170.917C230.762 170.048 230.042 169.341 229.154 169.341ZM224.509 178.931V182.461H233.799V178.931H224.509ZM233.799 183.347H224.509V186.875H233.799V183.347Z" fill="white"/>
<path d="M89.126 269.148H111.374C132.08 269.148 147.06 258.572 147.06 233.756C147.06 208.938 132.08 199.012 110.272 199.012H89.126V269.148V269.148ZM108.068 254.256V213.902H109.17C119.523 213.902 127.675 217.355 127.675 233.756C127.675 250.156 119.523 254.256 109.17 254.256H108.068ZM159.835 269.148H207.195V253.61H178.778V241.091H202.128V225.555H178.778V214.548H206.093V199.012H159.835V269.148ZM243.761 270.442C261.604 270.442 271.735 259.868 271.735 247.997C271.735 238.286 266.668 232.245 257.747 228.792L249.047 225.447C242.548 222.965 238.475 221.777 238.475 218.432C238.475 215.304 241.338 213.685 245.963 213.685C251.251 213.685 255.435 215.412 260.281 218.757L269.753 207.104C263.144 200.737 254.114 197.715 245.963 197.715C230.324 197.715 219.309 207.535 219.309 219.512C219.309 229.654 226.029 236.021 233.738 239.043L242.659 242.71C248.717 245.084 252.35 246.164 252.35 249.508C252.35 252.638 249.928 254.472 244.201 254.472C238.915 254.472 232.527 251.667 227.46 247.674L216.667 260.408C224.376 267.205 234.729 270.442 243.761 270.442V270.442ZM283.19 269.148H302.135V199.012H283.19V269.148ZM351.037 270.442C361.168 270.442 370.2 266.557 375.267 261.81V228.36H347.952V243.467H358.524V253.178C357.203 254.041 355.002 254.472 353.019 254.472C340.241 254.472 334.294 247.135 334.294 233.97C334.294 221.239 341.564 213.685 351.256 213.685C356.984 213.685 360.507 215.844 364.031 218.866L373.944 206.995C368.877 202.031 361.168 197.715 350.594 197.715C331.43 197.715 314.911 211.097 314.911 234.618C314.911 258.572 330.99 270.442 351.037 270.442ZM389.145 269.148H407.207V248.86C407.207 240.228 405.665 230.086 404.784 222.102H405.224L412.052 237.746L427.913 269.148H447.298V199.012H429.234V219.297C429.234 227.929 430.776 238.503 431.656 246.055H431.216L424.388 230.302L408.528 199.012H389.145V269.148V269.148Z" fill="#FEFEFE"/>
<path d="M458.54 271.448C458.54 272.521 457.65 273.391 456.555 273.391H74.1417C73.0463 273.391 72.1592 272.521 72.1592 271.448V271.091C72.1592 270.016 73.0463 269.147 74.1417 269.147H456.555C457.65 269.147 458.54 270.016 458.54 271.091V271.448Z" fill="#AD084E"/>
<path d="M267.106 286.984C267.106 288.164 276.233 289.12 287.493 289.12C298.753 289.12 307.88 288.164 307.88 286.984C307.88 285.805 298.753 284.849 287.493 284.849C276.233 284.849 267.106 285.805 267.106 286.984Z" fill="#AD084E"/>
<path d="M291.706 249.913C290.715 254.459 286.557 255.483 283.96 254.941C281.366 254.399 282.435 249.862 282.863 247.909C283.288 245.956 285.598 245.353 288.194 245.895C290.788 246.439 292.131 247.958 291.706 249.913V249.913Z" fill="#CC4E27"/>
<path d="M287.629 258.271L283.026 258.653L284.423 251.235L286.915 253.84L287.629 258.271Z" fill="#F39A92"/>
<path d="M296.72 260.876C298.165 263.484 303.199 276.17 301.444 277.105C299.689 278.04 291.814 266.867 290.369 264.262C288.922 261.654 289.17 258.783 290.924 257.85C292.679 256.915 295.273 258.271 296.72 260.876V260.876Z" fill="#F7C0B8"/>
<path d="M277.177 268.27C274.366 273.024 270.056 275.729 268.883 275.057C267.659 274.354 268.98 269.596 271.59 264.951C274.297 260.14 277.294 256.842 279.064 257.847C280.834 258.852 279.988 263.518 277.177 268.27Z" fill="#F7C0B8"/>
<path d="M294 269.655C292.332 267.381 290.905 265.229 290.369 264.262C288.922 261.654 289.17 258.783 290.924 257.85C292.679 256.915 295.273 258.271 296.72 260.876C297.275 261.879 298.362 264.374 299.388 267.118C297.696 269.487 294 269.655 294 269.655V269.655Z" fill="#8ABB43"/>
<path d="M271.59 264.951C274.297 260.14 277.294 256.842 279.064 257.847C280.741 258.799 280.064 263.047 277.594 267.537C277.594 267.537 272.768 266.914 271.59 264.951V264.951Z" fill="#8ABB43"/>
<path d="M278.914 257.619L292.028 257.549C294.64 257.536 296.505 260.029 295.701 262.466L288.595 283.993C287.749 286.562 285.192 288.211 282.448 287.956C279.587 287.692 277.34 285.438 277.136 282.63L275.574 261.151C275.437 259.251 276.969 257.63 278.914 257.619V257.619Z" fill="#F39A92"/>
<path d="M278.914 257.619L282.929 257.598C282.537 259.047 283.194 260.796 285.15 261.049C287.424 261.342 288.534 259.249 288.126 257.57L292.028 257.549C294.64 257.536 296.505 260.029 295.701 262.466L288.595 283.993C287.749 286.562 285.192 288.211 282.448 287.956C279.587 287.692 277.34 285.438 277.136 282.63L275.574 261.151C275.437 259.251 276.969 257.63 278.914 257.619V257.619Z" fill="#8ABB43"/>
<path d="M275.95 275.408C278.01 276.307 288.279 281.536 287.76 282.68C287.24 283.823 276.08 280.1 274.069 279.099C270.375 277.259 268.013 275.335 268.532 274.192C269.054 273.049 273.889 274.507 275.95 275.408V275.408Z" fill="#F7C0B8"/>
<path d="M301.478 285.142C297.751 286.251 274.026 291.791 273.119 289.916C272.772 289.198 295.526 279.07 299.252 277.961C302.976 276.852 306.495 277.562 307.111 279.542C307.727 281.527 305.204 284.032 301.478 285.142Z" fill="#F39A92"/>
<path d="M281.362 285.594C288.166 282.438 297.044 278.618 299.252 277.961C302.977 276.852 306.495 277.562 307.111 279.542C307.727 281.527 305.204 284.032 301.478 285.141C299.257 285.802 290.461 288.433 283.097 289.736C282.774 288.214 282.353 286.544 281.362 285.594V285.594Z" fill="#254063"/>
<path d="M290.723 252.536C290.011 255.807 289.014 257.284 287.298 256.924C285.209 256.487 283.06 253.69 283.645 250.993C284.233 248.297 285.788 246.992 287.879 247.428C289.968 247.865 291.311 249.84 290.723 252.536Z" fill="#F7C0B8"/>
<path d="M283.948 249.952L289.24 251.059C289.8 251.174 290.353 251.11 290.843 250.91C290.696 249.066 289.522 247.771 287.88 247.427C286.08 247.053 284.681 247.969 283.948 249.952Z" fill="#F3976B"/>
<path d="M289.35 250.555L283.259 249.282L283.52 248.092C283.828 246.673 285.253 245.768 286.702 246.071L292.81 247.346L292.554 248.519C292.244 249.95 290.81 250.859 289.35 250.555V250.555Z" fill="#CC4E27"/>
<path d="M284.559 251.678L285.205 248.709L286.529 248.987L286.162 250.66C286.008 251.374 285.288 251.831 284.559 251.678V251.678Z" fill="#CC4E27"/>
<path d="M285.189 251.209C284.996 252.1 284.551 252.763 283.809 252.61C283.067 252.455 282.859 251.126 283.054 250.234C283.247 249.344 283.772 249.222 284.514 249.378C285.254 249.533 285.384 250.317 285.189 251.209V251.209Z" fill="#F7C0B8"/>
<path d="M298.67 279.062C296.584 279.759 284.988 282.808 284.598 281.688C284.207 280.569 295.17 275.702 297.258 275.005C299.345 274.306 301.354 274.648 301.744 275.77C302.135 276.89 300.759 278.363 298.67 279.062V279.062Z" fill="#F7C0B8"/>
<path d="M278.231 287.331C278.231 287.331 278.164 287.522 276.134 287.324C274.106 287.125 273.863 286.321 272.29 288.215C270.718 290.108 266.909 290.28 266.8 291.222C266.694 292.163 281.98 289.273 281.98 289.273L278.231 287.331Z" fill="#F39A92"/>
<path d="M272.29 288.215C273.863 286.321 274.106 287.125 276.134 287.324C276.138 287.324 276.14 287.324 276.145 287.324C274.409 287.777 273.449 289.218 273.26 290.769C269.85 291.29 266.753 291.647 266.8 291.222C266.909 290.28 270.718 290.108 272.29 288.215Z" fill="#46464A"/>
<path d="M287.542 279.33C287.542 279.33 289.546 280.097 289.511 280.773C289.474 281.451 289.325 281.897 288.318 281.884C287.312 281.869 285.934 281.383 285.169 280.926C284.405 280.471 283.451 279.179 283.442 278.975C283.409 278.231 284.709 279.196 285.359 279.636C286.01 280.074 286.791 280.503 286.917 280.137C287.045 279.77 285.733 279.024 285.735 278.556C285.739 278.089 287.542 279.33 287.542 279.33V279.33Z" fill="#F7C0B8"/>
<path d="M283.841 283.449L297.428 281.866C298.053 281.791 298.523 281.273 298.523 280.654V272.186C298.523 271.457 297.873 270.89 297.133 270.977L283.548 272.56C282.923 272.632 282.453 273.153 282.453 273.769V282.238C282.453 282.969 283.101 283.534 283.841 283.449Z" fill="#C4E6FA"/>
<path d="M288.574 277.377C288.574 278.826 289.506 279.999 290.663 279.999C291.814 279.999 292.749 278.826 292.749 277.377C292.749 275.928 291.814 274.752 290.663 274.752C289.506 274.752 288.574 275.928 288.574 277.377Z" fill="#DCF0FC"/>
<path d="M275.631 277.421C279.412 278.329 299.48 286.423 299.73 288.714C299.784 289.213 277.204 286.818 273.423 285.909C269.64 285.001 267.207 282.065 267.768 279.827C268.328 277.587 271.848 276.512 275.631 277.421V277.421Z" fill="#F7C0B8"/>
<path d="M294.808 285.271C294.808 285.271 296.647 286.236 298.675 286.425C300.705 286.614 301.102 285.874 302.271 288.029C303.441 290.184 307.145 291.074 307.065 292.018C306.983 292.961 292.556 287.232 292.556 287.232L294.808 285.271V285.271Z" fill="#F7C0B8"/>
<path d="M298.367 286.383C298.471 286.396 298.571 286.417 298.675 286.426C300.705 286.615 301.102 285.875 302.272 288.03C303.441 290.185 307.145 291.075 307.065 292.019C307.028 292.442 304.135 291.532 300.944 290.397C300.979 288.714 300.12 287.012 298.367 286.383V286.383Z" fill="#46464A"/>
<path d="M267.768 279.827C268.328 277.587 271.848 276.512 275.631 277.421C277.82 277.948 285.47 280.883 291.574 283.707C291.16 285.271 290.743 287.713 290.858 288.782C284.195 288.11 275.56 286.423 273.423 285.909C269.64 285.001 267.207 282.065 267.768 279.827V279.827Z" fill="#1571AA"/>
<path d="M166.54 224.637C166.442 227.231 168.509 229.412 171.156 229.509C173.804 229.605 176.03 227.58 176.129 224.985C176.227 222.391 174.16 220.21 171.511 220.115C168.865 220.017 166.638 222.044 166.54 224.637V224.637Z" fill="#BC2759"/>
<path d="M165.729 225.5C164.267 227.487 159.098 236.49 160.28 237.326C161.464 238.161 168.551 230.515 170.013 228.528C171.475 226.543 171.7 224.257 170.516 223.422C169.334 222.584 167.189 223.517 165.729 225.5Z" fill="#F7C0B8"/>
<path d="M159.991 233.901C158.668 232.964 150.015 227.516 149.488 228.23C148.961 228.946 156.761 235.557 158.082 236.492C159.408 237.427 160.909 237.605 161.433 236.889C161.961 236.173 161.316 234.834 159.991 233.901V233.901Z" fill="#F7C0B8"/>
<path d="M150.715 227.522C150.715 227.522 150.211 229.131 149.168 228.733C148.126 228.334 147.688 225.348 148.222 224.776C148.753 224.203 149.548 226.09 150.715 227.522Z" fill="#F7C0B8"/>
<path d="M151.118 227.044C151.268 226.81 151.196 226.502 150.958 226.353L146.001 223.317C145.763 223.17 145.446 223.24 145.296 223.476C145.147 223.71 145.22 224.018 145.459 224.165L150.415 227.203C150.654 227.35 150.971 227.278 151.118 227.044Z" fill="#9E532C"/>
<path d="M149.396 224.819C149.587 224.826 149.678 225.363 149.721 225.992C149.743 226.343 149.851 226.698 150.11 226.942C150.277 227.1 150.379 227.348 150.37 227.629C150.353 228.092 150.025 228.457 149.641 228.445C149.14 228.426 149.073 227.544 149.068 227.202C149.062 226.602 149.157 224.811 149.396 224.819Z" fill="#F7C0B8"/>
<path d="M145.346 222.357C145.854 222.624 146.045 223.245 145.769 223.744C145.496 224.242 144.862 224.429 144.352 224.161C143.845 223.891 142.747 222.792 143.02 222.293C143.927 222.773 144.836 222.087 145.346 222.357Z" fill="#E1C483"/>
<path d="M145.346 222.357C145.854 222.624 144.862 224.429 144.352 224.161C143.845 223.891 142.747 222.792 143.02 222.293C143.927 222.773 144.836 222.087 145.346 222.357Z" fill="#EA5E20"/>
<path d="M143.42 224.494C143.42 224.772 143.188 224.998 142.904 224.998C142.62 224.998 142.39 224.772 142.39 224.494C142.39 224.213 142.904 223.531 142.904 223.531C142.904 223.531 143.42 224.213 143.42 224.494Z" fill="#EA5E20"/>
<path d="M166.124 289.833C166.124 290.207 169.184 290.511 172.963 290.511C176.739 290.511 179.799 290.207 179.799 289.833C179.799 289.459 176.739 289.155 172.963 289.155C169.184 289.155 166.124 289.459 166.124 289.833Z" fill="#0E91CA"/>
<path d="M170.939 281.226C170.939 281.226 172.422 285.029 173.03 285.412C173.639 285.796 174.4 286.691 173.704 287.416C173.188 287.953 172.654 288.58 172.201 288.967C171.808 289.301 171.316 289.492 170.798 289.507C169.882 289.534 168.479 289.573 168.247 289.545C167.9 289.503 168.399 288.65 169.704 288.478C171.008 288.308 171.78 285.395 170.132 283.285L170.939 281.226Z" fill="#F39A92"/>
<path d="M173.85 225.684C173.752 228.277 175.819 230.459 178.468 230.555C181.114 230.65 183.34 228.627 183.439 226.033C183.537 223.438 181.47 221.258 178.821 221.16C176.175 221.064 173.95 223.089 173.85 225.684Z" fill="#BC2759"/>
<path d="M172.384 220.323C172.303 222.441 173.991 224.222 176.156 224.301C178.318 224.379 180.136 222.726 180.216 220.607C180.296 218.487 178.609 216.706 176.446 216.627C174.282 216.549 172.464 218.204 172.384 220.323Z" fill="#BC2759"/>
<path d="M168.061 243.169L174.217 242.44L175.715 238.269L180.481 226.105C180.978 224.839 180.056 223.472 178.672 223.421L169.571 223.092C168.041 223.034 166.798 224.286 166.898 225.784L168.061 243.169V243.169Z" fill="#FDC504"/>
<path d="M172.348 226.169L167.069 225.978L165.277 230.585C164.72 232.021 165.765 233.568 167.333 233.625L169.42 233.702L172.348 226.169V226.169Z" fill="#FDC504"/>
<path d="M172.659 252.623C170.212 255.713 164.015 266.427 161.735 264.695C159.456 262.964 163.731 247.2 166.18 244.108C168.626 241.019 175.88 238.928 178.157 240.659C180.437 242.391 175.105 249.531 172.659 252.623V252.623Z" fill="#C74545"/>
<path d="M171.653 267.959C171.907 270.394 174.386 289.379 175.193 289.109C175.891 288.877 177.162 269.867 176.908 267.432C176.652 264.996 175.271 263.141 173.82 263.288C172.366 263.432 171.397 265.523 171.653 267.959Z" fill="#F7C0B8"/>
<path d="M161.668 265.964C162.651 268.214 170.778 285.62 171.466 285.127C172.062 284.702 167.507 266.181 166.527 263.93C165.546 261.68 163.661 260.311 162.319 260.872C160.978 261.433 160.688 263.714 161.668 265.964Z" fill="#F39A92"/>
<path d="M174.063 284.793H175.919C176.409 279.039 177.06 268.889 176.908 267.432C176.652 264.996 175.271 263.141 173.82 263.288C172.369 263.432 171.397 265.523 171.653 267.959C171.8 269.382 173.171 279.211 174.063 284.793V284.793Z" fill="#D3574C"/>
<path d="M171.795 283.261C170.732 277.796 167.266 265.628 166.527 263.93C165.546 261.68 163.661 260.311 162.319 260.872C160.978 261.433 160.688 263.714 161.668 265.964C162.375 267.583 167.624 278.569 170.297 283.572L171.795 283.261V283.261Z" fill="#C74545"/>
<path d="M171.431 250.379C171.284 254.289 170.67 267.885 173.555 267.989C176.437 268.095 181.776 253.448 181.979 247.927C182.253 240.489 177.934 237.852 175.051 237.748C172.169 237.642 171.581 246.471 171.431 250.379V250.379Z" fill="#D3574C"/>
<path d="M175.918 284.793C175.918 284.793 175.908 287.063 176.222 288.319C176.534 289.573 176.244 290.087 174.932 290.121C173.617 290.157 170.307 290.527 169.936 290.14C169.565 289.755 171.125 289.213 172.201 288.803C173.476 288.319 174.281 286.757 174.276 285.703L175.918 284.793Z" fill="#F7C0B8"/>
<path d="M173.101 285.463C172.702 286.751 171.748 287.845 170.24 288.23C170.075 288.364 169.897 288.455 169.704 288.478C168.399 288.65 167.9 289.503 168.247 289.545C168.479 289.573 169.882 289.534 170.798 289.507C171.316 289.492 171.808 289.301 172.201 288.967C172.654 288.58 173.188 287.953 173.704 287.416C174.372 286.719 173.695 285.869 173.101 285.463Z" fill="#824431"/>
<path d="M176.22 288.315C175.556 288.789 174.706 289.082 173.661 289.082C173.088 289.082 172.576 288.991 172.118 288.836C171.047 289.241 169.574 289.764 169.936 290.14C170.307 290.527 173.617 290.157 174.932 290.121C176.244 290.087 176.535 289.573 176.222 288.319C176.222 288.317 176.222 288.315 176.22 288.315V288.315Z" fill="#824431"/>
<path d="M175.769 227.43C175.268 229.827 174.327 240.117 175.756 240.404C177.185 240.691 180.443 230.864 180.944 228.467C181.445 226.07 180.693 223.894 179.263 223.608C177.834 223.321 176.27 225.033 175.769 227.43V227.43Z" fill="#F39A92"/>
<path d="M174.271 237.989C172.639 237.938 162.356 238.165 162.328 239.045C162.299 239.929 172.54 241.134 174.171 241.18C175.8 241.231 177.147 240.556 177.173 239.674C177.201 238.792 175.902 238.038 174.271 237.989V237.989Z" fill="#F39A92"/>
<path d="M161.325 238.221C161.325 238.221 162.911 238.096 163.11 238.555C163.31 239.018 163.358 239.362 162.683 239.672C162.009 239.983 160.935 240.093 160.275 240.032C159.618 239.972 158.558 239.413 158.486 239.281C158.219 238.797 159.399 239.029 159.976 239.114C160.553 239.199 161.215 239.239 161.178 238.954C161.141 238.672 160.022 238.591 159.87 238.278C159.718 237.966 161.325 238.221 161.325 238.221Z" fill="#F39A92"/>
<path d="M163.24 238.451C163.24 239.167 161.342 239.747 159 239.747C156.657 239.747 154.759 239.167 154.759 238.451C154.759 237.735 156.657 237.155 159 237.155C161.342 237.155 163.24 237.735 163.24 238.451Z" fill="#FFFBDF"/>
<path d="M157.32 238.432C157.32 238.602 156.957 238.74 156.512 238.74C156.068 238.74 155.708 238.602 155.708 238.432C155.708 238.262 156.068 238.124 156.512 238.124C156.957 238.124 157.32 238.262 157.32 238.432Z" fill="#EA5E20"/>
<path d="M159.25 238.901C159.25 239.071 158.892 239.21 158.447 239.21C158.002 239.21 157.64 239.071 157.64 238.901C157.64 238.731 158.002 238.593 158.447 238.593C158.892 238.593 159.25 238.731 159.25 238.901Z" fill="#EB5E92"/>
<path d="M159.421 237.746C159.421 237.916 159.059 238.054 158.616 238.054C158.171 238.054 157.811 237.916 157.811 237.746C157.811 237.576 158.171 237.44 158.616 237.44C159.059 237.44 159.421 237.576 159.421 237.746Z" fill="#7563A8"/>
<path d="M160.567 238.731C160.567 238.731 161.754 238.808 161.895 238.451C162.036 238.096 160.511 237.784 159.919 237.745C159.324 237.707 158.901 237.754 159.268 237.979C159.634 238.207 160.567 238.731 160.567 238.731Z" fill="#F39A92"/>
<path d="M146.92 252.863H143.198L132.053 208.484L135.563 207.639L146.92 252.863Z" fill="#E4E4E4"/>
<path fill-rule="evenodd" clip-rule="evenodd" d="M135.894 207.102L147.497 253.306H142.844L131.506 208.159L135.894 207.102ZM132.601 208.808L143.553 252.42H146.343L135.232 208.174L132.601 208.808Z" fill="#CECECE"/>
<path fill-rule="evenodd" clip-rule="evenodd" d="M153.364 253.31L143.198 253.306L143.198 252.42L153.365 252.424L153.364 253.31Z" fill="#CECECE"/>
<path fill-rule="evenodd" clip-rule="evenodd" d="M136.963 257.631V229.839H137.867V289.489H155.707V290.375H136.963V258.517H135.062V261.892H131.601V254.254H135.062V257.631H136.963ZM132.505 255.14V261.005H134.158V255.14H132.505ZM163.758 310.293H144.774V309.407H163.758V310.293ZM265.479 322H174.5V321.114H265.479V322Z" fill="#CECECE"/>
<path d="M169.5 211.865C170.199 211.727 170.843 211.925 171.305 212.32C172.034 212.945 172.915 213.374 173.884 213.408L174.396 213.427C175.147 213.455 175.81 213.907 176.099 214.583L177.081 216.891L170.44 216.649L170.47 215.843C170.277 215.894 170.075 215.926 169.867 215.918C168.546 215.871 167.557 214.634 167.93 213.302C168.132 212.581 168.754 212.012 169.5 211.865V211.865Z" fill="#BC2759"/>
<path d="M171.971 227.637C173.331 228.137 175.756 223.315 175.756 223.315L174.075 219.76L172.125 220.076L172.008 223.179C172.008 223.179 170.906 227.246 171.971 227.637Z" fill="#F39A92"/>
<path d="M167.855 215.913C167.811 217.044 168.713 217.996 169.867 218.036C171.021 218.079 171.993 217.195 172.036 216.064C172.08 214.934 171.178 213.984 170.024 213.941C168.87 213.899 167.898 214.783 167.855 215.913Z" fill="#BC2759"/>
<path d="M168.826 218.972C168.783 220.104 169.685 221.054 170.839 221.097C171.993 221.139 172.965 220.255 173.008 219.125C173.049 217.992 172.149 217.042 170.995 217C169.841 216.957 168.87 217.841 168.826 218.972Z" fill="#BC2759"/>
<path d="M169.816 216.268C169.688 219.645 172.534 220.506 174.462 220.574C176.388 220.644 176.354 217.85 176.41 216.398C176.464 214.949 174.946 214.12 173.018 214.05C171.092 213.98 169.87 214.817 169.816 216.268V216.268Z" fill="#BC2759"/>
<path d="M169.614 217.311C169.596 217.732 169.438 218.276 169.501 218.765C169.731 220.601 171.139 222.605 171.909 222.605C172.466 222.605 174.266 221.487 174.889 220.087C175.128 219.553 175.275 218.984 175.297 218.433C175.373 216.432 174.514 215.24 172.961 215.184C171.41 215.129 169.69 215.31 169.614 217.311V217.311Z" fill="#F7C0B8"/>
<path d="M175.272 217.647L171.342 217.505C170.928 217.49 170.064 217.144 169.815 216.268C169.869 214.834 170.711 214.836 172.96 215.184C174.281 215.388 175.116 216.124 175.272 217.647V217.647Z" fill="#F3976B"/>
<path d="M171.357 217.131L175.88 217.297L175.912 216.413C175.951 215.359 175.112 214.473 174.036 214.432L169.503 214.269L169.468 215.14C169.429 216.2 170.273 217.093 171.357 217.131V217.131Z" fill="#BC2759"/>
<path d="M174.531 218.757L174.613 216.553L173.63 216.517L173.583 217.76C173.563 218.291 173.988 218.738 174.531 218.757V218.757Z" fill="#BC2759"/>
<path d="M174.171 218.317C174.145 218.98 174.338 219.524 174.889 219.543C175.44 219.564 175.7 218.805 175.724 218.142C175.75 217.481 175.531 217.165 174.98 217.144C174.429 217.124 174.195 217.654 174.171 218.317V218.317Z" fill="#F7C0B8"/>
<path d="M436.422 240.366C436.422 242.627 434.552 244.459 432.242 244.459C429.934 244.459 428.062 242.627 428.062 240.366C428.062 238.105 429.934 236.271 432.242 236.271C434.552 236.271 436.422 238.105 436.422 240.366Z" fill="#FACA4F"/>
<path d="M429.146 242.68C429.146 245.619 426.715 248.001 423.715 248.001C420.715 248.001 418.284 245.619 418.284 242.68C418.284 239.741 420.715 237.359 423.715 237.359C426.715 237.359 429.146 239.741 429.146 242.68Z" fill="#FACA4F"/>
<path d="M406.452 253.5C406.452 253.5 407.675 255.177 407.276 255.712C406.877 256.248 406.508 256.535 405.693 255.997C404.875 255.455 404.016 254.335 403.639 253.562C403.261 252.788 403.187 251.228 403.292 251.056C403.673 250.432 404.207 251.902 404.5 252.603C404.792 253.305 405.196 254.065 405.5 253.832C405.805 253.598 405.14 252.299 405.398 251.917C405.656 251.537 406.452 253.5 406.452 253.5V253.5Z" fill="#F7C0B8"/>
<path d="M417.056 255.401C415.234 255.212 405.41 254.714 405.302 255.698C405.195 256.684 414.848 258.777 416.67 258.966C418.49 259.156 420.053 258.512 420.16 257.526C420.268 256.54 418.876 255.59 417.056 255.401V255.401Z" fill="#F7C0B8"/>
<path d="M417.056 255.401C415.853 255.275 410.421 254.976 406.838 255.069C407.103 255.696 407.239 257.026 407.189 257.693C410.653 258.594 415.529 258.849 416.67 258.966C418.49 259.155 420.054 258.512 420.16 257.526C420.269 256.54 418.876 255.59 417.056 255.401Z" fill="#EF83AB"/>
<path d="M393.901 262.185C391.507 263.125 372.961 270.945 373.445 271.695C373.861 272.345 393.409 268.359 395.804 267.421C398.198 266.484 399.714 264.551 399.187 263.105C398.662 261.658 396.296 261.246 393.901 262.185V262.185Z" fill="#F7C0B8"/>
<path d="M419.654 246.696C418.631 248.794 416.802 258.747 418.166 259.389C419.533 260.029 423.574 251.114 424.6 249.017C425.626 246.922 425.348 244.701 423.982 244.061C422.617 243.42 420.68 244.601 419.654 246.696V246.696Z" fill="#EF83AB"/>
<path d="M438.066 243.528C436.925 241.686 432.519 240.09 432.519 240.09L430.465 234.204C430.114 233.456 429.348 232.976 428.507 232.976H428.166C427.047 232.976 425.915 232.665 425.082 231.934C424.542 231.458 423.774 231.229 422.952 231.422C422.112 231.618 421.448 232.27 421.249 233.092C420.887 234.608 422.047 235.953 423.531 235.953C423.767 235.953 423.991 235.91 424.205 235.846V236.75H429.428C428.021 237.257 426.919 238.462 426.628 239.929C426.227 241.939 427.264 243.734 428.891 244.582C428.437 245.568 428.275 246.712 428.546 247.912C429.034 250.08 430.94 251.748 433.194 251.986C436.439 252.334 439.183 249.852 439.183 246.746C439.183 245.532 438.66 244.491 438.066 243.528V243.528Z" fill="#FACA4F"/>
<path d="M413.998 258.429C410.788 258.645 393.997 260.278 394.22 263.442C394.444 266.606 412.601 270.044 417.132 269.73C423.238 269.309 424.93 264.328 424.707 261.164C424.483 257.997 417.208 258.212 413.998 258.429V258.429Z" fill="#613A5B"/>
<path d="M377.967 269.325C377.967 269.325 374.831 270.105 373.486 270.084C372.145 270.061 367.436 268.376 367.842 269.963C367.842 269.963 371.512 272.623 372.642 273.095C374.065 273.688 374.781 271.79 377.41 271.227L377.967 269.325V269.325Z" fill="#F7C0B8"/>
<path d="M370.981 269.612C369.317 269.255 367.59 268.975 367.842 269.963C367.842 269.963 371.512 272.623 372.642 273.095C373.586 273.49 374.219 272.787 375.306 272.105C373.627 272.222 371.922 271.508 370.981 269.612V269.612Z" fill="#CA422D"/>
<path d="M433.728 244.011H423.505C421.787 244.011 420.685 247.742 420.685 247.742L419.009 252.592C418.442 254.226 419.683 255.919 421.442 255.919H421.544L422.666 266.593L429.537 265.524L431.04 260.783L435.871 246.948C436.372 245.507 435.279 244.011 433.728 244.011V244.011Z" fill="#EB5E92"/>
<path d="M429.782 246.843C428.229 249.13 422.811 259.436 424.175 260.327C425.537 261.215 433.164 252.349 434.717 250.063C436.272 247.778 436.428 245.203 435.066 244.315C433.702 243.424 431.337 244.557 429.782 246.843V246.843Z" fill="#EF83AB"/>
<path d="M400.58 263.161C398.042 264.328 379.237 272.107 379.968 272.953C380.538 273.61 383.097 272.443 385.212 272.141C390.893 271.332 401.248 269.27 403.098 268.418C405.636 267.254 407.131 265.129 406.435 263.677C405.74 262.226 403.118 261.994 400.58 263.161Z" fill="#F39A92"/>
<path d="M418.357 261.786C414.594 261.524 401.51 260.511 401.282 263.675C401.054 266.839 414.943 273.072 420.257 273.433C427.417 273.92 430.152 269.242 430.38 266.078C430.608 262.914 422.122 262.047 418.357 261.786V261.786Z" fill="#893864"/>
<path d="M383.555 270.777C383.555 270.777 380.39 271.44 379.05 271.367C377.709 271.297 373.07 269.438 373.413 271.038C373.413 271.038 376.978 273.834 378.089 274.347C379.488 274.993 380.275 273.123 382.926 272.657L383.555 270.777V270.777Z" fill="#F39A92"/>
<path d="M376.565 270.804C374.914 270.386 373.2 270.044 373.413 271.038C373.413 271.038 376.979 273.835 378.089 274.347C379.016 274.776 379.679 274.098 380.788 273.456C379.107 273.512 377.43 272.734 376.565 270.804V270.804Z" fill="#CA422D"/>
<path d="M417.7 261.858L407.402 261.235L404.053 250.795C405.005 250.502 406.02 251.018 406.319 251.953L408.755 259.544L416.009 259.981C417.004 260.041 417.763 260.88 417.7 261.858V261.858Z" fill="#8B8D91"/>
<path d="M422.528 257.29C420.703 257.468 409.294 259.2 409.398 260.184C409.498 261.172 421.072 261.038 422.894 260.86C424.716 260.679 426.111 259.733 426.011 258.75C425.909 257.764 424.35 257.111 422.528 257.29V257.29Z" fill="#F7C0B8"/>
<path d="M422.527 257.29C421.323 257.409 415.943 258.201 412.456 259.011C412.844 259.572 413.256 260.847 413.347 261.51C416.926 261.697 421.75 260.97 422.893 260.86C424.715 260.679 426.11 259.733 426.01 258.75C425.908 257.764 424.349 257.111 422.527 257.29V257.29Z" fill="#EF83AB"/>
<path d="M409.283 258.216C409.283 258.216 411.19 259.083 411.112 259.744C411.036 260.401 410.86 260.83 409.878 260.756C408.895 260.681 407.583 260.12 406.865 259.629C406.149 259.138 405.299 257.819 405.303 257.619C405.321 256.89 406.524 257.912 407.132 258.38C407.741 258.847 408.474 259.315 408.622 258.964C408.769 258.616 407.535 257.806 407.568 257.349C407.6 256.894 409.283 258.216 409.283 258.216V258.216Z" fill="#F7C0B8"/>
<path d="M426.064 248.195C427.463 248.809 430.452 244.01 430.452 244.01L428.413 240.09L426.24 240.525V244.01C426.24 244.01 425.088 247.768 426.064 248.195Z" fill="#F39A92"/>
<path d="M421.275 236.029C421.275 237.302 422.325 238.331 423.622 238.331C424.919 238.331 425.971 237.302 425.971 236.029C425.971 234.759 424.919 233.73 423.622 233.73C422.325 233.73 421.275 234.759 421.275 236.029Z" fill="#FACA4F"/>
<path d="M423.49 236.348C423.49 240.141 426.718 240.989 428.883 240.989C431.047 240.989 430.891 237.855 430.891 236.225C430.891 234.597 429.152 233.73 426.989 233.73C424.824 233.73 423.49 234.72 423.49 236.348V236.348Z" fill="#FACA4F"/>
<path d="M423.269 237.529C423.269 238.06 423.401 238.657 423.49 239.271C423.772 241.263 425.288 243.371 426.106 243.371C426.587 243.371 428.728 242.064 429.398 240.559C429.693 239.892 429.728 239.244 429.728 238.553C429.728 236.305 428.715 235.004 426.971 235.004C425.229 235.004 423.269 235.281 423.269 237.529V237.529Z" fill="#F7C0B8"/>
<path d="M429.668 237.671H425.256C424.117 237.569 423.657 236.8 423.49 236.398C423.49 234.789 424.434 234.706 426.972 235.004C428.462 235.178 429.431 235.969 429.668 237.671Z" fill="#F3976B"/>
<path d="M425.255 237.255H430.333V236.26C430.333 235.077 429.355 234.118 428.146 234.118H423.051V235.096C423.051 236.288 424.038 237.255 425.255 237.255Z" fill="#FACA4F"/>
<path d="M428.883 238.948V236.473H427.78V237.867C427.78 238.464 428.273 238.948 428.883 238.948V238.948Z" fill="#FACA4F"/>
<path d="M428.461 238.468C428.461 239.212 428.7 239.816 429.318 239.816C429.936 239.816 430.197 238.955 430.197 238.211C430.197 237.467 429.936 237.121 429.318 237.121C428.7 237.121 428.461 237.725 428.461 238.468V238.468Z" fill="#F7C0B8"/>
<path d="M89.0825 226.364H95.8609V199.026H89.0825V226.364Z" fill="#F18C48"/>
<path d="M95.8608 216.757H102.639V199.026H95.8608V216.757Z" fill="#F18C48"/>
<path d="M84.3727 257.963C84.3727 260.022 82.6678 261.693 80.566 261.693C78.4642 261.693 76.7593 260.022 76.7593 257.963C76.7593 255.902 78.4642 254.234 80.566 254.234C82.6678 254.234 84.3727 255.902 84.3727 257.963Z" stroke="#DCDADF" stroke-width="2.07967" stroke-miterlimit="10"/>
<path d="M76.5322 269.492H84.6012V258.422H76.5322V269.492Z" fill="#A9A6AB"/>
<path d="M76.5322 258.422H84.6012" stroke="#8B8D91" stroke-width="4.16934" stroke-miterlimit="10" stroke-linecap="round"/>
<path d="M76.5322 263.734H84.6012" stroke="#8B8D91" stroke-width="4.16934" stroke-miterlimit="10" stroke-linecap="round"/>
<path d="M76.5322 269.047H84.6012" stroke="#8B8D91" stroke-width="4.16934" stroke-miterlimit="10" stroke-linecap="round"/>
<path d="M82.6512 265.102C82.1869 265.102 81.8115 264.734 81.8115 264.279V257.964H83.4909V264.279C83.4909 264.734 83.1156 265.102 82.6512 265.102Z" fill="#F18C48"/>
<path d="M80.5668 252.595C80.5668 252.595 81.7407 254.329 81.2872 254.707C80.8359 255.083 79.4233 255.362 79.0285 255.251C78.6314 255.141 78.2365 252.706 78.6878 252.595C79.1413 252.485 80.5668 252.595 80.5668 252.595Z" fill="#F7C0B8"/>
<path d="M52.7827 290.932C52.7827 291.957 59.637 292.787 68.0942 292.787C76.5492 292.787 83.4056 291.957 83.4056 290.932C83.4056 289.908 76.5492 289.077 68.0942 289.077C59.637 289.077 52.7827 289.908 52.7827 290.932Z" fill="#AD084E"/>
<path d="M82.2248 242.735C82.1359 244.607 80.9603 254.754 79.9126 254.707C78.8649 254.658 78.3422 244.435 78.4311 242.561C78.52 240.686 79.4419 239.205 80.4896 239.254C81.5372 239.301 82.3137 240.861 82.2248 242.735Z" fill="#F7C0B8"/>
<path d="M79.5325 225.891C80.3003 228.118 82.901 242.028 81.3024 242.559C79.7038 243.088 74.5133 230.036 73.7432 227.809C72.9754 225.582 73.6456 223.349 75.2442 222.818C76.8428 222.289 78.7625 223.666 79.5325 225.891V225.891Z" fill="#F7C0B8"/>
<path d="M80.6344 230.646C80.2504 228.553 79.8058 226.687 79.5325 225.891C78.7625 223.666 76.8428 222.289 75.2442 222.818C73.6456 223.349 72.9754 225.582 73.7432 227.809C74.0404 228.666 74.9102 230.625 75.9622 232.688C75.9622 232.688 78.7061 232.589 80.6344 230.646Z" fill="#209383"/>
<path d="M73.4913 284.022L73.5086 288.334L72.7451 290.784C72.6931 290.952 72.821 291.122 73.0011 291.122H74.7428V290.576L75.5888 291.122C75.5888 291.122 80.0961 291.366 80.2501 291.122C80.8292 290.204 78.2068 289.849 76.2894 289.122C74.3719 288.396 75.695 281.26 75.695 281.26L73.4913 284.022V284.022Z" fill="#F39A92"/>
<path d="M78.0552 267.962C77.7298 270.236 74.7343 287.926 73.9903 287.648C73.3439 287.406 72.8277 269.562 73.1509 267.29C73.4762 265.019 74.8363 263.329 76.1898 263.514C77.5454 263.701 78.3783 265.692 78.0552 267.962V267.962Z" fill="#F39A92"/>
<path d="M75.5892 284.945C76.6433 279.692 77.8602 269.324 78.0554 267.962C78.3786 265.692 77.5457 263.701 76.19 263.514C74.8365 263.329 73.4765 265.019 73.1511 267.29C72.9516 268.691 72.7802 279.48 73.0513 284.945H75.5892V284.945Z" fill="#234872"/>
<path d="M60.7412 280.882L58.9018 285.759C58.9018 285.759 58.0667 286.273 57.7261 286.758C57.5288 287.041 57.2576 287.415 57.0646 287.678C56.9301 287.865 56.954 288.12 57.1188 288.28L57.9843 289.108C58.1491 289.265 58.4137 289.261 58.5721 289.098L58.7846 288.879L59.2575 289.99C59.4224 290.377 59.7802 290.647 60.2032 290.702C61.2877 290.844 63.2898 291.072 63.357 290.821C63.5674 290.028 60.6045 288.972 60.6045 288.972L60.2943 286.424L61.6305 283.277L60.7412 280.882Z" fill="#F7C0B8"/>
<path d="M69.3415 267.91C68.3936 270.007 60.5633 286.217 59.9234 285.747C59.3703 285.341 63.8689 268.041 64.8168 265.946C65.7625 263.849 67.5455 262.589 68.7949 263.131C70.0443 263.672 70.2894 265.812 69.3415 267.91Z" fill="#F7C0B8"/>
<path d="M68.7956 263.131C67.5462 262.589 65.7633 263.849 64.8175 265.946C64.2015 267.306 60.6942 277.687 59.4404 283.08L61.757 283.807C64.2601 279.019 68.7652 269.185 69.3422 267.91C70.2901 265.812 70.045 263.672 68.7956 263.131Z" fill="#1571AA"/>
<path d="M79.8896 246.871C79.9677 250.183 78.8094 271.187 76.4343 271.24C74.057 271.291 71.3609 250.375 71.285 247.062C71.209 243.751 73.0723 241.025 75.4496 240.971C77.8247 240.918 79.8137 243.56 79.8896 246.871V246.871Z" fill="#234872"/>
<path d="M73.5069 246.212C73.5828 249.523 70.891 268.518 68.5137 268.574C66.1386 268.625 64.5487 249.657 64.4706 246.344C64.3947 243.035 66.6895 240.364 69.0647 240.311C71.442 240.258 73.431 242.901 73.5069 246.212Z" fill="#1571AA"/>
<path d="M67.0054 223.512L72.5452 222.766C77.0721 222.158 80.8831 226.066 80.0567 230.469L77.5059 244.063C76.9701 246.93 74.1785 248.836 71.2481 248.341L64.5067 247.204L64.678 240.663L63.2681 228.211C63.0078 225.911 64.665 223.827 67.0054 223.512V223.512Z" fill="#107D72"/>
<path d="M73.4231 223.336C73.4231 223.336 73.4231 224.859 72.4579 224.859C70.1283 224.859 69.521 223.174 69.521 223.174L70.2737 219.184L72.805 219.49L73.4231 223.336V223.336Z" fill="#F39A92"/>
<path d="M75.8702 214.5C75.8702 218.536 72.5277 220.144 70.2241 220.144C67.9184 220.144 67.99 216.103 67.99 214.369C67.99 212.635 69.8402 211.712 72.1459 211.712C74.4495 211.712 75.8702 212.766 75.8702 214.5Z" fill="#733724"/>
<path d="M75.5212 216.9C75.5212 219.804 74.9486 221.235 73.4237 221.235C71.5692 221.235 69.2266 219.241 69.2266 216.846C69.2266 214.454 70.3068 213.07 72.1613 213.07C74.018 213.07 75.5212 214.507 75.5212 216.9Z" fill="#F7C0B8"/>
<path d="M69.2925 215.909H73.9907C74.4852 215.909 74.9429 215.756 75.3225 215.501C74.8561 213.961 73.6198 213.07 72.1622 213.07C70.5657 213.07 69.5463 214.099 69.2925 215.909V215.909Z" fill="#F3976B"/>
<path d="M73.9905 215.462H68.583V214.406C68.583 213.146 69.6263 212.124 70.9126 212.124H76.3353V213.167C76.3353 214.434 75.2854 215.462 73.9905 215.462V215.462Z" fill="#733724"/>
<path d="M70.1289 217.267V214.632H71.3028V216.117C71.3028 216.753 70.7777 217.267 70.1289 217.267Z" fill="#733724"/>
<path d="M70.577 216.757C70.577 217.549 70.3232 218.191 69.6636 218.191C69.0061 218.191 68.583 217.101 68.583 216.308C68.583 215.518 69.0061 215.322 69.6636 215.322C70.3232 215.322 70.577 215.964 70.577 216.757Z" fill="#F7C0B8"/>
<path d="M73.0775 228.462C78.0099 228.101 85.3934 225.298 85.3002 224.148C85.2047 222.943 77.3093 222.68 72.5395 222.928C67.6006 223.188 63.7743 224.24 63.9067 225.976C64.039 227.71 68.145 228.823 73.0775 228.462V228.462Z" fill="#F39A92"/>
<path d="M71.5591 228.523C67.3294 228.579 64.0238 227.527 63.9067 225.976C63.7743 224.239 67.6006 223.188 72.5395 222.928C72.9885 222.905 71.5591 228.523 71.5591 228.523Z" fill="#209383"/>
<path d="M85.4511 220.017C86.9738 218.753 94.1274 213.629 94.9647 214.598C95.8041 215.569 89.683 222.138 88.0887 223.311C85.1605 225.466 82.6227 226.492 81.7833 225.521C80.9438 224.552 83.9306 221.279 85.4511 220.017V220.017Z" fill="#F39A92"/>
<path d="M76.2894 289.122C75.695 288.897 75.4109 288.051 75.3046 286.995H73.5043L73.5086 288.334L72.7451 290.784C72.6931 290.952 72.821 291.122 73.0011 291.122H74.7428V290.576L75.5888 291.122C75.5888 291.122 80.0961 291.366 80.2501 291.122C80.8292 290.204 78.2068 289.849 76.2894 289.122V289.122Z" fill="#FEFEFE"/>
<path d="M60.6045 288.972L60.2943 286.424L60.7563 285.336C60.1598 285.3 59.6523 285.138 59.2315 284.883L58.9018 285.759C58.9018 285.759 58.0667 286.273 57.7261 286.758C57.5288 287.04 57.2576 287.414 57.0646 287.678C56.9301 287.865 56.954 288.12 57.1188 288.279L57.9843 289.108C58.1491 289.265 58.4137 289.261 58.5721 289.097L58.7846 288.878L59.2575 289.99C59.4224 290.376 59.7802 290.646 60.2032 290.702C61.2877 290.844 63.2898 291.071 63.357 290.821C63.5674 290.028 60.6045 288.972 60.6045 288.972V288.972Z" fill="#FEFEFE"/>
<path d="M76.2915 289.123C76.0161 289.191 75.7254 289.237 75.4022 289.237C74.5888 289.237 73.9273 289.006 73.4154 288.632L72.7451 290.784C72.6931 290.952 72.821 291.122 73.0011 291.122H74.7428V290.576L75.5888 291.122C75.5888 291.122 80.0961 291.367 80.2501 291.122C80.8292 290.204 78.209 289.849 76.2915 289.123V289.123Z" fill="#653B2A"/>
<path d="M60.6045 288.971L60.4917 288.041C59.4961 287.671 58.8692 286.878 58.6046 285.958C58.3291 286.151 57.9365 286.46 57.7261 286.757C57.5288 287.04 57.2576 287.414 57.0646 287.677C56.9301 287.864 56.954 288.119 57.1188 288.279L57.9843 289.107C58.1491 289.265 58.4137 289.26 58.5721 289.097L58.7846 288.878L59.2575 289.989C59.4224 290.376 59.7802 290.646 60.2032 290.701C61.2877 290.843 63.2898 291.071 63.357 290.82C63.5674 290.027 60.6045 288.971 60.6045 288.971V288.971Z" fill="#653B2A"/>
<path d="M95.353 201.372L105.316 207.906C105.873 208.272 106.023 209.011 105.65 209.558L105.073 210.401C104.7 210.947 103.945 211.092 103.387 210.729L99.8625 208.414C99.3376 208.07 98.6261 208.208 98.2748 208.725L95.7304 212.446" stroke="#FEFEFE" stroke-width="4.16934" stroke-miterlimit="10" stroke-linecap="round"/>
<path d="M104.365 209.77L94.9644 203.605L97.3113 200.171L106.712 206.336L104.365 209.77Z" fill="#EA5E20"/>
<path d="M104.365 209.77L94.9644 203.606L95.5522 202.747L104.951 208.912L104.365 209.77Z" fill="#CC4E27"/>
<path d="M97.4883 209.876L95.0083 213.502" stroke="#9E532C" stroke-width="8.32868" stroke-miterlimit="10"/>
<path d="M96.4833 211.835C96.0581 212.052 94.6135 213.572 94.6135 213.572C94.0582 213.884 93.5398 214.22 93.542 214.666C93.5442 215.522 93.9433 215.643 94.5441 215.665C95.1428 215.684 96.8325 213.871 97.2446 213.501C97.8129 212.994 97.4051 212.161 97.301 211.755C97.455 211.631 96.9062 211.617 96.4833 211.835Z" fill="#F39A92"/>
<path d="M95.3536 211.34C95.3536 211.34 95.0151 211.313 94.759 211.34C94.5051 211.368 94.5897 212.446 94.5897 212.446L95.3536 211.34Z" fill="#F39A92"/>
<defs>
<linearGradient id="paint0_linear" x1="44.25" y1="-1.14557e-06" x2="240.725" y2="452.356" gradientUnits="userSpaceOnUse">
<stop stop-color="#BC12E7"/>
<stop offset="1" stop-color="#DC1368"/>
</linearGradient>
</defs>
</svg>
