<svg width="80" height="80" viewBox="0 0 80 80" fill="none" xmlns="http://www.w3.org/2000/svg">
<path fill-rule="evenodd" clip-rule="evenodd" d="M0.645264 4.51611H34.1937V43.2258H0.645264V4.51611ZM18.7098 47.0968H47.0969V57.4194H18.7098V47.0968Z" fill="url(#paint0_linear)"/>
<path fill-rule="evenodd" clip-rule="evenodd" d="M47.7419 0H73.5484C77.1058 0 80 2.89419 80 6.45161V52.9032C80 56.4606 77.1058 59.3548 73.5484 59.3548H65.8064V73.5484C65.8064 77.1058 62.9123 80 59.3548 80H20.6452C17.0877 80 14.1935 77.1058 14.1935 73.5484V56.7742H6.45161C2.89419 56.7742 0 53.88 0 50.3226V6.45161C0 2.89419 2.89419 0 6.45161 0H29.6774C33.2348 0 36.129 2.89419 36.129 6.45161V46.4516H41.2903V6.45161C41.2903 2.89419 44.1845 0 47.7419 0ZM14.0826 45.8064L14.7277 46.4516H20.6452H21.4013L22.0465 45.8064L18.0645 41.8245L14.0826 45.8064ZM26.8232 38.9703L28.6477 37.1458L29.6774 38.1755L33.5484 34.3045V34.0826L29.6774 30.2116L25.6955 34.1935L27.0077 35.5058L25.1832 37.3303L23.871 36.0181L19.889 40L23.871 43.9819L27.8529 40L26.8232 38.9703ZM29.6774 26.5626L33.5484 22.6916V22.4697L29.6774 18.5987L25.6955 22.5806L29.6774 26.5626ZM23.871 32.369L27.8529 28.3871L23.871 24.4052L19.889 28.3871L23.871 32.369ZM19.889 16.7742L23.871 20.7561L27.8529 16.7742L23.871 12.7923L19.889 16.7742ZM18.0645 26.5626L22.0465 22.5806L18.0645 18.5987L14.0826 22.5806L18.0645 26.5626ZM12.2581 32.369L16.24 28.3871L12.2581 24.4052L8.27613 28.3871L12.2581 32.369ZM2.58065 22.6916L6.45161 26.5626L10.4335 22.5806L6.45161 18.5987L2.58065 22.4697V22.6916ZM4.6271 28.3871L2.58065 26.3406V30.4335L4.6271 28.3871ZM4.6271 40L2.58065 37.9535V42.0464L4.6271 40ZM2.58065 34.0826V34.3045L6.45161 38.1755L10.4335 34.1935L6.45161 30.2116L2.58065 34.0826ZM16.24 40L12.2581 36.0181L8.27613 40L12.2581 43.9819L16.24 40ZM18.0645 30.2116L14.0826 34.1935L18.0645 38.1755L22.0465 34.1935L18.0645 30.2116ZM31.5019 40L33.5484 42.0464V37.9535L31.5019 40ZM33.5484 26.3406L31.5019 28.3871L33.5484 30.4335V26.3406ZM31.5019 16.7742L33.5484 18.8206V14.7277L31.5019 16.7742ZM33.5484 10.8568L33.0142 10.3226H26.3406L25.6955 10.9677L29.6774 14.9497L33.5484 11.0787V10.8568ZM22.0465 10.9677L21.4013 10.3226H14.7277L14.0826 10.9677L15.3239 12.209L13.4994 14.0335L12.2581 12.7923L8.27613 16.7742L12.2581 20.7561L16.24 16.7742L14.9858 15.52L16.8103 13.6955L18.0645 14.9497L22.0465 10.9677ZM10.4335 10.9677L9.78839 10.3226H3.11484L2.58065 10.8568V11.0787L6.45161 14.9497L10.4335 10.9677ZM2.58065 18.8206L4.6271 16.7742L2.58065 14.7277V18.8206ZM2.58065 45.9174L3.11484 46.4516H9.78839L10.4335 45.8064L6.45161 41.8245L2.58065 45.6955V45.9174ZM25.6955 45.8064L26.3406 46.4516H33.0142L33.5484 45.9174V45.6955L29.6774 41.8245L25.6955 45.8064ZM29.6774 2.58065H6.45161C4.31742 2.58065 2.58065 4.31742 2.58065 6.45161V7.74194H33.5484V6.45161C33.5484 4.31742 31.8116 2.58065 29.6774 2.58065ZM2.58065 50.3226C2.58065 52.4568 4.31742 54.1935 6.45161 54.1935H14.1935V52.9032C14.1935 51.4452 14.6981 50.1135 15.5174 49.0323H2.58065V50.3226ZM20.6452 77.4193H59.3548C61.489 77.4193 63.2258 75.6826 63.2258 73.5484V67.0968H60.6452V64.5161H63.2258V52.9032C63.2258 50.769 61.489 49.0323 59.3548 49.0323H34.8387H20.6452C18.511 49.0323 16.7742 50.769 16.7742 52.9032V64.5161H58.0645V67.0968H16.7742V73.5484C16.7742 75.6826 18.511 77.4193 20.6452 77.4193ZM60.6452 33.5484C55.6645 33.5484 51.6129 37.6 51.6129 42.5806C51.6129 43.9264 51.9303 45.2464 52.5019 46.4516H57.2671C56.1832 45.5045 55.4839 44.129 55.4839 42.5806C55.4839 39.7342 57.7987 37.4194 60.6452 37.4194C63.4916 37.4194 65.8064 39.7342 65.8064 42.5806C65.8064 44.7381 64.4735 46.5845 62.591 47.3548C63.7703 48.0452 64.7226 49.0787 65.271 50.3419C67.9845 48.7303 69.6774 45.8129 69.6774 42.5806C69.6774 37.6 65.6258 33.5484 60.6452 33.5484ZM58.0645 42.5806C58.0645 44.0039 59.2219 45.1613 60.6452 45.1613C62.0684 45.1613 63.2258 44.0039 63.2258 42.5806C63.2258 41.1574 62.0684 40 60.6452 40C59.2219 40 58.0645 41.1574 58.0645 42.5806ZM73.5484 56.7742C75.6826 56.7742 77.4193 55.0374 77.4193 52.9032V6.45161C77.4193 4.31742 75.6826 2.58065 73.5484 2.58065H47.7419C45.6077 2.58065 43.871 4.31742 43.871 6.45161V46.4516H49.72C49.2813 45.2129 49.0323 43.9071 49.0323 42.5806C49.0323 36.1781 54.2426 30.9677 60.6452 30.9677C67.0477 30.9677 72.2581 36.1781 72.2581 42.5806C72.2581 47.0335 69.7419 50.9948 65.8064 52.951V56.7742H73.5484ZM60.6452 61.9355H50.3226V51.6129H60.6452V61.9355ZM58.0645 54.1936H52.9032V59.3548H58.0645V54.1936ZM20.6452 72.2581C20.6452 70.1239 22.3819 68.3871 24.5161 68.3871C26.6503 68.3871 28.3871 70.1239 28.3871 72.2581C28.3871 74.3923 26.6503 76.129 24.5161 76.129C22.3819 76.129 20.6452 74.3923 20.6452 72.2581ZM23.2258 72.2581C23.2258 72.969 23.8052 73.5484 24.5161 73.5484C25.2271 73.5484 25.8065 72.969 25.8065 72.2581C25.8065 71.5471 25.2271 70.9677 24.5161 70.9677C23.8052 70.9677 23.2258 71.5471 23.2258 72.2581ZM34.8387 68.3871C32.7045 68.3871 30.9677 70.1239 30.9677 72.2581C30.9677 74.3923 32.7045 76.129 34.8387 76.129C36.9729 76.129 38.7097 74.3923 38.7097 72.2581C38.7097 70.1239 36.9729 68.3871 34.8387 68.3871ZM34.8387 73.5484C34.1277 73.5484 33.5484 72.969 33.5484 72.2581C33.5484 71.5471 34.1277 70.9677 34.8387 70.9677C35.5497 70.9677 36.129 71.5471 36.129 72.2581C36.129 72.969 35.5497 73.5484 34.8387 73.5484ZM41.2903 72.2581C41.2903 70.1239 43.0271 68.3871 45.1613 68.3871C47.2955 68.3871 49.0323 70.1239 49.0323 72.2581C49.0323 74.3923 47.2955 76.129 45.1613 76.129C43.0271 76.129 41.2903 74.3923 41.2903 72.2581ZM43.871 72.2581C43.871 72.969 44.4503 73.5484 45.1613 73.5484C45.8723 73.5484 46.4516 72.969 46.4516 72.2581C46.4516 71.5471 45.8723 70.9677 45.1613 70.9677C44.4503 70.9677 43.871 71.5471 43.871 72.2581ZM55.4839 68.3871C53.3497 68.3871 51.6129 70.1239 51.6129 72.2581C51.6129 74.3923 53.3497 76.129 55.4839 76.129C57.6181 76.129 59.3548 74.3923 59.3548 72.2581C59.3548 70.1239 57.6181 68.3871 55.4839 68.3871ZM55.4839 73.5484C54.7729 73.5484 54.1936 72.969 54.1936 72.2581C54.1936 71.5471 54.7729 70.9677 55.4839 70.9677C56.1948 70.9677 56.7742 71.5471 56.7742 72.2581C56.7742 72.969 56.1948 73.5484 55.4839 73.5484ZM60.6452 10.3226C57.7987 10.3226 55.4839 12.6374 55.4839 15.4839C55.4839 18.3303 57.7987 20.6452 60.6452 20.6452C63.4916 20.6452 65.8065 18.3303 65.8065 15.4839C65.8065 12.6374 63.4916 10.3226 60.6452 10.3226ZM60.6452 18.0645C59.2219 18.0645 58.0645 16.9071 58.0645 15.4839C58.0645 14.0607 59.2219 12.9033 60.6452 12.9033C62.0684 12.9033 63.2258 14.0607 63.2258 15.4839C63.2258 16.9071 62.0684 18.0645 60.6452 18.0645ZM50.3226 15.4839C50.3226 9.79224 54.9535 5.16127 60.6452 5.16127C66.3368 5.16127 70.9677 9.79224 70.9677 15.4839C70.9677 21.1755 66.3368 25.8064 60.6452 25.8064C54.9535 25.8064 50.3226 21.1755 50.3226 15.4839ZM52.9032 15.4839C52.9032 19.7535 56.3755 23.2258 60.6452 23.2258C64.9148 23.2258 68.3871 19.7535 68.3871 15.4839C68.3871 11.2142 64.9148 7.74192 60.6452 7.74192C56.3755 7.74192 52.9032 11.2142 52.9032 15.4839Z" fill="white"/>
<defs>
<linearGradient id="paint0_linear" x1="4.51623" y1="4.51611" x2="36.3592" y2="53.8567" gradientUnits="userSpaceOnUse">
<stop stop-color="#BC12E7"/>
<stop offset="1" stop-color="#DC1368"/>
</linearGradient>
</defs>
</svg>
